ECE375/hw4/hw4/files/lab6sp8chart.csv

Model,DPO4034
Firmware Version,2.68

Waveform Type,ANALOG
Point Format,Y
Horizontal Units,s
Horizontal Scale,2e-05
Horizontal Delay,3.88e-05
Sample Interval,2e-08
Record Length,10000
Gating,0.0% to 100.0%
Probe Attenuation,1
Vertical Units,V
Vertical Offset,0
Vertical Scale,0.1
Vertical Position,0.04
,
,
,
Label,A
TIME,CH1
-6.1200e-05,0.192
-6.1180e-05,0.196
-6.1160e-05,0.192
-6.1140e-05,0.192
-6.1120e-05,0.192
-6.1100e-05,0.196
-6.1080e-05,0.188
-6.1060e-05,0.192
-6.1040e-05,0.188
-6.1020e-05,0.2
-6.1000e-05,0.188
-6.0980e-05,0.188
-6.0960e-05,0.196
-6.0940e-05,0.196
-6.0920e-05,0.188
-6.0900e-05,0.188
-6.0880e-05,0.196
-6.0860e-05,0.196
-6.0840e-05,0.188
-6.0820e-05,0.188
-6.0800e-05,0.188
-6.0780e-05,0.188
-6.0760e-05,0.188
-6.0740e-05,0.188
-6.0720e-05,0.192
-6.0700e-05,0.196
-6.0680e-05,0.192
-6.0660e-05,0.184
-6.0640e-05,0.192
-6.0620e-05,0.196
-6.0600e-05,0.192
-6.0580e-05,0.192
-6.0560e-05,0.192
-6.0540e-05,0.192
-6.0520e-05,0.192
-6.0500e-05,0.192
-6.0480e-05,0.192
-6.0460e-05,0.188
-6.0440e-05,0.196
-6.0420e-05,0.188
-6.0400e-05,0.188
-6.0380e-05,0.192
-6.0360e-05,0.188
-6.0340e-05,0.196
-6.0320e-05,0.196
-6.0300e-05,0.192
-6.0280e-05,0.208
-6.0260e-05,0.188
-6.0240e-05,0.2
-6.0220e-05,0.196
-6.0200e-05,0.188
-6.0180e-05,0.192
-6.0160e-05,0.188
-6.0140e-05,0.196
-6.0120e-05,0.188
-6.0100e-05,0.2
-6.0080e-05,0.192
-6.0060e-05,0.188
-6.0040e-05,0.184
-6.0020e-05,0.188
-6.0000e-05,0.192
-5.9980e-05,0.192
-5.9960e-05,0.196
-5.9940e-05,0.2
-5.9920e-05,0.188
-5.9900e-05,0.2
-5.9880e-05,0.18
-5.9860e-05,0.196
-5.9840e-05,0.188
-5.9820e-05,0.192
-5.9800e-05,0.192
-5.9780e-05,0.188
-5.9760e-05,0.2
-5.9740e-05,0.196
-5.9720e-05,0.192
-5.9700e-05,0.196
-5.9680e-05,0.188
-5.9660e-05,0.184
-5.9640e-05,0.2
-5.9620e-05,0.184
-5.9600e-05,0.188
-5.9580e-05,0.196
-5.9560e-05,0.196
-5.9540e-05,0.18
-5.9520e-05,0.192
-5.9500e-05,0.188
-5.9480e-05,0.188
-5.9460e-05,0.192
-5.9440e-05,0.196
-5.9420e-05,0.196
-5.9400e-05,0.192
-5.9380e-05,0.196
-5.9360e-05,0.196
-5.9340e-05,0.192
-5.9320e-05,0.2
-5.9300e-05,0.192
-5.9280e-05,0.184
-5.9260e-05,0.188
-5.9240e-05,0.196
-5.9220e-05,0.196
-5.9200e-05,0.196
-5.9180e-05,0.192
-5.9160e-05,0.188
-5.9140e-05,0.188
-5.9120e-05,0.192
-5.9100e-05,0.188
-5.9080e-05,0.192
-5.9060e-05,0.192
-5.9040e-05,0.188
-5.9020e-05,0.184
-5.9000e-05,0.192
-5.8980e-05,0.188
-5.8960e-05,0.196
-5.8940e-05,0.188
-5.8920e-05,0.192
-5.8900e-05,0.192
-5.8880e-05,0.18
-5.8860e-05,0.188
-5.8840e-05,0.184
-5.8820e-05,0.18
-5.8800e-05,0.188
-5.8780e-05,0.184
-5.8760e-05,0.188
-5.8740e-05,0.192
-5.8720e-05,0.184
-5.8700e-05,0.184
-5.8680e-05,0.2
-5.8660e-05,0.188
-5.8640e-05,0.192
-5.8620e-05,0.196
-5.8600e-05,0.188
-5.8580e-05,0.184
-5.8560e-05,0.196
-5.8540e-05,0.196
-5.8520e-05,0.192
-5.8500e-05,0.184
-5.8480e-05,0.18
-5.8460e-05,0.192
-5.8440e-05,0.188
-5.8420e-05,0.184
-5.8400e-05,0.188
-5.8380e-05,0.192
-5.8360e-05,0.192
-5.8340e-05,0.188
-5.8320e-05,0.188
-5.8300e-05,0.184
-5.8280e-05,0.18
-5.8260e-05,0.184
-5.8240e-05,0.18
-5.8220e-05,0.192
-5.8200e-05,0.184
-5.8180e-05,0.188
-5.8160e-05,0.188
-5.8140e-05,0.192
-5.8120e-05,0.188
-5.8100e-05,0.196
-5.8080e-05,0.192
-5.8060e-05,0.188
-5.8040e-05,0.192
-5.8020e-05,0.192
-5.8000e-05,0.184
-5.7980e-05,0.192
-5.7960e-05,0.188
-5.7940e-05,0.192
-5.7920e-05,0.18
-5.7900e-05,0.184
-5.7880e-05,0.184
-5.7860e-05,0.192
-5.7840e-05,0.192
-5.7820e-05,0.188
-5.7800e-05,0.192
-5.7780e-05,0.196
-5.7760e-05,0.18
-5.7740e-05,0.192
-5.7720e-05,0.196
-5.7700e-05,0.192
-5.7680e-05,0.184
-5.7660e-05,0.192
-5.7640e-05,0.196
-5.7620e-05,0.188
-5.7600e-05,0.188
-5.7580e-05,0.184
-5.7560e-05,0.204
-5.7540e-05,0.196
-5.7520e-05,0.192
-5.7500e-05,0.188
-5.7480e-05,0.192
-5.7460e-05,0.192
-5.7440e-05,0.188
-5.7420e-05,0.18
-5.7400e-05,0.184
-5.7380e-05,0.196
-5.7360e-05,0.196
-5.7340e-05,0.196
-5.7320e-05,0.2
-5.7300e-05,0.184
-5.7280e-05,0.192
-5.7260e-05,0.192
-5.7240e-05,0.188
-5.7220e-05,0.188
-5.7200e-05,0.192
-5.7180e-05,0.192
-5.7160e-05,0.196
-5.7140e-05,0.192
-5.7120e-05,0.192
-5.7100e-05,0.196
-5.7080e-05,0.196
-5.7060e-05,0.192
-5.7040e-05,0.188
-5.7020e-05,0.192
-5.7000e-05,0.188
-5.6980e-05,0.192
-5.6960e-05,0.192
-5.6940e-05,0.192
-5.6920e-05,0.188
-5.6900e-05,0.192
-5.6880e-05,0.188
-5.6860e-05,0.196
-5.6840e-05,0.196
-5.6820e-05,0.196
-5.6800e-05,0.196
-5.6780e-05,0.196
-5.6760e-05,0.188
-5.6740e-05,0.184
-5.6720e-05,0.192
-5.6700e-05,0.196
-5.6680e-05,0.192
-5.6660e-05,0.184
-5.6640e-05,0.188
-5.6620e-05,0.196
-5.6600e-05,0.2
-5.6580e-05,0.188
-5.6560e-05,0.2
-5.6540e-05,0.2
-5.6520e-05,0.192
-5.6500e-05,0.192
-5.6480e-05,0.192
-5.6460e-05,0.196
-5.6440e-05,0.196
-5.6420e-05,0.188
-5.6400e-05,0.2
-5.6380e-05,0.192
-5.6360e-05,0.2
-5.6340e-05,0.2
-5.6320e-05,0.196
-5.6300e-05,0.188
-5.6280e-05,0.196
-5.6260e-05,0.192
-5.6240e-05,0.196
-5.6220e-05,0.2
-5.6200e-05,0.184
-5.6180e-05,0.188
-5.6160e-05,0.2
-5.6140e-05,0.2
-5.6120e-05,0.2
-5.6100e-05,0.2
-5.6080e-05,0.184
-5.6060e-05,0.188
-5.6040e-05,0.2
-5.6020e-05,0.188
-5.6000e-05,0.192
-5.5980e-05,0.192
-5.5960e-05,0.192
-5.5940e-05,0.196
-5.5920e-05,0.188
-5.5900e-05,0.192
-5.5880e-05,0.192
-5.5860e-05,0.188
-5.5840e-05,0.188
-5.5820e-05,0.2
-5.5800e-05,0.188
-5.5780e-05,0.192
-5.5760e-05,0.204
-5.5740e-05,0.2
-5.5720e-05,0.192
-5.5700e-05,0.192
-5.5680e-05,0.196
-5.5660e-05,0.192
-5.5640e-05,0.188
-5.5620e-05,0.188
-5.5600e-05,0.192
-5.5580e-05,0.192
-5.5560e-05,0.188
-5.5540e-05,0.188
-5.5520e-05,0.2
-5.5500e-05,0.196
-5.5480e-05,0.192
-5.5460e-05,0.196
-5.5440e-05,0.192
-5.5420e-05,0.188
-5.5400e-05,0.192
-5.5380e-05,0.192
-5.5360e-05,0.192
-5.5340e-05,0.192
-5.5320e-05,0.192
-5.5300e-05,0.192
-5.5280e-05,0.188
-5.5260e-05,0.192
-5.5240e-05,0.196
-5.5220e-05,0.188
-5.5200e-05,0.2
-5.5180e-05,0.192
-5.5160e-05,0.192
-5.5140e-05,0.192
-5.5120e-05,0.188
-5.5100e-05,0.196
-5.5080e-05,0.192
-5.5060e-05,0.188
-5.5040e-05,0.192
-5.5020e-05,0.192
-5.5000e-05,0.196
-5.4980e-05,0.196
-5.4960e-05,0.192
-5.4940e-05,0.196
-5.4920e-05,0.188
-5.4900e-05,0.192
-5.4880e-05,0.188
-5.4860e-05,0.188
-5.4840e-05,0.192
-5.4820e-05,0.196
-5.4800e-05,0.2
-5.4780e-05,0.196
-5.4760e-05,0.192
-5.4740e-05,0.192
-5.4720e-05,0.188
-5.4700e-05,0.192
-5.4680e-05,0.188
-5.4660e-05,0.188
-5.4640e-05,0.184
-5.4620e-05,0.2
-5.4600e-05,0.196
-5.4580e-05,0.192
-5.4560e-05,0.192
-5.4540e-05,0.184
-5.4520e-05,0.196
-5.4500e-05,0.192
-5.4480e-05,0.192
-5.4460e-05,0.192
-5.4440e-05,0.192
-5.4420e-05,0.2
-5.4400e-05,0.2
-5.4380e-05,0.192
-5.4360e-05,0.188
-5.4340e-05,0.188
-5.4320e-05,0.192
-5.4300e-05,0.196
-5.4280e-05,0.196
-5.4260e-05,0.2
-5.4240e-05,0.192
-5.4220e-05,0.196
-5.4200e-05,0.192
-5.4180e-05,0.192
-5.4160e-05,0.196
-5.4140e-05,0.192
-5.4120e-05,0.204
-5.4100e-05,0.188
-5.4080e-05,0.196
-5.4060e-05,0.196
-5.4040e-05,0.196
-5.4020e-05,0.2
-5.4000e-05,0.192
-5.3980e-05,0.196
-5.3960e-05,0.192
-5.3940e-05,0.188
-5.3920e-05,0.196
-5.3900e-05,0.196
-5.3880e-05,0.2
-5.3860e-05,0.184
-5.3840e-05,0.2
-5.3820e-05,0.188
-5.3800e-05,0.18
-5.3780e-05,0.192
-5.3760e-05,0.196
-5.3740e-05,0.196
-5.3720e-05,0.196
-5.3700e-05,0.184
-5.3680e-05,0.192
-5.3660e-05,0.188
-5.3640e-05,0.196
-5.3620e-05,0.2
-5.3600e-05,0.196
-5.3580e-05,0.2
-5.3560e-05,0.188
-5.3540e-05,0.188
-5.3520e-05,0.192
-5.3500e-05,0.2
-5.3480e-05,0.196
-5.3460e-05,0.208
-5.3440e-05,0.188
-5.3420e-05,0.196
-5.3400e-05,0.204
-5.3380e-05,0.196
-5.3360e-05,0.192
-5.3340e-05,0.192
-5.3320e-05,0.192
-5.3300e-05,0.188
-5.3280e-05,0.192
-5.3260e-05,0.196
-5.3240e-05,0.192
-5.3220e-05,0.196
-5.3200e-05,0.196
-5.3180e-05,0.184
-5.3160e-05,0.204
-5.3140e-05,0.196
-5.3120e-05,0.188
-5.3100e-05,0.2
-5.3080e-05,0.192
-5.3060e-05,0.192
-5.3040e-05,0.196
-5.3020e-05,0.2
-5.3000e-05,0.192
-5.2980e-05,0.196
-5.2960e-05,0.192
-5.2940e-05,0.196
-5.2920e-05,0.188
-5.2900e-05,0.192
-5.2880e-05,0.2
-5.2860e-05,0.192
-5.2840e-05,0.2
-5.2820e-05,0.2
-5.2800e-05,0.188
-5.2780e-05,0.188
-5.2760e-05,0.2
-5.2740e-05,0.192
-5.2720e-05,0.192
-5.2700e-05,0.2
-5.2680e-05,0.192
-5.2660e-05,0.196
-5.2640e-05,0.188
-5.2620e-05,0.192
-5.2600e-05,0.188
-5.2580e-05,0.2
-5.2560e-05,0.2
-5.2540e-05,0.196
-5.2520e-05,0.18
-5.2500e-05,0.196
-5.2480e-05,0.192
-5.2460e-05,0.188
-5.2440e-05,0.192
-5.2420e-05,0.2
-5.2400e-05,0.2
-5.2380e-05,0.196
-5.2360e-05,0.192
-5.2340e-05,0.188
-5.2320e-05,0.192
-5.2300e-05,0.192
-5.2280e-05,0.192
-5.2260e-05,0.192
-5.2240e-05,0.188
-5.2220e-05,0.188
-5.2200e-05,0.188
-5.2180e-05,0.192
-5.2160e-05,0.196
-5.2140e-05,0.196
-5.2120e-05,0.2
-5.2100e-05,0.2
-5.2080e-05,0.2
-5.2060e-05,0.188
-5.2040e-05,0.192
-5.2020e-05,0.196
-5.2000e-05,0.192
-5.1980e-05,0.196
-5.1960e-05,0.2
-5.1940e-05,0.196
-5.1920e-05,0.188
-5.1900e-05,0.188
-5.1880e-05,0.196
-5.1860e-05,0.196
-5.1840e-05,0.192
-5.1820e-05,0.184
-5.1800e-05,0.188
-5.1780e-05,0.192
-5.1760e-05,0.196
-5.1740e-05,0.192
-5.1720e-05,0.2
-5.1700e-05,0.196
-5.1680e-05,0.2
-5.1660e-05,0.196
-5.1640e-05,0.192
-5.1620e-05,0.188
-5.1600e-05,0.192
-5.1580e-05,0.192
-5.1560e-05,0.2
-5.1540e-05,0.196
-5.1520e-05,0.196
-5.1500e-05,0.188
-5.1480e-05,0.196
-5.1460e-05,0.192
-5.1440e-05,0.192
-5.1420e-05,0.192
-5.1400e-05,0.196
-5.1380e-05,0.188
-5.1360e-05,0.192
-5.1340e-05,0.196
-5.1320e-05,0.192
-5.1300e-05,0.192
-5.1280e-05,0.192
-5.1260e-05,0.196
-5.1240e-05,0.204
-5.1220e-05,0.188
-5.1200e-05,0.184
-5.1180e-05,0.196
-5.1160e-05,0.192
-5.1140e-05,0.192
-5.1120e-05,0.196
-5.1100e-05,0.192
-5.1080e-05,0.192
-5.1060e-05,0.196
-5.1040e-05,0.188
-5.1020e-05,0.188
-5.1000e-05,0.2
-5.0980e-05,0.188
-5.0960e-05,0.188
-5.0940e-05,0.184
-5.0920e-05,0.184
-5.0900e-05,0.2
-5.0880e-05,0.192
-5.0860e-05,0.188
-5.0840e-05,0.196
-5.0820e-05,0.192
-5.0800e-05,0.2
-5.0780e-05,0.188
-5.0760e-05,0.192
-5.0740e-05,0.196
-5.0720e-05,0.188
-5.0700e-05,0.2
-5.0680e-05,0.192
-5.0660e-05,0.188
-5.0640e-05,0.192
-5.0620e-05,0.196
-5.0600e-05,0.192
-5.0580e-05,0.196
-5.0560e-05,0.188
-5.0540e-05,0.196
-5.0520e-05,0.196
-5.0500e-05,0.188
-5.0480e-05,0.192
-5.0460e-05,0.196
-5.0440e-05,0.192
-5.0420e-05,0.2
-5.0400e-05,0.188
-5.0380e-05,0.196
-5.0360e-05,0.192
-5.0340e-05,0.192
-5.0320e-05,0.192
-5.0300e-05,0.192
-5.0280e-05,0.196
-5.0260e-05,0.192
-5.0240e-05,0.188
-5.0220e-05,0.188
-5.0200e-05,0.188
-5.0180e-05,0.196
-5.0160e-05,0.2
-5.0140e-05,0.188
-5.0120e-05,0.188
-5.0100e-05,0.196
-5.0080e-05,0.196
-5.0060e-05,0.192
-5.0040e-05,0.188
-5.0020e-05,0.192
-5.0000e-05,0.196
-4.9980e-05,0.192
-4.9960e-05,0.192
-4.9940e-05,0.192
-4.9920e-05,0.2
-4.9900e-05,0.192
-4.9880e-05,0.196
-4.9860e-05,0.188
-4.9840e-05,0.2
-4.9820e-05,0.192
-4.9800e-05,0.188
-4.9780e-05,0.192
-4.9760e-05,0.204
-4.9740e-05,0.192
-4.9720e-05,0.188
-4.9700e-05,0.192
-4.9680e-05,0.192
-4.9660e-05,0.2
-4.9640e-05,0.192
-4.9620e-05,0.196
-4.9600e-05,0.188
-4.9580e-05,0.188
-4.9560e-05,0.2
-4.9540e-05,0.184
-4.9520e-05,0.188
-4.9500e-05,0.208
-4.9480e-05,0.192
-4.9460e-05,0.188
-4.9440e-05,0.196
-4.9420e-05,0.192
-4.9400e-05,0.196
-4.9380e-05,0.188
-4.9360e-05,0.196
-4.9340e-05,0.192
-4.9320e-05,0.192
-4.9300e-05,0.196
-4.9280e-05,0.196
-4.9260e-05,0.196
-4.9240e-05,0.192
-4.9220e-05,0.2
-4.9200e-05,0.204
-4.9180e-05,0.192
-4.9160e-05,0.188
-4.9140e-05,0.2
-4.9120e-05,0.188
-4.9100e-05,0.192
-4.9080e-05,0.188
-4.9060e-05,0.196
-4.9040e-05,0.192
-4.9020e-05,0.2
-4.9000e-05,0.184
-4.8980e-05,0.188
-4.8960e-05,0.2
-4.8940e-05,0.196
-4.8920e-05,0.196
-4.8900e-05,-0.028
-4.8880e-05,-0.16
-4.8860e-05,-0.164
-4.8840e-05,-0.16
-4.8820e-05,-0.164
-4.8800e-05,-0.164
-4.8780e-05,-0.16
-4.8760e-05,-0.168
-4.8740e-05,-0.164
-4.8720e-05,-0.168
-4.8700e-05,-0.164
-4.8680e-05,-0.16
-4.8660e-05,-0.16
-4.8640e-05,-0.164
-4.8620e-05,-0.16
-4.8600e-05,-0.172
-4.8580e-05,-0.16
-4.8560e-05,-0.164
-4.8540e-05,-0.16
-4.8520e-05,-0.156
-4.8500e-05,-0.164
-4.8480e-05,-0.152
-4.8460e-05,-0.16
-4.8440e-05,-0.16
-4.8420e-05,-0.16
-4.8400e-05,-0.164
-4.8380e-05,-0.164
-4.8360e-05,-0.16
-4.8340e-05,-0.156
-4.8320e-05,-0.156
-4.8300e-05,-0.164
-4.8280e-05,-0.164
-4.8260e-05,-0.156
-4.8240e-05,-0.164
-4.8220e-05,-0.164
-4.8200e-05,-0.16
-4.8180e-05,-0.164
-4.8160e-05,-0.16
-4.8140e-05,-0.156
-4.8120e-05,-0.16
-4.8100e-05,-0.152
-4.8080e-05,-0.16
-4.8060e-05,-0.164
-4.8040e-05,-0.16
-4.8020e-05,-0.164
-4.8000e-05,-0.152
-4.7980e-05,-0.152
-4.7960e-05,-0.172
-4.7940e-05,-0.16
-4.7920e-05,-0.164
-4.7900e-05,-0.16
-4.7880e-05,-0.16
-4.7860e-05,-0.156
-4.7840e-05,-0.156
-4.7820e-05,-0.156
-4.7800e-05,-0.168
-4.7780e-05,-0.16
-4.7760e-05,-0.16
-4.7740e-05,-0.156
-4.7720e-05,-0.16
-4.7700e-05,-0.16
-4.7680e-05,-0.156
-4.7660e-05,-0.156
-4.7640e-05,-0.156
-4.7620e-05,-0.16
-4.7600e-05,-0.164
-4.7580e-05,-0.16
-4.7560e-05,-0.164
-4.7540e-05,-0.156
-4.7520e-05,-0.152
-4.7500e-05,-0.16
-4.7480e-05,-0.172
-4.7460e-05,-0.16
-4.7440e-05,-0.156
-4.7420e-05,-0.16
-4.7400e-05,-0.16
-4.7380e-05,-0.156
-4.7360e-05,-0.156
-4.7340e-05,-0.156
-4.7320e-05,-0.16
-4.7300e-05,-0.152
-4.7280e-05,-0.16
-4.7260e-05,-0.16
-4.7240e-05,-0.16
-4.7220e-05,-0.164
-4.7200e-05,-0.172
-4.7180e-05,-0.16
-4.7160e-05,-0.16
-4.7140e-05,-0.164
-4.7120e-05,-0.164
-4.7100e-05,-0.16
-4.7080e-05,-0.16
-4.7060e-05,-0.156
-4.7040e-05,-0.152
-4.7020e-05,-0.156
-4.7000e-05,-0.164
-4.6980e-05,-0.16
-4.6960e-05,-0.156
-4.6940e-05,-0.168
-4.6920e-05,-0.16
-4.6900e-05,-0.16
-4.6880e-05,-0.16
-4.6860e-05,-0.164
-4.6840e-05,-0.156
-4.6820e-05,-0.16
-4.6800e-05,-0.156
-4.6780e-05,-0.16
-4.6760e-05,-0.148
-4.6740e-05,-0.152
-4.6720e-05,-0.164
-4.6700e-05,-0.168
-4.6680e-05,-0.156
-4.6660e-05,-0.156
-4.6640e-05,-0.16
-4.6620e-05,-0.156
-4.6600e-05,-0.164
-4.6580e-05,-0.16
-4.6560e-05,-0.152
-4.6540e-05,-0.16
-4.6520e-05,-0.16
-4.6500e-05,-0.16
-4.6480e-05,-0.152
-4.6460e-05,-0.16
-4.6440e-05,-0.156
-4.6420e-05,-0.168
-4.6400e-05,-0.172
-4.6380e-05,-0.16
-4.6360e-05,-0.16
-4.6340e-05,-0.16
-4.6320e-05,-0.148
-4.6300e-05,-0.156
-4.6280e-05,-0.172
-4.6260e-05,-0.16
-4.6240e-05,-0.16
-4.6220e-05,-0.16
-4.6200e-05,-0.156
-4.6180e-05,-0.16
-4.6160e-05,-0.168
-4.6140e-05,-0.156
-4.6120e-05,-0.16
-4.6100e-05,-0.16
-4.6080e-05,-0.168
-4.6060e-05,-0.156
-4.6040e-05,-0.16
-4.6020e-05,-0.156
-4.6000e-05,-0.148
-4.5980e-05,-0.164
-4.5960e-05,-0.16
-4.5940e-05,-0.16
-4.5920e-05,-0.164
-4.5900e-05,-0.16
-4.5880e-05,-0.172
-4.5860e-05,-0.156
-4.5840e-05,-0.16
-4.5820e-05,-0.152
-4.5800e-05,-0.164
-4.5780e-05,-0.164
-4.5760e-05,-0.164
-4.5740e-05,-0.16
-4.5720e-05,-0.16
-4.5700e-05,-0.172
-4.5680e-05,-0.156
-4.5660e-05,-0.16
-4.5640e-05,-0.172
-4.5620e-05,-0.148
-4.5600e-05,-0.156
-4.5580e-05,-0.164
-4.5560e-05,-0.152
-4.5540e-05,-0.16
-4.5520e-05,-0.16
-4.5500e-05,-0.156
-4.5480e-05,-0.164
-4.5460e-05,-0.152
-4.5440e-05,-0.16
-4.5420e-05,-0.164
-4.5400e-05,-0.16
-4.5380e-05,-0.164
-4.5360e-05,-0.16
-4.5340e-05,-0.156
-4.5320e-05,-0.16
-4.5300e-05,-0.152
-4.5280e-05,-0.152
-4.5260e-05,-0.156
-4.5240e-05,-0.164
-4.5220e-05,-0.16
-4.5200e-05,-0.168
-4.5180e-05,-0.164
-4.5160e-05,-0.164
-4.5140e-05,-0.164
-4.5120e-05,-0.16
-4.5100e-05,-0.16
-4.5080e-05,-0.16
-4.5060e-05,-0.16
-4.5040e-05,-0.152
-4.5020e-05,-0.16
-4.5000e-05,-0.152
-4.4980e-05,-0.16
-4.4960e-05,-0.172
-4.4940e-05,-0.156
-4.4920e-05,-0.164
-4.4900e-05,-0.164
-4.4880e-05,-0.16
-4.4860e-05,-0.16
-4.4840e-05,-0.168
-4.4820e-05,-0.164
-4.4800e-05,-0.152
-4.4780e-05,-0.164
-4.4760e-05,-0.16
-4.4740e-05,-0.164
-4.4720e-05,-0.164
-4.4700e-05,-0.152
-4.4680e-05,-0.168
-4.4660e-05,-0.172
-4.4640e-05,-0.16
-4.4620e-05,-0.16
-4.4600e-05,-0.156
-4.4580e-05,-0.164
-4.4560e-05,-0.16
-4.4540e-05,-0.16
-4.4520e-05,-0.16
-4.4500e-05,-0.156
-4.4480e-05,-0.16
-4.4460e-05,-0.16
-4.4440e-05,-0.16
-4.4420e-05,-0.16
-4.4400e-05,-0.152
-4.4380e-05,-0.16
-4.4360e-05,-0.16
-4.4340e-05,-0.16
-4.4320e-05,-0.164
-4.4300e-05,-0.156
-4.4280e-05,-0.152
-4.4260e-05,-0.16
-4.4240e-05,-0.164
-4.4220e-05,-0.16
-4.4200e-05,-0.16
-4.4180e-05,-0.168
-4.4160e-05,-0.156
-4.4140e-05,-0.156
-4.4120e-05,-0.156
-4.4100e-05,-0.164
-4.4080e-05,-0.16
-4.4060e-05,-0.164
-4.4040e-05,-0.156
-4.4020e-05,-0.168
-4.4000e-05,-0.156
-4.3980e-05,-0.16
-4.3960e-05,-0.168
-4.3940e-05,-0.164
-4.3920e-05,-0.16
-4.3900e-05,-0.16
-4.3880e-05,-0.152
-4.3860e-05,-0.148
-4.3840e-05,-0.172
-4.3820e-05,-0.168
-4.3800e-05,-0.152
-4.3780e-05,-0.152
-4.3760e-05,-0.164
-4.3740e-05,-0.16
-4.3720e-05,-0.164
-4.3700e-05,-0.16
-4.3680e-05,-0.164
-4.3660e-05,-0.16
-4.3640e-05,-0.164
-4.3620e-05,-0.172
-4.3600e-05,-0.172
-4.3580e-05,-0.16
-4.3560e-05,-0.164
-4.3540e-05,-0.168
-4.3520e-05,-0.16
-4.3500e-05,-0.16
-4.3480e-05,-0.164
-4.3460e-05,-0.168
-4.3440e-05,-0.16
-4.3420e-05,-0.16
-4.3400e-05,-0.16
-4.3380e-05,-0.16
-4.3360e-05,-0.16
-4.3340e-05,-0.168
-4.3320e-05,-0.152
-4.3300e-05,-0.16
-4.3280e-05,-0.156
-4.3260e-05,-0.156
-4.3240e-05,-0.16
-4.3220e-05,-0.164
-4.3200e-05,-0.156
-4.3180e-05,-0.164
-4.3160e-05,-0.16
-4.3140e-05,-0.164
-4.3120e-05,-0.16
-4.3100e-05,-0.164
-4.3080e-05,-0.156
-4.3060e-05,-0.164
-4.3040e-05,-0.16
-4.3020e-05,-0.16
-4.3000e-05,-0.172
-4.2980e-05,-0.156
-4.2960e-05,-0.16
-4.2940e-05,-0.172
-4.2920e-05,-0.164
-4.2900e-05,-0.168
-4.2880e-05,-0.168
-4.2860e-05,-0.156
-4.2840e-05,-0.16
-4.2820e-05,-0.168
-4.2800e-05,-0.164
-4.2780e-05,-0.164
-4.2760e-05,-0.172
-4.2740e-05,-0.156
-4.2720e-05,-0.156
-4.2700e-05,-0.156
-4.2680e-05,-0.16
-4.2660e-05,-0.164
-4.2640e-05,-0.16
-4.2620e-05,-0.168
-4.2600e-05,-0.164
-4.2580e-05,-0.164
-4.2560e-05,-0.16
-4.2540e-05,-0.156
-4.2520e-05,-0.16
-4.2500e-05,-0.152
-4.2480e-05,-0.152
-4.2460e-05,-0.16
-4.2440e-05,-0.164
-4.2420e-05,-0.16
-4.2400e-05,-0.164
-4.2380e-05,-0.168
-4.2360e-05,-0.156
-4.2340e-05,-0.164
-4.2320e-05,-0.16
-4.2300e-05,-0.168
-4.2280e-05,-0.164
-4.2260e-05,-0.156
-4.2240e-05,-0.16
-4.2220e-05,-0.168
-4.2200e-05,-0.164
-4.2180e-05,-0.16
-4.2160e-05,-0.168
-4.2140e-05,-0.16
-4.2120e-05,-0.16
-4.2100e-05,-0.156
-4.2080e-05,-0.164
-4.2060e-05,-0.156
-4.2040e-05,-0.16
-4.2020e-05,-0.164
-4.2000e-05,-0.156
-4.1980e-05,-0.16
-4.1960e-05,-0.164
-4.1940e-05,-0.164
-4.1920e-05,-0.16
-4.1900e-05,-0.172
-4.1880e-05,-0.16
-4.1860e-05,-0.156
-4.1840e-05,-0.164
-4.1820e-05,-0.16
-4.1800e-05,-0.164
-4.1780e-05,-0.16
-4.1760e-05,-0.148
-4.1740e-05,-0.168
-4.1720e-05,-0.168
-4.1700e-05,-0.152
-4.1680e-05,-0.16
-4.1660e-05,-0.164
-4.1640e-05,-0.152
-4.1620e-05,-0.164
-4.1600e-05,-0.16
-4.1580e-05,-0.152
-4.1560e-05,-0.16
-4.1540e-05,-0.156
-4.1520e-05,-0.152
-4.1500e-05,-0.16
-4.1480e-05,-0.16
-4.1460e-05,-0.16
-4.1440e-05,-0.164
-4.1420e-05,-0.16
-4.1400e-05,-0.156
-4.1380e-05,-0.172
-4.1360e-05,-0.16
-4.1340e-05,-0.16
-4.1320e-05,-0.16
-4.1300e-05,-0.16
-4.1280e-05,-0.16
-4.1260e-05,-0.16
-4.1240e-05,-0.16
-4.1220e-05,-0.16
-4.1200e-05,-0.164
-4.1180e-05,-0.156
-4.1160e-05,-0.16
-4.1140e-05,-0.156
-4.1120e-05,-0.152
-4.1100e-05,-0.16
-4.1080e-05,-0.156
-4.1060e-05,-0.16
-4.1040e-05,-0.16
-4.1020e-05,-0.152
-4.1000e-05,-0.156
-4.0980e-05,-0.152
-4.0960e-05,-0.164
-4.0940e-05,-0.168
-4.0920e-05,-0.156
-4.0900e-05,-0.168
-4.0880e-05,-0.16
-4.0860e-05,-0.168
-4.0840e-05,-0.16
-4.0820e-05,-0.164
-4.0800e-05,-0.152
-4.0780e-05,-0.164
-4.0760e-05,-0.16
-4.0740e-05,-0.168
-4.0720e-05,-0.156
-4.0700e-05,-0.152
-4.0680e-05,-0.16
-4.0660e-05,-0.16
-4.0640e-05,-0.16
-4.0620e-05,-0.16
-4.0600e-05,-0.168
-4.0580e-05,-0.172
-4.0560e-05,-0.152
-4.0540e-05,-0.16
-4.0520e-05,-0.164
-4.0500e-05,-0.16
-4.0480e-05,-0.164
-4.0460e-05,-0.16
-4.0440e-05,-0.16
-4.0420e-05,-0.172
-4.0400e-05,-0.16
-4.0380e-05,-0.164
-4.0360e-05,-0.164
-4.0340e-05,-0.168
-4.0320e-05,-0.16
-4.0300e-05,-0.16
-4.0280e-05,-0.16
-4.0260e-05,-0.148
-4.0240e-05,-0.164
-4.0220e-05,-0.16
-4.0200e-05,-0.148
-4.0180e-05,-0.164
-4.0160e-05,-0.152
-4.0140e-05,-0.16
-4.0120e-05,-0.168
-4.0100e-05,-0.16
-4.0080e-05,-0.16
-4.0060e-05,-0.152
-4.0040e-05,-0.176
-4.0020e-05,-0.168
-4.0000e-05,-0.164
-3.9980e-05,-0.16
-3.9960e-05,-0.168
-3.9940e-05,-0.152
-3.9920e-05,-0.168
-3.9900e-05,-0.168
-3.9880e-05,-0.168
-3.9860e-05,-0.168
-3.9840e-05,-0.16
-3.9820e-05,-0.164
-3.9800e-05,-0.16
-3.9780e-05,-0.16
-3.9760e-05,-0.164
-3.9740e-05,-0.168
-3.9720e-05,-0.16
-3.9700e-05,-0.16
-3.9680e-05,-0.16
-3.9660e-05,-0.156
-3.9640e-05,-0.164
-3.9620e-05,-0.168
-3.9600e-05,-0.16
-3.9580e-05,-0.172
-3.9560e-05,-0.164
-3.9540e-05,-0.16
-3.9520e-05,-0.168
