ECE375/hw4/hw4/files/lab6sp10chart.csv

Model,DPO4034
Firmware Version,2.68
,
Waveform Type,ANALOG
Point Format,Y
Horizontal Units,s
Horizontal Scale,2.00E-05
Horizontal Delay,-2.70E-06
Sample Interval,2.00E-08
Record Length,10000
Gating,0.0% to 100.0%
Probe Attenuation,1
Vertical Units,V
Vertical Offset,0
Vertical Scale,0.1
Vertical Position,0.04
,
,
,
Label,A
TIME,CH1
-1.03E-04,-0.112
-1.03E-04,-0.12
-1.03E-04,-0.116
-1.03E-04,-0.112
-1.03E-04,-0.116
-1.03E-04,-0.112
-1.03E-04,-0.124
-1.03E-04,-0.116
-1.03E-04,-0.12
-1.03E-04,-0.116
-1.03E-04,-0.108
-1.02E-04,-0.128
-1.02E-04,-0.108
-1.02E-04,-0.116
-1.02E-04,-0.116
-1.02E-04,-0.116
-1.02E-04,-0.116
-1.02E-04,-0.112
-1.02E-04,-0.12
-1.02E-04,-0.12
-1.02E-04,-0.12
-1.02E-04,-0.12
-1.02E-04,-0.116
-1.02E-04,-0.108
-1.02E-04,-0.112
-1.02E-04,-0.12
-1.02E-04,-0.124
-1.02E-04,-0.112
-1.02E-04,-0.112
-1.02E-04,-0.112
-1.02E-04,-0.12
-1.02E-04,-0.124
-1.02E-04,-0.116
-1.02E-04,-0.116
-1.02E-04,-0.12
-1.02E-04,-0.124
-1.02E-04,-0.12
-1.02E-04,-0.112
-1.02E-04,-0.124
-1.02E-04,-0.112
-1.02E-04,-0.12
-1.02E-04,-0.124
-1.02E-04,-0.116
-1.02E-04,-0.124
-1.02E-04,-0.12
-1.02E-04,-0.124
-1.02E-04,-0.124
-1.02E-04,-0.108
-1.02E-04,-0.12
-1.02E-04,-0.108
-1.02E-04,-0.112
-1.02E-04,-0.12
-1.02E-04,-0.112
-1.02E-04,-0.12
-1.02E-04,-0.116
-1.02E-04,-0.116
-1.02E-04,-0.124
-1.02E-04,-0.12
-1.02E-04,-0.116
-1.02E-04,-0.12
-1.02E-04,-0.112
-1.01E-04,-0.112
-1.01E-04,-0.12
-1.01E-04,-0.116
-1.01E-04,-0.12
-1.01E-04,-0.116
-1.01E-04,-0.112
-1.01E-04,-0.12
-1.01E-04,-0.112
-1.01E-04,-0.128
-1.01E-04,-0.12
-1.01E-04,-0.108
-1.01E-04,-0.12
-1.01E-04,-0.112
-1.01E-04,-0.108
-1.01E-04,-0.116
-1.01E-04,-0.132
-1.01E-04,-0.132
-1.01E-04,-0.108
-1.01E-04,-0.116
-1.01E-04,-0.12
-1.01E-04,-0.124
-1.01E-04,-0.128
-1.01E-04,-0.108
-1.01E-04,-0.116
-1.01E-04,-0.116
-1.01E-04,-0.108
-1.01E-04,-0.112
-1.01E-04,-0.12
-1.01E-04,-0.124
-1.01E-04,-0.116
-1.01E-04,-0.12
-1.01E-04,-0.112
-1.01E-04,-0.124
-1.01E-04,-0.116
-1.01E-04,-0.128
-1.01E-04,-0.116
-1.01E-04,-0.124
-1.01E-04,-0.108
-1.01E-04,-0.116
-1.01E-04,-0.116
-1.01E-04,-0.112
-1.01E-04,-0.116
-1.01E-04,-0.124
-1.01E-04,-0.124
-1.01E-04,-0.12
-1.01E-04,-0.116
-1.01E-04,-0.12
-1.01E-04,-0.12
-1.01E-04,-0.12
-1.01E-04,-0.112
-1.00E-04,-0.112
-1.00E-04,-0.112
-1.00E-04,-0.12
-1.00E-04,-0.116
-1.00E-04,-0.124
-1.00E-04,-0.12
-1.00E-04,-0.12
-1.00E-04,-0.12
-1.00E-04,-0.116
-1.00E-04,-0.116
-1.00E-04,-0.12
-1.00E-04,-0.108
-1.00E-04,-0.108
-1.00E-04,-0.108
-1.00E-04,-0.12
-1.00E-04,-0.116
-1.00E-04,-0.124
-1.00E-04,-0.12
-1.00E-04,-0.124
-1.00E-04,-0.112
-1.00E-04,-0.112
-1.00E-04,-0.12
-1.00E-04,-0.116
-1.00E-04,-0.12
-1.00E-04,-0.12
-1.00E-04,-0.12
-1.00E-04,-0.116
-9.99E-05,-0.116
-9.99E-05,-0.116
-9.99E-05,-0.116
-9.99E-05,-0.112
-9.99E-05,-0.116
-9.98E-05,-0.112
-9.98E-05,-0.116
-9.98E-05,-0.12
-9.98E-05,-0.116
-9.98E-05,-0.116
-9.97E-05,-0.116
-9.97E-05,-0.124
-9.97E-05,-0.124
-9.97E-05,-0.12
-9.97E-05,-0.116
-9.96E-05,-0.108
-9.96E-05,-0.12
-9.96E-05,-0.116
-9.96E-05,-0.112
-9.96E-05,-0.12
-9.95E-05,-0.12
-9.95E-05,-0.12
-9.95E-05,-0.124
-9.95E-05,-0.124
-9.95E-05,-0.12
-9.94E-05,-0.112
-9.94E-05,-0.116
-9.94E-05,-0.124
-9.94E-05,-0.124
-9.94E-05,-0.116
-9.93E-05,-0.108
-9.93E-05,-0.128
-9.93E-05,-0.116
-9.93E-05,-0.112
-9.93E-05,-0.116
-9.92E-05,-0.112
-9.92E-05,-0.108
-9.92E-05,-0.12
-9.92E-05,-0.112
-9.92E-05,-0.124
-9.91E-05,-0.116
-9.91E-05,-0.124
-9.91E-05,-0.12
-9.91E-05,-0.124
-9.91E-05,-0.112
-9.90E-05,-0.116
-9.90E-05,-0.116
-9.90E-05,-0.12
-9.90E-05,-0.112
-9.90E-05,-0.116
-9.89E-05,-0.124
-9.89E-05,-0.124
-9.89E-05,-0.116
-9.89E-05,-0.124
-9.89E-05,-0.116
-9.88E-05,-0.116
-9.88E-05,-0.116
-9.88E-05,-0.112
-9.88E-05,-0.116
-9.88E-05,-0.112
-9.87E-05,-0.12
-9.87E-05,-0.124
-9.87E-05,-0.116
-9.87E-05,-0.124
-9.87E-05,-0.108
-9.86E-05,-0.112
-9.86E-05,-0.116
-9.86E-05,-0.124
-9.86E-05,-0.124
-9.86E-05,-0.116
-9.85E-05,-0.12
-9.85E-05,-0.116
-9.85E-05,-0.112
-9.85E-05,-0.112
-9.85E-05,-0.112
-9.84E-05,-0.124
-9.84E-05,-0.116
-9.84E-05,-0.116
-9.84E-05,-0.128
-9.84E-05,-0.124
-9.83E-05,-0.112
-9.83E-05,-0.116
-9.83E-05,-0.108
-9.83E-05,-0.116
-9.83E-05,-0.116
-9.82E-05,-0.112
-9.82E-05,-0.108
-9.82E-05,-0.116
-9.82E-05,-0.112
-9.82E-05,-0.116
-9.81E-05,-0.108
-9.81E-05,-0.12
-9.81E-05,-0.12
-9.81E-05,-0.112
-9.81E-05,-0.12
-9.80E-05,-0.124
-9.80E-05,-0.108
-9.80E-05,-0.116
-9.80E-05,-0.12
-9.80E-05,-0.116
-9.79E-05,-0.108
-9.79E-05,-0.12
-9.79E-05,-0.112
-9.79E-05,-0.116
-9.79E-05,-0.116
-9.78E-05,-0.124
-9.78E-05,-0.12
-9.78E-05,-0.116
-9.78E-05,-0.12
-9.78E-05,-0.124
-9.77E-05,-0.112
-9.77E-05,-0.104
-9.77E-05,-0.132
-9.77E-05,-0.128
-9.77E-05,-0.128
-9.76E-05,-0.116
-9.76E-05,-0.116
-9.76E-05,-0.108
-9.76E-05,-0.108
-9.76E-05,-0.116
-9.75E-05,-0.116
-9.75E-05,-0.12
-9.75E-05,-0.12
-9.75E-05,-0.116
-9.75E-05,-0.112
-9.74E-05,-0.108
-9.74E-05,-0.12
-9.74E-05,-0.104
-9.74E-05,-0.12
-9.74E-05,-0.108
-9.73E-05,-0.116
-9.73E-05,-0.108
-9.73E-05,-0.116
-9.73E-05,-0.108
-9.73E-05,-0.116
-9.72E-05,-0.112
-9.72E-05,-0.124
-9.72E-05,-0.116
-9.72E-05,-0.12
-9.72E-05,-0.112
-9.71E-05,-0.112
-9.71E-05,-0.116
-9.71E-05,-0.108
-9.71E-05,-0.124
-9.71E-05,-0.12
-9.70E-05,-0.108
-9.70E-05,-0.116
-9.70E-05,-0.124
-9.70E-05,-0.12
-9.70E-05,-0.116
-9.69E-05,-0.112
-9.69E-05,-0.116
-9.69E-05,-0.12
-9.69E-05,-0.112
-9.69E-05,-0.12
-9.68E-05,-0.112
-9.68E-05,-0.12
-9.68E-05,-0.112
-9.68E-05,-0.124
-9.68E-05,-0.12
-9.67E-05,-0.112
-9.67E-05,-0.112
-9.67E-05,-0.12
-9.67E-05,-0.124
-9.67E-05,-0.108
-9.66E-05,-0.116
-9.66E-05,-0.112
-9.66E-05,-0.108
-9.66E-05,-0.112
-9.66E-05,-0.124
-9.65E-05,-0.112
-9.65E-05,-0.12
-9.65E-05,-0.124
-9.65E-05,-0.108
-9.65E-05,-0.116
-9.64E-05,-0.124
-9.64E-05,-0.12
-9.64E-05,-0.112
-9.64E-05,-0.12
-9.64E-05,-0.12
-9.63E-05,-0.112
-9.63E-05,-0.12
-9.63E-05,-0.12
-9.63E-05,-0.12
-9.63E-05,-0.12
-9.62E-05,-0.112
-9.62E-05,-0.12
-9.62E-05,-0.12
-9.62E-05,-0.112
-9.62E-05,-0.124
-9.61E-05,-0.116
-9.61E-05,-0.124
-9.61E-05,-0.116
-9.61E-05,-0.116
-9.61E-05,-0.12
-9.60E-05,-0.116
-9.60E-05,-0.12
-9.60E-05,-0.12
-9.60E-05,-0.12
-9.60E-05,-0.108
-9.59E-05,-0.116
-9.59E-05,-0.108
-9.59E-05,-0.124
-9.59E-05,-0.116
-9.59E-05,-0.124
-9.58E-05,-0.116
-9.58E-05,-0.104
-9.58E-05,-0.112
-9.58E-05,-0.128
-9.58E-05,-0.128
-9.57E-05,-0.112
-9.57E-05,-0.124
-9.57E-05,-0.124
-9.57E-05,-0.116
-9.57E-05,-0.108
-9.56E-05,-0.124
-9.56E-05,-0.12
-9.56E-05,-0.12
-9.56E-05,-0.116
-9.56E-05,0.244
-9.55E-05,0.26
-9.55E-05,0.244
-9.55E-05,0.24
-9.55E-05,0.24
-9.55E-05,0.236
-9.54E-05,0.236
-9.54E-05,0.244
-9.54E-05,0.236
-9.54E-05,0.236
-9.54E-05,0.232
-9.53E-05,0.24
-9.53E-05,0.24
-9.53E-05,0.232
-9.53E-05,0.24
-9.53E-05,0.232
-9.52E-05,0.232
-9.52E-05,0.24
-9.52E-05,0.232
-9.52E-05,0.236
-9.52E-05,0.248
-9.51E-05,0.236
-9.51E-05,0.232
-9.51E-05,0.24
-9.51E-05,0.232
-9.51E-05,0.24
-9.50E-05,0.228
-9.50E-05,0.24
-9.50E-05,0.232
-9.50E-05,0.24
-9.50E-05,0.228
-9.49E-05,0.22
-9.49E-05,0.236
-9.49E-05,0.244
-9.49E-05,0.236
-9.49E-05,0.224
-9.48E-05,0.232
-9.48E-05,0.232
-9.48E-05,0.232
-9.48E-05,0.236
-9.48E-05,0.236
-9.47E-05,0.232
-9.47E-05,0.232
-9.47E-05,0.24
-9.47E-05,0.232
-9.47E-05,0.236
-9.46E-05,0.232
-9.46E-05,0.232
-9.46E-05,0.232
-9.46E-05,0.24
-9.46E-05,0.232
-9.45E-05,0.224
-9.45E-05,0.232
-9.45E-05,0.228
-9.45E-05,0.236
-9.45E-05,0.236
-9.44E-05,0.236
-9.44E-05,0.228
-9.44E-05,0.236
-9.44E-05,0.232
-9.44E-05,0.224
-9.43E-05,0.228
-9.43E-05,0.236
-9.43E-05,0.232
-9.43E-05,0.232
-9.43E-05,0.228
-9.42E-05,0.236
-9.42E-05,0.232
-9.42E-05,0.236
-9.42E-05,0.228
-9.42E-05,0.236
-9.41E-05,0.236
-9.41E-05,0.232
-9.41E-05,0.236
-9.41E-05,0.236
-9.41E-05,0.232
-9.40E-05,0.228
-9.40E-05,0.232
-9.40E-05,0.236
-9.40E-05,0.232
-9.40E-05,0.232
-9.39E-05,0.24
-9.39E-05,0.224
-9.39E-05,0.236
-9.39E-05,0.24
-9.39E-05,0.232
-9.38E-05,0.224
-9.38E-05,0.24
-9.38E-05,0.24
-9.38E-05,0.232
-9.38E-05,0.232
-9.37E-05,0.236
-9.37E-05,0.232
-9.37E-05,0.236
-9.37E-05,0.236
-9.37E-05,0.232
-9.36E-05,0.232
-9.36E-05,0.22
-9.36E-05,0.24
-9.36E-05,0.236
-9.36E-05,0.244
-9.35E-05,0.24
-9.35E-05,0.232
-9.35E-05,0.232
-9.35E-05,0.236
-9.35E-05,0.236
-9.34E-05,0.236
-9.34E-05,0.24
-9.34E-05,0.244
-9.34E-05,0.244
-9.34E-05,0.236
-9.33E-05,0.24
-9.33E-05,0.236
-9.33E-05,0.228
-9.33E-05,0.24
-9.33E-05,0.236
-9.32E-05,0.236
-9.32E-05,0.236
-9.32E-05,0.232
-9.32E-05,0.24
-9.32E-05,0.24
-9.31E-05,0.232
-9.31E-05,0.232
-9.31E-05,0.24
-9.31E-05,0.232
-9.31E-05,0.24
-9.30E-05,0.232
-9.30E-05,0.248
-9.30E-05,0.24
-9.30E-05,0.236
-9.30E-05,0.236
-9.29E-05,0.24
-9.29E-05,0.24
-9.29E-05,0.236
-9.29E-05,0.244
-9.29E-05,0.24
-9.28E-05,0.24
-9.28E-05,0.236
-9.28E-05,0.236
-9.28E-05,0.244
-9.28E-05,0.224
-9.27E-05,0.24
-9.27E-05,0.236
-9.27E-05,0.236
-9.27E-05,0.224
-9.27E-05,0.24
-9.26E-05,0.24
-9.26E-05,0.244
-9.26E-05,0.248
-9.26E-05,0.244
-9.26E-05,0.248
-9.25E-05,0.24
-9.25E-05,0.244
-9.25E-05,0.244
-9.25E-05,0.244
-9.25E-05,0.236
-9.24E-05,0.236
-9.24E-05,0.244
-9.24E-05,0.24
-9.24E-05,0.232
-9.24E-05,0.244
-9.23E-05,0.244
-9.23E-05,0.248
-9.23E-05,0.244
-9.23E-05,0.232
-9.23E-05,0.248
-9.22E-05,0.236
-9.22E-05,0.236
-9.22E-05,0.236
-9.22E-05,0.232
-9.22E-05,0.236
-9.21E-05,0.236
-9.21E-05,0.236
-9.21E-05,0.236
-9.21E-05,0.24
-9.21E-05,0.236
-9.20E-05,0.232
-9.20E-05,0.24
-9.20E-05,0.24
-9.20E-05,0.24
-9.20E-05,0.248
-9.19E-05,0.232
-9.19E-05,0.236
-9.19E-05,0.24
-9.19E-05,0.24
-9.19E-05,0.232
-9.18E-05,0.24
-9.18E-05,0.248
-9.18E-05,0.24
-9.18E-05,0.24
-9.18E-05,0.236
-9.17E-05,0.24
-9.17E-05,0.244
-9.17E-05,0.244
-9.17E-05,0.244
-9.17E-05,0.244
-9.16E-05,0.232
-9.16E-05,0.232
-9.16E-05,0.236
-9.16E-05,0.236
-9.16E-05,0.244
-9.15E-05,0.236
-9.15E-05,0.236
-9.15E-05,0.24
-9.15E-05,0.236
-9.15E-05,0.236
-9.14E-05,0.236
-9.14E-05,0.24
-9.14E-05,0.236
-9.14E-05,0.228
-9.14E-05,0.244
-9.13E-05,0.232
-9.13E-05,0.24
-9.13E-05,0.24
-9.13E-05,0.236
-9.13E-05,0.236
-9.12E-05,0.244
-9.12E-05,0.24
-9.12E-05,0.236
-9.12E-05,0.228
-9.12E-05,0.232
-9.11E-05,0.232
-9.11E-05,0.24
-9.11E-05,0.228
-9.11E-05,0.232
-9.11E-05,0.236
-9.10E-05,0.24
-9.10E-05,0.24
-9.10E-05,0.236
-9.10E-05,0.24
-9.10E-05,0.24
-9.09E-05,0.236
-9.09E-05,0.24
-9.09E-05,0.244
-9.09E-05,0.236
-9.09E-05,0.24
-9.08E-05,0.24
-9.08E-05,0.24
-9.08E-05,0.232
-9.08E-05,0.236
-9.08E-05,0.24
-9.07E-05,0.236
-9.07E-05,0.24
-9.07E-05,0.236
-9.07E-05,0.236
-9.07E-05,0.244
-9.06E-05,0.236
-9.06E-05,0.228
-9.06E-05,0.244
-9.06E-05,0.244
-9.06E-05,0.24
-9.05E-05,0.244
-9.05E-05,0.24
-9.05E-05,0.24
-9.05E-05,0.232
-9.05E-05,0.244
-9.04E-05,0.244
-9.04E-05,0.24
-9.04E-05,0.236
-9.04E-05,0.244
-9.04E-05,0.24
-9.03E-05,0.232
-9.03E-05,0.24
-9.03E-05,0.236
-9.03E-05,0.244
-9.03E-05,0.236
-9.02E-05,0.236
-9.02E-05,0.24
-9.02E-05,0.236
-9.02E-05,0.236
-9.02E-05,0.236
-9.01E-05,0.244
-9.01E-05,0.236
-9.01E-05,0.232
-9.01E-05,0.244
-9.01E-05,0.248
-9.00E-05,0.24
-9.00E-05,0.244
-9.00E-05,0.244
-9.00E-05,0.24
-9.00E-05,0.24
-8.99E-05,0.232
-8.99E-05,0.244
-8.99E-05,0.236
-8.99E-05,0.228
-8.99E-05,0.232
-8.98E-05,0.244
-8.98E-05,0.236
-8.98E-05,0.232
-8.98E-05,0.248
-8.98E-05,0.24
-8.97E-05,0.228
-8.97E-05,0.236
-8.97E-05,0.24
-8.97E-05,0.236
-8.97E-05,0.236
-8.96E-05,0.244
-8.96E-05,0.236
-8.96E-05,0.236
-8.96E-05,0.232
-8.96E-05,0.232
-8.95E-05,0.244
-8.95E-05,0.24
-8.95E-05,0.24
-8.95E-05,0.24
-8.95E-05,0.236
-8.94E-05,0.244
-8.94E-05,0.248
-8.94E-05,0.24
-8.94E-05,0.244
-8.94E-05,0.236
-8.93E-05,0.24
-8.93E-05,0.24
-8.93E-05,0.232
-8.93E-05,0.236
-8.93E-05,0.24
-8.92E-05,0.244
-8.92E-05,0.24
-8.92E-05,0.244
-8.92E-05,0.24
-8.92E-05,0.236
-8.91E-05,0.244
-8.91E-05,0.248
-8.91E-05,0.236
-8.91E-05,0.236
-8.91E-05,0.244
-8.90E-05,0.236
-8.90E-05,0.248
-8.90E-05,0.232
-8.90E-05,0.244
-8.90E-05,0.244
-8.89E-05,0.244
-8.89E-05,0.244
-8.89E-05,0.24
-8.89E-05,0.232
-8.89E-05,0.236
-8.88E-05,0.248
-8.88E-05,0.244
-8.88E-05,0.244
-8.88E-05,0.248
-8.88E-05,0.244
-8.87E-05,0.24
-8.87E-05,0.248
-8.87E-05,0.244
-8.87E-05,0.244
-8.87E-05,0.244
-8.86E-05,0.232
-8.86E-05,0.244
-8.86E-05,0.236
-8.86E-05,0.244
-8.86E-05,0.248
-8.85E-05,0.244
-8.85E-05,0.24
-8.85E-05,0.236
-8.85E-05,0.24
-8.85E-05,0.236
-8.84E-05,0.24
-8.84E-05,0.24
-8.84E-05,0.232
-8.84E-05,0.248
-8.84E-05,0.248
-8.83E-05,0.236
-8.83E-05,0.24
-8.83E-05,0.236
-8.83E-05,0.24
-8.83E-05,0.244
-8.82E-05,0.244
-8.82E-05,0.236
-8.82E-05,0.24
-8.82E-05,0.24
-8.82E-05,0.24
-8.81E-05,0.248
-8.81E-05,0.24
-8.81E-05,0.24
-8.81E-05,0.24
-8.81E-05,0.244
-8.80E-05,0.244
-8.80E-05,0.232
-8.80E-05,0.24
-8.80E-05,0.244
-8.80E-05,0.232
-8.79E-05,0.24
-8.79E-05,0.236
-8.79E-05,0.236
-8.79E-05,0.244
-8.79E-05,0.244
-8.78E-05,0.232
-8.78E-05,0.24
-8.78E-05,0.24
-8.78E-05,0.244
-8.78E-05,0.24
-8.77E-05,0.236
-8.77E-05,0.236
-8.77E-05,0.244
-8.77E-05,0.24
-8.77E-05,0.236
-8.76E-05,0.236
-8.76E-05,0.228
-8.76E-05,0.24
-8.76E-05,0.236
-8.76E-05,0.24
-8.75E-05,0.232
-8.75E-05,0.24
-8.75E-05,0.244
-8.75E-05,0.24
-8.75E-05,0.244
-8.74E-05,0.244
-8.74E-05,0.24
-8.74E-05,0.24
-8.74E-05,0.24
-8.74E-05,0.236
-8.73E-05,0.24
-8.73E-05,0.228
-8.73E-05,0.24
-8.73E-05,0.236
-8.73E-05,0.232
-8.72E-05,0.244
-8.72E-05,0.236
-8.72E-05,0.24
-8.72E-05,0.244
-8.72E-05,0.24
-8.71E-05,0.236
-8.71E-05,0.24
-8.71E-05,0.236
-8.71E-05,0.236
-8.71E-05,0.232
-8.70E-05,0.24
-8.70E-05,0.24
-8.70E-05,0.248
-8.70E-05,0.236
-8.70E-05,0.236
-8.69E-05,0.236
-8.69E-05,0.236
-8.69E-05,0.24
-8.69E-05,0.248
-8.69E-05,0.236
-8.68E-05,0.244
-8.68E-05,0.244
-8.68E-05,0.24
-8.68E-05,0.244
-8.68E-05,0.24
-8.67E-05,0.252
-8.67E-05,0.24
-8.67E-05,0.24
-8.67E-05,0.236
-8.67E-05,0.24
-8.66E-05,0.236
-8.66E-05,0.228
-8.66E-05,0.236
-8.66E-05,0.24
-8.66E-05,0.236
-8.65E-05,0.24
-8.65E-05,0.236
-8.65E-05,0.252
-8.65E-05,0.24
-8.65E-05,0.232
-8.64E-05,0.244
-8.64E-05,0.232
-8.64E-05,0.236
-8.64E-05,0.236
-8.64E-05,0.24
-8.63E-05,0.236
-8.63E-05,0.236
-8.63E-05,0.24
-8.63E-05,0.248
-8.63E-05,0.244
-8.62E-05,0.244
-8.62E-05,0.24
-8.62E-05,0.236
-8.62E-05,0.236
-8.62E-05,0.236
-8.61E-05,0.248
-8.61E-05,0.24
-8.61E-05,0.232
-8.61E-05,0.232
-8.61E-05,0.24
-8.60E-05,0.24
-8.60E-05,0.24
-8.60E-05,0.244
-8.60E-05,0.24
-8.60E-05,0.24
-8.59E-05,0.236
-8.59E-05,0.24
-8.59E-05,0.232
-8.59E-05,0.24
-8.59E-05,0.24
-8.58E-05,0.244
-8.58E-05,0.224
-8.58E-05,0.24
-8.58E-05,0.248
-8.58E-05,0.24
-8.57E-05,0.24
-8.57E-05,0.252
-8.57E-05,0.24
-8.57E-05,0.236
-8.57E-05,0.236
-8.56E-05,0.232
-8.56E-05,0.24
-8.56E-05,0.236
-8.56E-05,0.24
-8.56E-05,0.244
-8.55E-05,0.232
-8.55E-05,0.236
-8.55E-05,0.24
-8.55E-05,0.24
-8.55E-05,0.24
-8.54E-05,0.24
-8.54E-05,0.236
-8.54E-05,0.244
-8.54E-05,0.228
-8.54E-05,0.24
-8.53E-05,0.24
-8.53E-05,0.244
-8.53E-05,0.24
-8.53E-05,0.244
-8.53E-05,0.24
-8.52E-05,0.244
-8.52E-05,0.24
-8.52E-05,0.24
-8.52E-05,0.248
-8.52E-05,0.24
-8.51E-05,0.248
-8.51E-05,0.236
-8.51E-05,0.24
-8.51E-05,0.232
-8.51E-05,0.24
-8.50E-05,0.244
-8.50E-05,0.24
-8.50E-05,0.248
-8.50E-05,-0.248
-8.50E-05,-0.112
-8.49E-05,-0.132
-8.49E-05,-0.116
-8.49E-05,-0.124
-8.49E-05,-0.108
-8.49E-05,-0.116
-8.48E-05,-0.116
-8.48E-05,-0.12
-8.48E-05,-0.128
-8.48E-05,-0.116
-8.48E-05,-0.112
-8.47E-05,-0.108
-8.47E-05,-0.12
-8.47E-05,-0.108
-8.47E-05,-0.108
-8.47E-05,-0.12
-8.46E-05,-0.112
-8.46E-05,-0.112
-8.46E-05,-0.108
-8.46E-05,-0.108
-8.46E-05,-0.12
-8.45E-05,-0.124
-8.45E-05,-0.108
-8.45E-05,-0.12
-8.45E-05,-0.112
-8.45E-05,-0.116
-8.44E-05,-0.116
-8.44E-05,-0.116
-8.44E-05,-0.124
-8.44E-05,-0.116
-8.44E-05,-0.12
-8.43E-05,-0.112
-8.43E-05,-0.108
-8.43E-05,-0.12
-8.43E-05,-0.112
-8.43E-05,-0.108
-8.42E-05,-0.112
-8.42E-05,-0.116
-8.42E-05,-0.124
-8.42E-05,-0.12
-8.42E-05,-0.12
-8.41E-05,-0.12
-8.41E-05,-0.108
-8.41E-05,-0.108
-8.41E-05,-0.108
-8.41E-05,-0.12
-8.40E-05,-0.104
-8.40E-05,-0.112
-8.40E-05,-0.108
-8.40E-05,-0.124
-8.40E-05,-0.112
-8.39E-05,-0.116
-8.39E-05,-0.116
-8.39E-05,-0.124
-8.39E-05,-0.104
-8.39E-05,-0.124
-8.38E-05,-0.12
-8.38E-05,-0.112
-8.38E-05,-0.116
-8.38E-05,-0.108
-8.38E-05,-0.112
-8.37E-05,-0.116
-8.37E-05,-0.112
-8.37E-05,-0.12
-8.37E-05,-0.12
-8.37E-05,-0.112
-8.36E-05,-0.108
-8.36E-05,-0.108
-8.36E-05,-0.124
-8.36E-05,-0.112
-8.36E-05,-0.112
-8.35E-05,-0.112
-8.35E-05,-0.124
-8.35E-05,-0.112
-8.35E-05,-0.12
-8.35E-05,-0.112
-8.34E-05,-0.108
-8.34E-05,-0.108
-8.34E-05,-0.108
-8.34E-05,-0.116
-8.34E-05,-0.12
-8.33E-05,-0.116
-8.33E-05,-0.108
-8.33E-05,-0.112
-8.33E-05,-0.12
-8.33E-05,-0.112
-8.32E-05,-0.104
-8.32E-05,-0.116
-8.32E-05,-0.112
-8.32E-05,-0.108
-8.32E-05,-0.12
-8.31E-05,-0.108
-8.31E-05,-0.116
-8.31E-05,-0.112
-8.31E-05,-0.112
-8.31E-05,-0.116
-8.30E-05,-0.112
-8.30E-05,-0.116
-8.30E-05,-0.112
-8.30E-05,-0.128
-8.30E-05,-0.116
-8.29E-05,-0.112
-8.29E-05,-0.108
-8.29E-05,-0.12
-8.29E-05,-0.112
-8.29E-05,-0.108
-8.28E-05,-0.108
-8.28E-05,-0.116
-8.28E-05,-0.112
-8.28E-05,-0.116
-8.28E-05,-0.116
-8.27E-05,-0.116
-8.27E-05,-0.12
-8.27E-05,-0.112
-8.27E-05,-0.112
-8.27E-05,-0.112
-8.26E-05,-0.112
-8.26E-05,-0.12
-8.26E-05,-0.12
-8.26E-05,-0.116
-8.26E-05,-0.112
-8.25E-05,-0.12
-8.25E-05,-0.112
-8.25E-05,-0.116
-8.25E-05,-0.112
-8.25E-05,-0.116
-8.24E-05,-0.12
-8.24E-05,-0.104
-8.24E-05,-0.124
-8.24E-05,-0.116
-8.24E-05,-0.116
-8.23E-05,-0.108
-8.23E-05,-0.116
-8.23E-05,-0.108
-8.23E-05,-0.116
-8.23E-05,-0.108
-8.22E-05,-0.112
-8.22E-05,-0.116
-8.22E-05,-0.116
-8.22E-05,-0.12
-8.22E-05,-0.112
-8.21E-05,-0.1
-8.21E-05,-0.104
-8.21E-05,-0.108
-8.21E-05,-0.116
-8.21E-05,-0.108
-8.20E-05,-0.116
-8.20E-05,-0.108
-8.20E-05,-0.108
-8.20E-05,-0.116
-8.20E-05,-0.116
-8.19E-05,-0.108
-8.19E-05,-0.12
-8.19E-05,-0.116
-8.19E-05,-0.116
-8.19E-05,-0.116
-8.18E-05,-0.108
-8.18E-05,-0.112
-8.18E-05,-0.12
-8.18E-05,-0.112
-8.18E-05,-0.116
-8.17E-05,-0.108
-8.17E-05,-0.12
-8.17E-05,-0.12
-8.17E-05,-0.108
-8.17E-05,-0.124
-8.16E-05,-0.116
-8.16E-05,-0.108
-8.16E-05,-0.112
-8.16E-05,-0.108
-8.16E-05,-0.112
-8.15E-05,-0.108
-8.15E-05,-0.116
-8.15E-05,-0.12
-8.15E-05,-0.108
-8.15E-05,-0.104
-8.14E-05,-0.112
-8.14E-05,-0.108
-8.14E-05,-0.108
-8.14E-05,-0.112
-8.14E-05,-0.116
-8.13E-05,-0.116
-8.13E-05,-0.12
-8.13E-05,-0.116
-8.13E-05,-0.104
-8.13E-05,-0.112
-8.12E-05,-0.112
-8.12E-05,-0.112
-8.12E-05,-0.112
-8.12E-05,-0.116
-8.12E-05,-0.116
-8.11E-05,-0.112
-8.11E-05,-0.112
-8.11E-05,-0.116
-8.11E-05,-0.116
-8.11E-05,-0.12
-8.10E-05,-0.116
-8.10E-05,-0.124
-8.10E-05,-0.108
-8.10E-05,-0.108
-8.10E-05,-0.128
-8.09E-05,-0.108
-8.09E-05,-0.116
-8.09E-05,-0.108
-8.09E-05,-0.108
-8.09E-05,-0.12
-8.08E-05,-0.112
-8.08E-05,-0.12
-8.08E-05,-0.112
-8.08E-05,-0.12
-8.08E-05,-0.12
-8.07E-05,-0.112
-8.07E-05,-0.108
-8.07E-05,-0.116
-8.07E-05,-0.116
-8.07E-05,-0.108
-8.06E-05,-0.116
-8.06E-05,-0.108
-8.06E-05,-0.112
-8.06E-05,-0.108
-8.06E-05,-0.116
-8.05E-05,-0.12
-8.05E-05,-0.116
-8.05E-05,-0.108
-8.05E-05,-0.116
-8.05E-05,-0.12
-8.04E-05,-0.116
-8.04E-05,-0.112
-8.04E-05,-0.124
-8.04E-05,-0.116
-8.04E-05,-0.12
-8.03E-05,-0.112
-8.03E-05,-0.116
-8.03E-05,-0.116
-8.03E-05,-0.116
-8.03E-05,-0.124
-8.02E-05,-0.124
-8.02E-05,-0.116
-8.02E-05,-0.116
-8.02E-05,-0.112
-8.02E-05,-0.124
-8.01E-05,-0.12
-8.01E-05,-0.116
-8.01E-05,-0.112
-8.01E-05,-0.112
-8.01E-05,-0.124
-8.00E-05,-0.112
-8.00E-05,-0.112
-8.00E-05,-0.112
-8.00E-05,-0.124
-8.00E-05,-0.112
-7.99E-05,-0.108
-7.99E-05,-0.112
-7.99E-05,-0.116
-7.99E-05,-0.124
-7.99E-05,-0.112
-7.98E-05,-0.112
-7.98E-05,-0.116
-7.98E-05,-0.12
-7.98E-05,-0.104
-7.98E-05,-0.116
-7.97E-05,-0.12
-7.97E-05,-0.112
-7.97E-05,-0.12
-7.97E-05,-0.108
-7.97E-05,-0.12
-7.96E-05,-0.112
-7.96E-05,-0.12
-7.96E-05,-0.112
-7.96E-05,-0.108
-7.96E-05,-0.108
-7.95E-05,-0.12
-7.95E-05,-0.108
-7.95E-05,-0.112
-7.95E-05,-0.112
-7.95E-05,-0.12
-7.94E-05,-0.108
-7.94E-05,-0.12
-7.94E-05,-0.108
-7.94E-05,-0.12
-7.94E-05,-0.112
-7.93E-05,-0.12
-7.93E-05,-0.112
-7.93E-05,-0.112
-7.93E-05,-0.124
-7.93E-05,-0.112
-7.92E-05,-0.108
-7.92E-05,-0.12
-7.92E-05,-0.12
-7.92E-05,-0.112
-7.92E-05,-0.116
-7.91E-05,-0.124
-7.91E-05,-0.108
-7.91E-05,-0.116
-7.91E-05,-0.12
-7.91E-05,-0.116
-7.90E-05,-0.124
-7.90E-05,-0.116
-7.90E-05,-0.112
-7.90E-05,-0.12
-7.90E-05,-0.116
-7.89E-05,-0.12
-7.89E-05,-0.112
-7.89E-05,-0.124
-7.89E-05,-0.12
-7.89E-05,-0.12
-7.88E-05,-0.116
-7.88E-05,-0.112
-7.88E-05,-0.112
-7.88E-05,-0.12
-7.88E-05,-0.116
-7.87E-05,-0.112
-7.87E-05,-0.12
-7.87E-05,-0.116
-7.87E-05,-0.116
-7.87E-05,-0.112
-7.86E-05,-0.112
-7.86E-05,-0.12
-7.86E-05,-0.112
