ECE375/hw4/hw4/files/tek0002CH2.csv

Model,DPO4034
Firmware Version,2.68

Waveform Type,ANALOG
Point Format,Y
Horizontal Units,s
Horizontal Scale,0.0002
Horizontal Delay,-1.492e-05
Sample Interval,2e-07
Record Length,10000
Gating,0.0% to 100.0%
Probe Attenuation,1
Vertical Units,V
Vertical Offset,0
Vertical Scale,0.01
Vertical Position,0
,
,
,
Label,
TIME,CH2
-1.0149e-03,0.0004
-1.0147e-03,0
-1.0145e-03,0
-1.0143e-03,0.0004
-1.0141e-03,0.0004
-1.0139e-03,0.0004
-1.0137e-03,-0.0004
-1.0135e-03,0.0004
-1.0133e-03,0
-1.0131e-03,0
-1.0129e-03,0.0004
-1.0127e-03,0.0008
-1.0125e-03,0.0004
-1.0123e-03,0.0008
-1.0121e-03,0.0004
-1.0119e-03,0.0008
-1.0117e-03,0.0004
-1.0115e-03,0.0012
-1.0113e-03,0.0008
-1.0111e-03,0.0008
-1.0109e-03,0
-1.0107e-03,0
-1.0105e-03,0.0008
-1.0103e-03,0.0012
-1.0101e-03,0.0008
-1.0099e-03,0.0004
-1.0097e-03,0.0004
-1.0095e-03,0.0004
-1.0093e-03,0.0008
-1.0091e-03,0
-1.0089e-03,0
-1.0087e-03,0.0008
-1.0085e-03,0.0004
-1.0083e-03,0
-1.0081e-03,0.0004
-1.0079e-03,0
-1.0077e-03,0
-1.0075e-03,0
-1.0073e-03,0.0004
-1.0071e-03,0.0008
-1.0069e-03,0.0004
-1.0067e-03,0.0004
-1.0065e-03,0.0004
-1.0063e-03,-0.0004
-1.0061e-03,0.0004
-1.0059e-03,0
-1.0057e-03,0.0004
-1.0055e-03,0
-1.0053e-03,0
-1.0051e-03,0.0004
-1.0049e-03,0.0004
-1.0047e-03,0
-1.0045e-03,0.0012
-1.0043e-03,0.0008
-1.0041e-03,0
-1.0039e-03,0.0004
-1.0037e-03,-0.0004
-1.0035e-03,0.0004
-1.0033e-03,0.0004
-1.0031e-03,0
-1.0029e-03,0.0004
-1.0027e-03,0.0008
-1.0025e-03,0.0004
-1.0023e-03,0.0008
-1.0021e-03,0.0012
-1.0019e-03,0.0008
-1.0017e-03,0.0004
-1.0015e-03,0
-1.0013e-03,0.0004
-1.0011e-03,0.0004
-1.0009e-03,-0.0004
-1.0007e-03,0.0004
-1.0005e-03,0
-1.0003e-03,0.0008
-1.0001e-03,0
-9.9992e-04,0.0004
-9.9972e-04,0.0008
-9.9952e-04,0.0008
-9.9932e-04,0
-9.9912e-04,0.0012
-9.9892e-04,0
-9.9872e-04,0.0008
-9.9852e-04,0
-9.9832e-04,0.0004
-9.9812e-04,-0.0008
-9.9792e-04,0
-9.9772e-04,0.0012
-9.9752e-04,0.0008
-9.9732e-04,0.0004
-9.9712e-04,0.0008
-9.9692e-04,0.0004
-9.9672e-04,0
-9.9652e-04,0
-9.9632e-04,0.0008
-9.9612e-04,0
-9.9592e-04,0.0008
-9.9572e-04,0.0004
-9.9552e-04,0.0004
-9.9532e-04,0.0004
-9.9512e-04,0.0004
-9.9492e-04,0.0004
-9.9472e-04,-0.0004
-9.9452e-04,0
-9.9432e-04,0
-9.9412e-04,0.0004
-9.9392e-04,0.0012
-9.9372e-04,0.0004
-9.9352e-04,0
-9.9332e-04,0.0004
-9.9312e-04,0
-9.9292e-04,0
-9.9272e-04,-0.0004
-9.9252e-04,0.0008
-9.9232e-04,-0.0004
-9.9212e-04,0
-9.9192e-04,0.0008
-9.9172e-04,0.0004
-9.9152e-04,0
-9.9132e-04,0.0008
-9.9112e-04,0.0004
-9.9092e-04,0.0008
-9.9072e-04,0
-9.9052e-04,0.0004
-9.9032e-04,0.0012
-9.9012e-04,-0.0004
-9.8992e-04,0.0012
-9.8972e-04,0
-9.8952e-04,0.0012
-9.8932e-04,0.0008
-9.8912e-04,-0.0004
-9.8892e-04,-0.0004
-9.8872e-04,0
-9.8852e-04,0
-9.8832e-04,0.0008
-9.8812e-04,0.0004
-9.8792e-04,0.0008
-9.8772e-04,-0.0004
-9.8752e-04,0.0004
-9.8732e-04,0.0004
-9.8712e-04,0
-9.8692e-04,0
-9.8672e-04,0.0004
-9.8652e-04,0.0008
-9.8632e-04,0
-9.8612e-04,0.0008
-9.8592e-04,0.0008
-9.8572e-04,0.0004
-9.8552e-04,0.0008
-9.8532e-04,0
-9.8512e-04,0
-9.8492e-04,-0.0004
-9.8472e-04,0
-9.8452e-04,0.0004
-9.8432e-04,0.0008
-9.8412e-04,0.0004
-9.8392e-04,0
-9.8372e-04,0.0004
-9.8352e-04,0.0008
-9.8332e-04,0.0008
-9.8312e-04,0.0004
-9.8292e-04,0
-9.8272e-04,0.0004
-9.8252e-04,0
-9.8232e-04,0.0012
-9.8212e-04,0
-9.8192e-04,0
-9.8172e-04,0.0004
-9.8152e-04,0
-9.8132e-04,0.0008
-9.8112e-04,0.0004
-9.8092e-04,0
-9.8072e-04,-0.0004
-9.8052e-04,0.0008
-9.8032e-04,0.0004
-9.8012e-04,0
-9.7992e-04,0.0004
-9.7972e-04,-0.0004
-9.7952e-04,0.0004
-9.7932e-04,0
-9.7912e-04,0.0008
-9.7892e-04,-0.0004
-9.7872e-04,0.0008
-9.7852e-04,0
-9.7832e-04,0
-9.7812e-04,0.0004
-9.7792e-04,0
-9.7772e-04,0
-9.7752e-04,0.0008
-9.7732e-04,-0.0004
-9.7712e-04,0.0008
-9.7692e-04,0.0008
-9.7672e-04,0
-9.7652e-04,0.0008
-9.7632e-04,0.0004
-9.7612e-04,0.0008
-9.7592e-04,0.0012
-9.7572e-04,0
-9.7552e-04,0.0024
-9.7532e-04,0
-9.7512e-04,0.0004
-9.7492e-04,0.0008
-9.7472e-04,0
-9.7452e-04,0.0008
-9.7432e-04,0
-9.7412e-04,0.0004
-9.7392e-04,0.0004
-9.7372e-04,-0.0012
-9.7352e-04,0
-9.7332e-04,0
-9.7312e-04,0.0004
-9.7292e-04,0
-9.7272e-04,-0.0004
-9.7252e-04,0
-9.7232e-04,0
-9.7212e-04,0.0008
-9.7192e-04,-0.0004
-9.7172e-04,-0.0004
-9.7152e-04,0
-9.7132e-04,0.0008
-9.7112e-04,0
-9.7092e-04,-0.0004
-9.7072e-04,-0.0004
-9.7052e-04,0
-9.7032e-04,-0.0004
-9.7012e-04,0.0012
-9.6992e-04,0.0012
-9.6972e-04,0.0004
-9.6952e-04,0.0012
-9.6932e-04,0.0004
-9.6912e-04,0.0008
-9.6892e-04,0.0008
-9.6872e-04,0.0008
-9.6852e-04,0.0004
-9.6832e-04,0.0008
-9.6812e-04,0.0008
-9.6792e-04,0.0004
-9.6772e-04,0
-9.6752e-04,0.0008
-9.6732e-04,0.0004
-9.6712e-04,0.0004
-9.6692e-04,0
-9.6672e-04,0
-9.6652e-04,0
-9.6632e-04,0.0004
-9.6612e-04,0
-9.6592e-04,0
-9.6572e-04,0.0004
-9.6552e-04,0.0004
-9.6532e-04,0.0004
-9.6512e-04,0.0004
-9.6492e-04,0.0008
-9.6472e-04,0.0012
-9.6452e-04,0
-9.6432e-04,0
-9.6412e-04,0
-9.6392e-04,0
-9.6372e-04,0.0008
-9.6352e-04,0
-9.6332e-04,0.0004
-9.6312e-04,0.0008
-9.6292e-04,0
-9.6272e-04,0.0004
-9.6252e-04,0.0004
-9.6232e-04,0
-9.6212e-04,0.0004
-9.6192e-04,-0.0004
-9.6172e-04,-0.0012
-9.6152e-04,0.0008
-9.6132e-04,-0.0004
-9.6112e-04,0.0004
-9.6092e-04,0
-9.6072e-04,0.0004
-9.6052e-04,0.0008
-9.6032e-04,-0.0004
-9.6012e-04,0
-9.5992e-04,0.0008
-9.5972e-04,0.0008
-9.5952e-04,0
-9.5932e-04,0.0004
-9.5912e-04,-0.0004
-9.5892e-04,0
-9.5872e-04,0.0004
-9.5852e-04,0.0008
-9.5832e-04,0.0008
-9.5812e-04,0.0008
-9.5792e-04,0.0004
-9.5772e-04,0.0004
-9.5752e-04,-0.0004
-9.5732e-04,0.0008
-9.5712e-04,0.0004
-9.5692e-04,0.0012
-9.5672e-04,0.0012
-9.5652e-04,0
-9.5632e-04,0.0004
-9.5612e-04,0.0004
-9.5592e-04,0.0004
-9.5572e-04,0.0004
-9.5552e-04,0
-9.5532e-04,0.0004
-9.5512e-04,0.0008
-9.5492e-04,0
-9.5472e-04,0
-9.5452e-04,0.0008
-9.5432e-04,0
-9.5412e-04,0
-9.5392e-04,0
-9.5372e-04,0.0004
-9.5352e-04,0.0004
-9.5332e-04,0.0004
-9.5312e-04,0.0008
-9.5292e-04,-0.0004
-9.5272e-04,0.0004
-9.5252e-04,0
-9.5232e-04,0.0004
-9.5212e-04,0.0004
-9.5192e-04,0.0004
-9.5172e-04,0.0008
-9.5152e-04,0.002
-9.5132e-04,0.0008
-9.5112e-04,0.0008
-9.5092e-04,0.0008
-9.5072e-04,0.002
-9.5052e-04,0.0004
-9.5032e-04,0.0004
-9.5012e-04,0.0016
-9.4992e-04,0.0004
-9.4972e-04,0
-9.4952e-04,0.0008
-9.4932e-04,0
-9.4912e-04,0.0008
-9.4892e-04,0
-9.4872e-04,0.0004
-9.4852e-04,-0.0004
-9.4832e-04,0.0012
-9.4812e-04,0.0004
-9.4792e-04,0.0008
-9.4772e-04,0.0004
-9.4752e-04,0.0004
-9.4732e-04,-0.0004
-9.4712e-04,0.0004
-9.4692e-04,0.0004
-9.4672e-04,0.0008
-9.4652e-04,0
-9.4632e-04,-0.0004
-9.4612e-04,0.0004
-9.4592e-04,0.0004
-9.4572e-04,-0.0012
-9.4552e-04,0.0004
-9.4532e-04,0.0004
-9.4512e-04,0.0004
-9.4492e-04,0.0008
-9.4472e-04,0.0004
-9.4452e-04,0.0008
-9.4432e-04,0
-9.4412e-04,0
-9.4392e-04,0.0008
-9.4372e-04,0
-9.4352e-04,0
-9.4332e-04,0.0008
-9.4312e-04,0
-9.4292e-04,0.0004
-9.4272e-04,-0.0004
-9.4252e-04,0
-9.4232e-04,0
-9.4212e-04,0.0008
-9.4192e-04,0.0008
-9.4172e-04,0.0004
-9.4152e-04,0
-9.4132e-04,0
-9.4112e-04,0.0008
-9.4092e-04,0.0004
-9.4072e-04,-0.0004
-9.4052e-04,0.0008
-9.4032e-04,0.0008
-9.4012e-04,0.0004
-9.3992e-04,0
-9.3972e-04,0.0008
-9.3952e-04,0.0004
-9.3932e-04,0.0004
-9.3912e-04,-0.0004
-9.3892e-04,-0.0004
-9.3872e-04,0.0008
-9.3852e-04,0.0004
-9.3832e-04,0.0004
-9.3812e-04,0
-9.3792e-04,0.0008
-9.3772e-04,0.0004
-9.3752e-04,0
-9.3732e-04,0.0004
-9.3712e-04,0.0012
-9.3692e-04,0.0004
-9.3672e-04,0.0008
-9.3652e-04,0.0004
-9.3632e-04,0.0008
-9.3612e-04,0.0004
-9.3592e-04,0.0004
-9.3572e-04,0.0008
-9.3552e-04,0
-9.3532e-04,0
-9.3512e-04,0.0008
-9.3492e-04,0.0012
-9.3472e-04,0.0004
-9.3452e-04,0.0004
-9.3432e-04,0.0008
-9.3412e-04,0.0004
-9.3392e-04,0.0008
-9.3372e-04,0.0016
-9.3352e-04,0
-9.3332e-04,0.0004
-9.3312e-04,0.0008
-9.3292e-04,0.0004
-9.3272e-04,0.0004
-9.3252e-04,0
-9.3232e-04,-0.0004
-9.3212e-04,0.0008
-9.3192e-04,0.0008
-9.3172e-04,0.0004
-9.3152e-04,0.0008
-9.3132e-04,0.0008
-9.3112e-04,0.0004
-9.3092e-04,0.0012
-9.3072e-04,0.0012
-9.3052e-04,0.0008
-9.3032e-04,0.0004
-9.3012e-04,0
-9.2992e-04,0
-9.2972e-04,0
-9.2952e-04,0.0004
-9.2932e-04,0.0004
-9.2912e-04,0
-9.2892e-04,0
-9.2872e-04,0.0004
-9.2852e-04,0.0004
-9.2832e-04,0
-9.2812e-04,0
-9.2792e-04,0.0008
-9.2772e-04,0.0004
-9.2752e-04,0
-9.2732e-04,0.0008
-9.2712e-04,0.0008
-9.2692e-04,0.0004
-9.2672e-04,0
-9.2652e-04,0
-9.2632e-04,0.0004
-9.2612e-04,0.0008
-9.2592e-04,0.0008
-9.2572e-04,0.0008
-9.2552e-04,0.0004
-9.2532e-04,0.0004
-9.2512e-04,0
-9.2492e-04,0.0004
-9.2472e-04,0.0008
-9.2452e-04,0.0004
-9.2432e-04,0
-9.2412e-04,-0.0004
-9.2392e-04,0
-9.2372e-04,0
-9.2352e-04,0
-9.2332e-04,-0.0004
-9.2312e-04,0.0004
-9.2292e-04,0.0004
-9.2272e-04,0.0004
-9.2252e-04,0
-9.2232e-04,0.0004
-9.2212e-04,0.0004
-9.2192e-04,0.0004
-9.2172e-04,0.0008
-9.2152e-04,-0.0008
-9.2132e-04,0
-9.2112e-04,0.0008
-9.2092e-04,0
-9.2072e-04,0
-9.2052e-04,0.0008
-9.2032e-04,0.0004
-9.2012e-04,0.0004
-9.1992e-04,0.0008
-9.1972e-04,0.0008
-9.1952e-04,0.0008
-9.1932e-04,0.0008
-9.1912e-04,0
-9.1892e-04,0.0012
-9.1872e-04,0.0004
-9.1852e-04,0.0004
-9.1832e-04,0
-9.1812e-04,-0.0004
-9.1792e-04,0.0008
-9.1772e-04,0.0004
-9.1752e-04,0.0004
-9.1732e-04,0.0008
-9.1712e-04,0.0008
-9.1692e-04,0.0004
-9.1672e-04,0
-9.1652e-04,0.0008
-9.1632e-04,0
-9.1612e-04,0.0004
-9.1592e-04,0
-9.1572e-04,0
-9.1552e-04,-0.0004
-9.1532e-04,0.0008
-9.1512e-04,0.0004
-9.1492e-04,0
-9.1472e-04,0.0008
-9.1452e-04,0.0004
-9.1432e-04,0.0012
-9.1412e-04,0.0004
-9.1392e-04,0.0008
-9.1372e-04,0
-9.1352e-04,0.0008
-9.1332e-04,0.0008
-9.1312e-04,0.0008
-9.1292e-04,0
-9.1272e-04,0
-9.1252e-04,0.0012
-9.1232e-04,0
-9.1212e-04,0
-9.1192e-04,0
-9.1172e-04,0.0008
-9.1152e-04,0
-9.1132e-04,0.0004
-9.1112e-04,0.0008
-9.1092e-04,0.0012
-9.1072e-04,0.0004
-9.1052e-04,0
-9.1032e-04,0
-9.1012e-04,0
-9.0992e-04,0
-9.0972e-04,0.0004
-9.0952e-04,0
-9.0932e-04,0.0004
-9.0912e-04,0.0004
-9.0892e-04,0.0008
-9.0872e-04,0.0008
-9.0852e-04,0.0004
-9.0832e-04,0.0008
-9.0812e-04,0
-9.0792e-04,0.0004
-9.0772e-04,0.0004
-9.0752e-04,0
-9.0732e-04,0.0004
-9.0712e-04,0.0008
-9.0692e-04,0
-9.0672e-04,0
-9.0652e-04,0
-9.0632e-04,-0.0004
-9.0612e-04,0.0004
-9.0592e-04,0.0004
-9.0572e-04,0
-9.0552e-04,0
-9.0532e-04,0
-9.0512e-04,0.0008
-9.0492e-04,0
-9.0472e-04,0.0004
-9.0452e-04,0.002
-9.0432e-04,0
-9.0412e-04,0.0004
-9.0392e-04,0
-9.0372e-04,-0.0004
-9.0352e-04,0.0004
-9.0332e-04,0.0004
-9.0312e-04,0.0004
-9.0292e-04,0
-9.0272e-04,0
-9.0252e-04,0.0008
-9.0232e-04,0.0012
-9.0212e-04,-0.0004
-9.0192e-04,0.0008
-9.0172e-04,0
-9.0152e-04,0.0008
-9.0132e-04,0.0008
-9.0112e-04,0.0012
-9.0092e-04,-0.0004
-9.0072e-04,0.0008
-9.0052e-04,0.0012
-9.0032e-04,0.0004
-9.0012e-04,0.0004
-8.9992e-04,0.0004
-8.9972e-04,0.0008
-8.9952e-04,0
-8.9932e-04,0.0004
-8.9912e-04,0
-8.9892e-04,0.0008
-8.9872e-04,0
-8.9852e-04,0.0008
-8.9832e-04,0.0004
-8.9812e-04,0.0008
-8.9792e-04,0.0008
-8.9772e-04,0
-8.9752e-04,0
-8.9732e-04,0
-8.9712e-04,0
-8.9692e-04,0.0008
-8.9672e-04,0
-8.9652e-04,0
-8.9632e-04,0.0008
-8.9612e-04,0.0004
-8.9592e-04,-0.0008
-8.9572e-04,0
-8.9552e-04,0.0008
-8.9532e-04,0.0008
-8.9512e-04,0
-8.9492e-04,-0.0008
-8.9472e-04,0.0004
-8.9452e-04,-0.0004
-8.9432e-04,0.0012
-8.9412e-04,0.0004
-8.9392e-04,0.0004
-8.9372e-04,0.0008
-8.9352e-04,0
-8.9332e-04,0
-8.9312e-04,0.0008
-8.9292e-04,0.0008
-8.9272e-04,0
-8.9252e-04,-0.0004
-8.9232e-04,0
-8.9212e-04,0.0008
-8.9192e-04,0.0008
-8.9172e-04,0.0004
-8.9152e-04,-0.0004
-8.9132e-04,0.0012
-8.9112e-04,-0.0008
-8.9092e-04,0.0012
-8.9072e-04,0.0008
-8.9052e-04,0.0012
-8.9032e-04,0
-8.9012e-04,0
-8.8992e-04,0.0004
-8.8972e-04,0
-8.8952e-04,0
-8.8932e-04,0
-8.8912e-04,0.0008
-8.8892e-04,0.0008
-8.8872e-04,0
-8.8852e-04,0
-8.8832e-04,-0.0004
-8.8812e-04,0.0008
-8.8792e-04,0
-8.8772e-04,0
-8.8752e-04,0.0008
-8.8732e-04,0.0008
-8.8712e-04,-0.0004
-8.8692e-04,0.0004
-8.8672e-04,0.0004
-8.8652e-04,0
-8.8632e-04,0
-8.8612e-04,0.0008
-8.8592e-04,0
-8.8572e-04,0.0008
-8.8552e-04,0.0008
-8.8532e-04,0.0004
-8.8512e-04,0.0004
-8.8492e-04,0.0008
-8.8472e-04,-0.0004
-8.8452e-04,0
-8.8432e-04,0.0008
-8.8412e-04,0
-8.8392e-04,0
-8.8372e-04,0
-8.8352e-04,0.0004
-8.8332e-04,0.0008
-8.8312e-04,-0.0004
-8.8292e-04,0.0004
-8.8272e-04,0
-8.8252e-04,0.0004
-8.8232e-04,0.0004
-8.8212e-04,0
-8.8192e-04,0
-8.8172e-04,0.0004
-8.8152e-04,0.0004
-8.8132e-04,0.0004
-8.8112e-04,0.0004
-8.8092e-04,-0.0008
-8.8072e-04,0.0004
-8.8052e-04,0
-8.8032e-04,0.0004
-8.8012e-04,0.0008
-8.7992e-04,0
-8.7972e-04,0
-8.7952e-04,0.0004
-8.7932e-04,0
-8.7912e-04,0.0004
-8.7892e-04,0.0004
-8.7872e-04,0.0004
-8.7852e-04,0
-8.7832e-04,0.0004
-8.7812e-04,0.0012
-8.7792e-04,0.0004
-8.7772e-04,0.0012
-8.7752e-04,0.0004
-8.7732e-04,0.0008
-8.7712e-04,-0.0004
-8.7692e-04,0.0008
-8.7672e-04,0
-8.7652e-04,0.0004
-8.7632e-04,0.0004
-8.7612e-04,0
-8.7592e-04,0.0008
-8.7572e-04,0
-8.7552e-04,0
-8.7532e-04,0.0008
-8.7512e-04,0.0008
-8.7492e-04,-0.0004
-8.7472e-04,0
-8.7452e-04,-0.0004
-8.7432e-04,0.0008
-8.7412e-04,0.0004
-8.7392e-04,0.0004
-8.7372e-04,0
-8.7352e-04,0.0008
-8.7332e-04,0
-8.7312e-04,0.0008
-8.7292e-04,0.0004
-8.7272e-04,0.0004
-8.7252e-04,0
-8.7232e-04,0
-8.7212e-04,0
-8.7192e-04,0.0004
-8.7172e-04,0.0004
-8.7152e-04,0.0012
-8.7132e-04,0
-8.7112e-04,-0.0004
-8.7092e-04,0
-8.7072e-04,0
-8.7052e-04,0
-8.7032e-04,0.0004
-8.7012e-04,0.0004
-8.6992e-04,-0.0008
-8.6972e-04,0.0012
-8.6952e-04,0.0004
-8.6932e-04,0
-8.6912e-04,0
-8.6892e-04,-0.0004
-8.6872e-04,0.0004
-8.6852e-04,0
-8.6832e-04,0.0008
-8.6812e-04,0.0008
-8.6792e-04,0.0012
-8.6772e-04,0
-8.6752e-04,0
-8.6732e-04,0.0004
-8.6712e-04,0
-8.6692e-04,0
-8.6672e-04,0.0008
-8.6652e-04,0
-8.6632e-04,0.0004
-8.6612e-04,-0.0004
-8.6592e-04,0.0008
-8.6572e-04,0
-8.6552e-04,0.0008
-8.6532e-04,-0.0004
-8.6512e-04,0.0004
-8.6492e-04,0.0004
-8.6472e-04,0.0008
-8.6452e-04,0.0004
-8.6432e-04,0.0004
-8.6412e-04,0.0004
-8.6392e-04,0.0008
-8.6372e-04,-0.0004
-8.6352e-04,0.0004
-8.6332e-04,0
-8.6312e-04,0.0016
-8.6292e-04,0
-8.6272e-04,0.0008
-8.6252e-04,0.0004
-8.6232e-04,0.0004
-8.6212e-04,0.0008
-8.6192e-04,0.0012
-8.6172e-04,0.0008
-8.6152e-04,0
-8.6132e-04,0.0008
-8.6112e-04,0
-8.6092e-04,0.0004
-8.6072e-04,0.0008
-8.6052e-04,0.0008
-8.6032e-04,0
-8.6012e-04,0.0012
-8.5992e-04,0
-8.5972e-04,0.0004
-8.5952e-04,0
-8.5932e-04,0
-8.5912e-04,-0.0004
-8.5892e-04,0.0004
-8.5872e-04,0.0008
-8.5852e-04,0
-8.5832e-04,0.0008
-8.5812e-04,0.0004
-8.5792e-04,0
-8.5772e-04,0
-8.5752e-04,0.0008
-8.5732e-04,0
-8.5712e-04,0
-8.5692e-04,-0.0008
-8.5672e-04,0.0016
-8.5652e-04,0.0012
-8.5632e-04,0.0004
-8.5612e-04,0
-8.5592e-04,0
-8.5572e-04,0.0004
-8.5552e-04,0.0008
-8.5532e-04,0.0004
-8.5512e-04,0.0012
-8.5492e-04,0.0004
-8.5472e-04,0.0004
-8.5452e-04,0
-8.5432e-04,0.0004
-8.5412e-04,0.0008
-8.5392e-04,-0.0004
-8.5372e-04,0
-8.5352e-04,0.0004
-8.5332e-04,0.0008
-8.5312e-04,0
-8.5292e-04,0.0004
-8.5272e-04,0
-8.5252e-04,0.0008
-8.5232e-04,0
-8.5212e-04,0.0004
-8.5192e-04,0.0008
-8.5172e-04,0
-8.5152e-04,0.0008
-8.5132e-04,0
-8.5112e-04,0.0012
-8.5092e-04,-0.0004
-8.5072e-04,0
-8.5052e-04,0.0004
-8.5032e-04,0.0004
-8.5012e-04,0.0004
-8.4992e-04,0
-8.4972e-04,0.0008
-8.4952e-04,-0.0004
-8.4932e-04,0
-8.4912e-04,0
-8.4892e-04,0.0008
-8.4872e-04,-0.0004
-8.4852e-04,0.0004
-8.4832e-04,0.0004
-8.4812e-04,0
-8.4792e-04,0.0012
-8.4772e-04,0.0004
-8.4752e-04,0
-8.4732e-04,-0.0008
-8.4712e-04,0.0004
-8.4692e-04,0.0008
-8.4672e-04,0.0004
-8.4652e-04,0.0008
-8.4632e-04,0.0004
-8.4612e-04,0
-8.4592e-04,0.0004
-8.4572e-04,0.0016
-8.4552e-04,0
-8.4532e-04,0.0004
-8.4512e-04,0.0004
-8.4492e-04,0.0004
-8.4472e-04,0
-8.4452e-04,0.0008
-8.4432e-04,0
-8.4412e-04,0.0004
-8.4392e-04,0.0008
-8.4372e-04,0
-8.4352e-04,0.0004
-8.4332e-04,0.0004
-8.4312e-04,0
-8.4292e-04,0.0008
-8.4272e-04,0
-8.4252e-04,0.0008
-8.4232e-04,-0.0004
-8.4212e-04,0.0004
-8.4192e-04,0
-8.4172e-04,0
-8.4152e-04,0.0004
-8.4132e-04,0.0008
-8.4112e-04,-0.0008
-8.4092e-04,-0.0004
-8.4072e-04,0.0008
-8.4052e-04,0.0004
-8.4032e-04,0
-8.4012e-04,-0.0012
-8.3992e-04,0.0004
-8.3972e-04,0
-8.3952e-04,0.0008
-8.3932e-04,0
-8.3912e-04,0
-8.3892e-04,0
-8.3872e-04,0.0004
-8.3852e-04,0.0004
-8.3832e-04,0.0016
-8.3812e-04,0.0004
-8.3792e-04,0.0004
-8.3772e-04,0
-8.3752e-04,-0.0004
-8.3732e-04,0
-8.3712e-04,0.0004
-8.3692e-04,0
-8.3672e-04,0
-8.3652e-04,0.0008
-8.3632e-04,0.0004
-8.3612e-04,0
-8.3592e-04,0.0004
-8.3572e-04,-0.0008
-8.3552e-04,0.0004
-8.3532e-04,0.0004
-8.3512e-04,0.0008
-8.3492e-04,0
-8.3472e-04,0.0008
-8.3452e-04,0.0004
-8.3432e-04,0.0008
-8.3412e-04,0
-8.3392e-04,0.0008
-8.3372e-04,0.0004
-8.3352e-04,0
-8.3332e-04,0
-8.3312e-04,0.0004
-8.3292e-04,0
-8.3272e-04,0.0004
-8.3252e-04,0
-8.3232e-04,0.002
-8.3212e-04,0.0004
-8.3192e-04,0.0004
-8.3172e-04,0.0008
-8.3152e-04,-0.0004
-8.3132e-04,0
-8.3112e-04,0
-8.3092e-04,0.0008
-8.3072e-04,-0.0004
-8.3052e-04,0.0004
-8.3032e-04,-0.0004
-8.3012e-04,0.0004
-8.2992e-04,0.0008
-8.2972e-04,0.0004
-8.2952e-04,0.0004
-8.2932e-04,0.0008
-8.2912e-04,0
-8.2892e-04,0.0004
-8.2872e-04,0
-8.2852e-04,0.0004
-8.2832e-04,0
-8.2812e-04,0.0008
-8.2792e-04,0
-8.2772e-04,0.0008
-8.2752e-04,0.0004
-8.2732e-04,-0.0004
-8.2712e-04,0.0012
-8.2692e-04,0.0008
-8.2672e-04,0.0008
-8.2652e-04,0.0004
-8.2632e-04,0.0008
-8.2612e-04,0.0004
-8.2592e-04,0.0008
-8.2572e-04,-0.0004
-8.2552e-04,0.0004
-8.2532e-04,0.0004
-8.2512e-04,0.0004
-8.2492e-04,0.0004
-8.2472e-04,0
-8.2452e-04,0
-8.2432e-04,0.0004
-8.2412e-04,0.0004
-8.2392e-04,0.0008
-8.2372e-04,0.0008
-8.2352e-04,0.0008
-8.2332e-04,0.0004
-8.2312e-04,0.0008
-8.2292e-04,0.0004
-8.2272e-04,0
-8.2252e-04,0
-8.2232e-04,0
-8.2212e-04,0
-8.2192e-04,0
-8.2172e-04,0.0008
-8.2152e-04,0
-8.2132e-04,0.0004
-8.2112e-04,0.0004
-8.2092e-04,0.0004
-8.2072e-04,0.0008
-8.2052e-04,0.0004
-8.2032e-04,0.0004
-8.2012e-04,-0.0004
-8.1992e-04,-0.0004
-8.1972e-04,0.0004
-8.1952e-04,0
-8.1932e-04,0
-8.1912e-04,-0.0008
-8.1892e-04,0.0008
-8.1872e-04,0.0008
-8.1852e-04,0.0012
-8.1832e-04,0.0004
-8.1812e-04,0.0004
-8.1792e-04,0.0004
-8.1772e-04,0.0004
-8.1752e-04,0.0004
-8.1732e-04,-0.0004
-8.1712e-04,0.0004
-8.1692e-04,0.0004
-8.1672e-04,0.0004
-8.1652e-04,0.0004
-8.1632e-04,0
-8.1612e-04,0
-8.1592e-04,0.0008
-8.1572e-04,0.0004
-8.1552e-04,0.0008
-8.1532e-04,0.0008
-8.1512e-04,0
-8.1492e-04,0.0004
-8.1472e-04,0.0008
-8.1452e-04,0.0008
-8.1432e-04,0.0008
-8.1412e-04,0.0008
-8.1392e-04,-0.0004
-8.1372e-04,0
-8.1352e-04,0.0004
-8.1332e-04,0.0008
-8.1312e-04,0
-8.1292e-04,0.0004
-8.1272e-04,0
-8.1252e-04,0.0008
-8.1232e-04,0.0008
-8.1212e-04,0
-8.1192e-04,0.0004
-8.1172e-04,0.0008
-8.1152e-04,0.0004
-8.1132e-04,0.0004
-8.1112e-04,0
-8.1092e-04,0.0004
-8.1072e-04,0.0008
-8.1052e-04,0.0004
-8.1032e-04,0.0004
-8.1012e-04,0.0004
-8.0992e-04,0.0008
-8.0972e-04,0.0004
-8.0952e-04,-0.0004
-8.0932e-04,0
-8.0912e-04,0.0004
-8.0892e-04,-0.0008
-8.0872e-04,0.0008
-8.0852e-04,0
-8.0832e-04,0.0004
-8.0812e-04,0.0008
-8.0792e-04,0.0008
-8.0772e-04,0.0012
-8.0752e-04,0.0004
-8.0732e-04,0.0008
-8.0712e-04,0
-8.0692e-04,0.0008
-8.0672e-04,0
-8.0652e-04,0
-8.0632e-04,-0.0004
-8.0612e-04,0.0004
-8.0592e-04,0.0004
-8.0572e-04,0.0008
-8.0552e-04,0
-8.0532e-04,0.0008
-8.0512e-04,0
-8.0492e-04,0.0008
-8.0472e-04,0.0008
-8.0452e-04,0.0004
-8.0432e-04,0.0004
-8.0412e-04,-0.0004
-8.0392e-04,0.0008
-8.0372e-04,0
-8.0352e-04,0
-8.0332e-04,0.0008
-8.0312e-04,0
-8.0292e-04,0.0016
-8.0272e-04,0.0004
-8.0252e-04,0
-8.0232e-04,0.0004
-8.0212e-04,0.0008
-8.0192e-04,0
-8.0172e-04,0.0004
-8.0152e-04,0
-8.0132e-04,0
-8.0112e-04,0
-8.0092e-04,0.0004
-8.0072e-04,0.0004
-8.0052e-04,-0.0004
-8.0032e-04,-0.0004
-8.0012e-04,0.0004
-7.9992e-04,0
-7.9972e-04,0.0004
-7.9952e-04,0
-7.9932e-04,0.0004
-7.9912e-04,0.0008
-7.9892e-04,0.0004
-7.9872e-04,0.0004
-7.9852e-04,0.0004
-7.9832e-04,0.0008
-7.9812e-04,0.0008
-7.9792e-04,0.0008
-7.9772e-04,0
-7.9752e-04,0
-7.9732e-04,0.002
-7.9712e-04,0.0004
-7.9692e-04,0.0004
-7.9672e-04,0.0004
-7.9652e-04,0.0008
-7.9632e-04,0.0004
-7.9612e-04,-0.0004
-7.9592e-04,0.0004
-7.9572e-04,0
-7.9552e-04,0.0008
-7.9532e-04,0
-7.9512e-04,0.0008
-7.9492e-04,0
-7.9472e-04,0
-7.9452e-04,-0.0004
-7.9432e-04,0
-7.9412e-04,0
-7.9392e-04,0.0008
-7.9372e-04,0
-7.9352e-04,-0.0004
-7.9332e-04,0.0004
-7.9312e-04,0.0004
-7.9292e-04,0.0008
-7.9272e-04,0.0008
-7.9252e-04,0.0012
-7.9232e-04,-0.0004
-7.9212e-04,0
-7.9192e-04,-0.0004
-7.9172e-04,0.0004
-7.9152e-04,0.0004
