ECE375/hw4/hw4/files/lyon zac/tek0004CH1.csv

Model,DPO4034
Firmware Version,2.68

Waveform Type,ANALOG
Point Format,Y
Horizontal Units,s
Horizontal Scale,8e-07
Horizontal Delay,1.432e-06
Sample Interval,8e-10
Record Length,10000
Gating,16.9800% to 69.700%
Probe Attenuation,1
Vertical Units,V
Vertical Offset,0
Vertical Scale,1
Vertical Position,0
,
,
,
Label,
TIME,CH1
-1.2096e-06,-0.04
-1.2088e-06,0.04
-1.2080e-06,0.04
-1.2072e-06,0
-1.2064e-06,-0.04
-1.2056e-06,0
-1.2048e-06,-0.04
-1.2040e-06,0
-1.2032e-06,-0.04
-1.2024e-06,-0.04
-1.2016e-06,-0.04
-1.2008e-06,0
-1.2000e-06,-0.08
-1.1992e-06,0.08
-1.1984e-06,-0.04
-1.1976e-06,0
-1.1968e-06,0
-1.1960e-06,0.08
-1.1952e-06,0
-1.1944e-06,0
-1.1936e-06,0
-1.1928e-06,0
-1.1920e-06,0
-1.1912e-06,-0.04
-1.1904e-06,0.04
-1.1896e-06,-0.04
-1.1888e-06,0
-1.1880e-06,-0.04
-1.1872e-06,0
-1.1864e-06,0
-1.1856e-06,-0.04
-1.1848e-06,-0.04
-1.1840e-06,0.04
-1.1832e-06,-0.04
-1.1824e-06,-0.04
-1.1816e-06,0.08
-1.1808e-06,-0.08
-1.1800e-06,-0.08
-1.1792e-06,-0.08
-1.1784e-06,0
-1.1776e-06,0.04
-1.1768e-06,0.04
-1.1760e-06,0
-1.1752e-06,0
-1.1744e-06,0
-1.1736e-06,-0.04
-1.1728e-06,0
-1.1720e-06,-0.04
-1.1712e-06,0
-1.1704e-06,-0.04
-1.1696e-06,0
-1.1688e-06,-0.08
-1.1680e-06,0.04
-1.1672e-06,-0.12
-1.1664e-06,0
-1.1656e-06,-0.04
-1.1648e-06,0
-1.1640e-06,-0.04
-1.1632e-06,-0.04
-1.1624e-06,-0.12
-1.1616e-06,-0.04
-1.1608e-06,0
-1.1600e-06,-0.04
-1.1592e-06,-0.04
-1.1584e-06,0
-1.1576e-06,0
-1.1568e-06,-0.04
-1.1560e-06,0
-1.1552e-06,-0.04
-1.1544e-06,-0.04
-1.1536e-06,0
-1.1528e-06,0.08
-1.1520e-06,-0.08
-1.1512e-06,0
-1.1504e-06,-0.04
-1.1496e-06,0
-1.1488e-06,0.04
-1.1480e-06,0.08
-1.1472e-06,0
-1.1464e-06,0
-1.1456e-06,-0.04
-1.1448e-06,0.04
-1.1440e-06,-0.04
-1.1432e-06,-0.04
-1.1424e-06,-0.04
-1.1416e-06,-0.04
-1.1408e-06,-0.04
-1.1400e-06,-0.08
-1.1392e-06,0
-1.1384e-06,-0.12
-1.1376e-06,0
-1.1368e-06,0.12
-1.1360e-06,-0.04
-1.1352e-06,-0.12
-1.1344e-06,0
-1.1336e-06,0
-1.1328e-06,0
-1.1320e-06,0
-1.1312e-06,-0.04
-1.1304e-06,-0.04
-1.1296e-06,-0.04
-1.1288e-06,-0.04
-1.1280e-06,0
-1.1272e-06,0
-1.1264e-06,0
-1.1256e-06,-0.04
-1.1248e-06,-0.04
-1.1240e-06,-0.04
-1.1232e-06,-0.04
-1.1224e-06,0.04
-1.1216e-06,0.12
-1.1208e-06,-0.04
-1.1200e-06,-0.04
-1.1192e-06,0
-1.1184e-06,0
-1.1176e-06,0
-1.1168e-06,-0.04
-1.1160e-06,0
-1.1152e-06,-0.04
-1.1144e-06,-0.04
-1.1136e-06,-0.04
-1.1128e-06,0.04
-1.1120e-06,-0.04
-1.1112e-06,0
-1.1104e-06,0
-1.1096e-06,0
-1.1088e-06,0.08
-1.1080e-06,-0.04
-1.1072e-06,0
-1.1064e-06,0
-1.1056e-06,-0.04
-1.1048e-06,0.08
-1.1040e-06,0
-1.1032e-06,0
-1.1024e-06,0.12
-1.1016e-06,0.04
-1.1008e-06,0.08
-1.1000e-06,-0.04
-1.0992e-06,0
-1.0984e-06,-0.08
-1.0976e-06,0
-1.0968e-06,0
-1.0960e-06,-0.04
-1.0952e-06,0.04
-1.0944e-06,0.08
-1.0936e-06,0
-1.0928e-06,-0.04
-1.0920e-06,-0.04
-1.0912e-06,0
-1.0904e-06,0
-1.0896e-06,0
-1.0888e-06,0
-1.0880e-06,0
-1.0872e-06,0
-1.0864e-06,0
-1.0856e-06,0.08
-1.0848e-06,0
-1.0840e-06,0
-1.0832e-06,0.08
-1.0824e-06,0
-1.0816e-06,-0.04
-1.0808e-06,0
-1.0800e-06,-0.04
-1.0792e-06,-0.04
-1.0784e-06,0
-1.0776e-06,0.04
-1.0768e-06,0
-1.0760e-06,0
-1.0752e-06,0
-1.0744e-06,-0.04
-1.0736e-06,0.04
-1.0728e-06,0
-1.0720e-06,0
-1.0712e-06,0.08
-1.0704e-06,0.08
-1.0696e-06,-0.04
-1.0688e-06,-0.04
-1.0680e-06,-0.04
-1.0672e-06,-0.04
-1.0664e-06,0
-1.0656e-06,0
-1.0648e-06,-0.04
-1.0640e-06,0.04
-1.0632e-06,0
-1.0624e-06,0.04
-1.0616e-06,-0.04
-1.0608e-06,-0.04
-1.0600e-06,0
-1.0592e-06,0
-1.0584e-06,0
-1.0576e-06,0
-1.0568e-06,0
-1.0560e-06,-0.04
-1.0552e-06,0.12
-1.0544e-06,0.04
-1.0536e-06,-0.04
-1.0528e-06,-0.04
-1.0520e-06,0
-1.0512e-06,0
-1.0504e-06,0.04
-1.0496e-06,-0.04
-1.0488e-06,0
-1.0480e-06,0.04
-1.0472e-06,0.08
-1.0464e-06,-0.04
-1.0456e-06,0
-1.0448e-06,0.08
-1.0440e-06,-0.04
-1.0432e-06,0
-1.0424e-06,-0.04
-1.0416e-06,-0.04
-1.0408e-06,-0.04
-1.0400e-06,0.08
-1.0392e-06,0
-1.0384e-06,0
-1.0376e-06,0
-1.0368e-06,-0.04
-1.0360e-06,0
-1.0352e-06,0
-1.0344e-06,0
-1.0336e-06,-0.04
-1.0328e-06,-0.04
-1.0320e-06,0.04
-1.0312e-06,0
-1.0304e-06,0.08
-1.0296e-06,0
-1.0288e-06,-0.08
-1.0280e-06,0.08
-1.0272e-06,0
-1.0264e-06,0
-1.0256e-06,0.04
-1.0248e-06,0
-1.0240e-06,-0.04
-1.0232e-06,-0.08
-1.0224e-06,0
-1.0216e-06,-0.04
-1.0208e-06,-0.04
-1.0200e-06,-0.04
-1.0192e-06,0.04
-1.0184e-06,0
-1.0176e-06,0
-1.0168e-06,0
-1.0160e-06,0.04
-1.0152e-06,0
-1.0144e-06,-0.04
-1.0136e-06,0.16
-1.0128e-06,0.04
-1.0120e-06,0
-1.0112e-06,0.04
-1.0104e-06,0
-1.0096e-06,-0.04
-1.0088e-06,0
-1.0080e-06,-0.16
-1.0072e-06,0
-1.0064e-06,0.04
-1.0056e-06,0
-1.0048e-06,0
-1.0040e-06,-0.08
-1.0032e-06,-0.04
-1.0024e-06,0.04
-1.0016e-06,0
-1.0008e-06,-0.04
-1.0000e-06,-0.04
-9.9920e-07,-0.08
-9.9840e-07,0
-9.9760e-07,0
-9.9680e-07,-0.04
-9.9600e-07,-0.08
-9.9520e-07,-0.04
-9.9440e-07,0
-9.9360e-07,-0.04
-9.9280e-07,0.04
-9.9200e-07,0
-9.9120e-07,0
-9.9040e-07,-0.04
-9.8960e-07,0
-9.8880e-07,0.04
-9.8800e-07,0
-9.8720e-07,-0.04
-9.8640e-07,0
-9.8560e-07,0
-9.8480e-07,0
-9.8400e-07,-0.04
-9.8320e-07,0
-9.8240e-07,-0.08
-9.8160e-07,-0.04
-9.8080e-07,0.04
-9.8000e-07,0
-9.7920e-07,-0.04
-9.7840e-07,0.04
-9.7760e-07,0
-9.7680e-07,0
-9.7600e-07,-0.04
-9.7520e-07,-0.04
-9.7440e-07,-0.08
-9.7360e-07,-0.04
-9.7280e-07,0
-9.7200e-07,-0.04
-9.7120e-07,0
-9.7040e-07,0.04
-9.6960e-07,-0.04
-9.6880e-07,0
-9.6800e-07,0
-9.6720e-07,0
-9.6640e-07,0
-9.6560e-07,0
-9.6480e-07,-0.12
-9.6400e-07,-0.04
-9.6320e-07,0.04
-9.6240e-07,0.04
-9.6160e-07,0
-9.6080e-07,0
-9.6000e-07,-0.04
-9.5920e-07,0
-9.5840e-07,-0.04
-9.5760e-07,-0.04
-9.5680e-07,0.08
-9.5600e-07,0.04
-9.5520e-07,-0.08
-9.5440e-07,-0.04
-9.5360e-07,0
-9.5280e-07,0
-9.5200e-07,0
-9.5120e-07,-0.04
-9.5040e-07,0
-9.4960e-07,0.08
-9.4880e-07,0.04
-9.4800e-07,0.04
-9.4720e-07,-0.04
-9.4640e-07,0
-9.4560e-07,-0.04
-9.4480e-07,-0.04
-9.4400e-07,0.08
-9.4320e-07,0.04
-9.4240e-07,-0.04
-9.4160e-07,0.04
-9.4080e-07,0
-9.4000e-07,0
-9.3920e-07,0
-9.3840e-07,0
-9.3760e-07,0.04
-9.3680e-07,-0.04
-9.3600e-07,0
-9.3520e-07,-0.04
-9.3440e-07,-0.04
-9.3360e-07,-0.04
-9.3280e-07,0
-9.3200e-07,0
-9.3120e-07,-0.08
-9.3040e-07,0
-9.2960e-07,-0.04
-9.2880e-07,0
-9.2800e-07,0
-9.2720e-07,-0.04
-9.2640e-07,0.08
-9.2560e-07,0
-9.2480e-07,0.08
-9.2400e-07,0.04
-9.2320e-07,0
-9.2240e-07,0
-9.2160e-07,0.04
-9.2080e-07,0
-9.2000e-07,0
-9.1920e-07,0
-9.1840e-07,-0.08
-9.1760e-07,0.12
-9.1680e-07,0.04
-9.1600e-07,-0.04
-9.1520e-07,0.12
-9.1440e-07,0.04
-9.1360e-07,0
-9.1280e-07,-0.04
-9.1200e-07,0.04
-9.1120e-07,0.04
-9.1040e-07,0.08
-9.0960e-07,0
-9.0880e-07,0
-9.0800e-07,0
-9.0720e-07,0
-9.0640e-07,0
-9.0560e-07,0
-9.0480e-07,0.04
-9.0400e-07,0.04
-9.0320e-07,-0.04
-9.0240e-07,0.04
-9.0160e-07,-0.04
-9.0080e-07,0
-9.0000e-07,0
-8.9920e-07,-0.04
-8.9840e-07,-0.04
-8.9760e-07,0.04
-8.9680e-07,0.08
-8.9600e-07,0
-8.9520e-07,0.04
-8.9440e-07,0
-8.9360e-07,-0.04
-8.9280e-07,0
-8.9200e-07,-0.04
-8.9120e-07,0
-8.9040e-07,0.12
-8.8960e-07,0
-8.8880e-07,-0.04
-8.8800e-07,0
-8.8720e-07,0
-8.8640e-07,0
-8.8560e-07,-0.04
-8.8480e-07,0.08
-8.8400e-07,-0.04
-8.8320e-07,0.04
-8.8240e-07,0.08
-8.8160e-07,0
-8.8080e-07,0.04
-8.8000e-07,0.04
-8.7920e-07,0
-8.7840e-07,0.04
-8.7760e-07,0
-8.7680e-07,0
-8.7600e-07,0
-8.7520e-07,-0.04
-8.7440e-07,0.12
-8.7360e-07,-0.04
-8.7280e-07,-0.04
-8.7200e-07,-0.08
-8.7120e-07,0
-8.7040e-07,-0.04
-8.6960e-07,0
-8.6880e-07,0
-8.6800e-07,0.08
-8.6720e-07,-0.04
-8.6640e-07,-0.04
-8.6560e-07,0.04
-8.6480e-07,0
-8.6400e-07,0.12
-8.6320e-07,0
-8.6240e-07,-0.04
-8.6160e-07,0
-8.6080e-07,0
-8.6000e-07,0
-8.5920e-07,0
-8.5840e-07,0.04
-8.5760e-07,0.04
-8.5680e-07,0.04
-8.5600e-07,-0.04
-8.5520e-07,0.04
-8.5440e-07,0
-8.5360e-07,0
-8.5280e-07,0
-8.5200e-07,0
-8.5120e-07,0.08
-8.5040e-07,-0.04
-8.4960e-07,-0.04
-8.4880e-07,0.04
-8.4800e-07,0.04
-8.4720e-07,-0.04
-8.4640e-07,0.08
-8.4560e-07,0.04
-8.4480e-07,-0.04
-8.4400e-07,-0.04
-8.4320e-07,0.04
-8.4240e-07,-0.04
-8.4160e-07,0
-8.4080e-07,-0.04
-8.4000e-07,0.08
-8.3920e-07,0
-8.3840e-07,-0.04
-8.3760e-07,-0.04
-8.3680e-07,0.08
-8.3600e-07,0
-8.3520e-07,0
-8.3440e-07,0
-8.3360e-07,-0.04
-8.3280e-07,-0.04
-8.3200e-07,0.04
-8.3120e-07,0
-8.3040e-07,0.08
-8.2960e-07,0.04
-8.2880e-07,0
-8.2800e-07,-0.08
-8.2720e-07,0.04
-8.2640e-07,0.04
-8.2560e-07,-0.04
-8.2480e-07,0.04
-8.2400e-07,0
-8.2320e-07,0.08
-8.2240e-07,0.04
-8.2160e-07,0
-8.2080e-07,0
-8.2000e-07,0.04
-8.1920e-07,0
-8.1840e-07,0.04
-8.1760e-07,0.08
-8.1680e-07,0
-8.1600e-07,0.04
-8.1520e-07,-0.04
-8.1440e-07,-0.04
-8.1360e-07,0
-8.1280e-07,0
-8.1200e-07,0
-8.1120e-07,0
-8.1040e-07,0
-8.0960e-07,-0.04
-8.0880e-07,-0.04
-8.0800e-07,-0.04
-8.0720e-07,0
-8.0640e-07,0.04
-8.0560e-07,-0.04
-8.0480e-07,0
-8.0400e-07,0
-8.0320e-07,0
-8.0240e-07,0
-8.0160e-07,0.08
-8.0080e-07,-0.04
-8.0000e-07,0.08
-7.9920e-07,0
-7.9840e-07,-0.04
-7.9760e-07,0
-7.9680e-07,-0.04
-7.9600e-07,0
-7.9520e-07,-0.08
-7.9440e-07,0
-7.9360e-07,0
-7.9280e-07,0
-7.9200e-07,0.08
-7.9120e-07,0
-7.9040e-07,0
-7.8960e-07,-0.04
-7.8880e-07,0
-7.8800e-07,0.04
-7.8720e-07,0
-7.8640e-07,0.08
-7.8560e-07,-0.04
-7.8480e-07,-0.04
-7.8400e-07,-0.04
-7.8320e-07,-0.08
-7.8240e-07,0
-7.8160e-07,0
-7.8080e-07,-0.04
-7.8000e-07,0.12
-7.7920e-07,0
-7.7840e-07,-0.04
-7.7760e-07,-0.04
-7.7680e-07,0
-7.7600e-07,0.04
-7.7520e-07,-0.04
-7.7440e-07,0
-7.7360e-07,-0.04
-7.7280e-07,0
-7.7200e-07,0
-7.7120e-07,-0.04
-7.7040e-07,0
-7.6960e-07,-0.04
-7.6880e-07,-0.04
-7.6800e-07,-0.04
-7.6720e-07,0.04
-7.6640e-07,0
-7.6560e-07,0
-7.6480e-07,0
-7.6400e-07,-0.04
-7.6320e-07,0
-7.6240e-07,0.04
-7.6160e-07,0
-7.6080e-07,0.04
-7.6000e-07,-0.04
-7.5920e-07,-0.04
-7.5840e-07,-0.04
-7.5760e-07,0
-7.5680e-07,-0.04
-7.5600e-07,0.08
-7.5520e-07,0.04
-7.5440e-07,0
-7.5360e-07,0
-7.5280e-07,-0.16
-7.5200e-07,0
-7.5120e-07,0
-7.5040e-07,0
-7.4960e-07,0
-7.4880e-07,0.12
-7.4800e-07,0
-7.4720e-07,0
-7.4640e-07,-0.04
-7.4560e-07,0.08
-7.4480e-07,-0.04
-7.4400e-07,0
-7.4320e-07,0
-7.4240e-07,0
-7.4160e-07,-0.08
-7.4080e-07,0
-7.4000e-07,0
-7.3920e-07,0.04
-7.3840e-07,-0.04
-7.3760e-07,-0.08
-7.3680e-07,0
-7.3600e-07,0
-7.3520e-07,0
-7.3440e-07,0
-7.3360e-07,-0.04
-7.3280e-07,0.08
-7.3200e-07,-0.04
-7.3120e-07,0.04
-7.3040e-07,-0.08
-7.2960e-07,0
-7.2880e-07,0
-7.2800e-07,0.04
-7.2720e-07,0.04
-7.2640e-07,-0.04
-7.2560e-07,0
-7.2480e-07,-0.04
-7.2400e-07,0
-7.2320e-07,-0.04
-7.2240e-07,0.04
-7.2160e-07,0
-7.2080e-07,-0.04
-7.2000e-07,-0.04
-7.1920e-07,0
-7.1840e-07,0
-7.1760e-07,0
-7.1680e-07,0.04
-7.1600e-07,-0.08
-7.1520e-07,0
-7.1440e-07,0
-7.1360e-07,0.04
-7.1280e-07,0
-7.1200e-07,-0.04
-7.1120e-07,-0.04
-7.1040e-07,-0.04
-7.0960e-07,-0.04
-7.0880e-07,-0.04
-7.0800e-07,0
-7.0720e-07,0
-7.0640e-07,-0.04
-7.0560e-07,0.04
-7.0480e-07,0
-7.0400e-07,0
-7.0320e-07,-0.04
-7.0240e-07,0
-7.0160e-07,0
-7.0080e-07,-0.04
-7.0000e-07,-0.04
-6.9920e-07,-0.04
-6.9840e-07,0
-6.9760e-07,-0.04
-6.9680e-07,0.04
-6.9600e-07,0
-6.9520e-07,-0.04
-6.9440e-07,0.08
-6.9360e-07,-0.04
-6.9280e-07,0
-6.9200e-07,-0.04
-6.9120e-07,0
-6.9040e-07,-0.04
-6.8960e-07,0.08
-6.8880e-07,0.04
-6.8800e-07,-0.04
-6.8720e-07,0
-6.8640e-07,0
-6.8560e-07,0
-6.8480e-07,0
-6.8400e-07,0
-6.8320e-07,0
-6.8240e-07,0
-6.8160e-07,0.04
-6.8080e-07,0.04
-6.8000e-07,0.08
-6.7920e-07,-0.08
-6.7840e-07,-0.04
-6.7760e-07,-0.04
-6.7680e-07,0.08
-6.7600e-07,-0.04
-6.7520e-07,0
-6.7440e-07,-0.04
-6.7360e-07,-0.04
-6.7280e-07,0
-6.7200e-07,0
-6.7120e-07,0.04
-6.7040e-07,-0.04
-6.6960e-07,0.08
-6.6880e-07,-0.04
-6.6800e-07,0.08
-6.6720e-07,0.04
-6.6640e-07,-0.04
-6.6560e-07,0
-6.6480e-07,0
-6.6400e-07,-0.04
-6.6320e-07,-0.04
-6.6240e-07,0
-6.6160e-07,0
-6.6080e-07,0.04
-6.6000e-07,0.04
-6.5920e-07,0.04
-6.5840e-07,-0.12
-6.5760e-07,0
-6.5680e-07,0
-6.5600e-07,0
-6.5520e-07,0.04
-6.5440e-07,0.12
-6.5360e-07,-0.04
-6.5280e-07,0
-6.5200e-07,-0.04
-6.5120e-07,0.04
-6.5040e-07,-0.04
-6.4960e-07,-0.04
-6.4880e-07,-0.04
-6.4800e-07,0.04
-6.4720e-07,-0.04
-6.4640e-07,-0.04
-6.4560e-07,0.04
-6.4480e-07,0
-6.4400e-07,-0.04
-6.4320e-07,0
-6.4240e-07,0.04
-6.4160e-07,0
-6.4080e-07,0.04
-6.4000e-07,-0.04
-6.3920e-07,-0.04
-6.3840e-07,0
-6.3760e-07,0
-6.3680e-07,-0.12
-6.3600e-07,0
-6.3520e-07,0
-6.3440e-07,-0.04
-6.3360e-07,-0.04
-6.3280e-07,0.08
-6.3200e-07,-0.04
-6.3120e-07,0.04
-6.3040e-07,-0.04
-6.2960e-07,0
-6.2880e-07,-0.08
-6.2800e-07,0
-6.2720e-07,-0.04
-6.2640e-07,0.04
-6.2560e-07,0.04
-6.2480e-07,-0.04
-6.2400e-07,0
-6.2320e-07,-0.04
-6.2240e-07,0
-6.2160e-07,0
-6.2080e-07,-0.04
-6.2000e-07,0.04
-6.1920e-07,-0.04
-6.1840e-07,-0.04
-6.1760e-07,-0.04
-6.1680e-07,0.04
-6.1600e-07,0
-6.1520e-07,0
-6.1440e-07,0
-6.1360e-07,0
-6.1280e-07,-0.08
-6.1200e-07,0.04
-6.1120e-07,0.04
-6.1040e-07,-0.04
-6.0960e-07,0
-6.0880e-07,0.08
-6.0800e-07,-0.04
-6.0720e-07,0
-6.0640e-07,0
-6.0560e-07,-0.04
-6.0480e-07,0
-6.0400e-07,-0.04
-6.0320e-07,-0.08
-6.0240e-07,0
-6.0160e-07,0.04
-6.0080e-07,-0.04
-6.0000e-07,0
-5.9920e-07,0
-5.9840e-07,-0.04
-5.9760e-07,-0.08
-5.9680e-07,0
-5.9600e-07,-0.04
-5.9520e-07,0
-5.9440e-07,0.08
-5.9360e-07,0.04
-5.9280e-07,0
-5.9200e-07,0
-5.9120e-07,0
-5.9040e-07,0.08
-5.8960e-07,0
-5.8880e-07,-0.16
-5.8800e-07,0
-5.8720e-07,0.04
-5.8640e-07,0.04
-5.8560e-07,0
-5.8480e-07,0
-5.8400e-07,0
-5.8320e-07,0.08
-5.8240e-07,0.08
-5.8160e-07,0
-5.8080e-07,-0.04
-5.8000e-07,-0.04
-5.7920e-07,0.04
-5.7840e-07,-0.04
-5.7760e-07,-0.04
-5.7680e-07,-0.04
-5.7600e-07,0.08
-5.7520e-07,0
-5.7440e-07,0.08
-5.7360e-07,0
-5.7280e-07,0.04
-5.7200e-07,0
-5.7120e-07,-0.04
-5.7040e-07,0
-5.6960e-07,0.04
-5.6880e-07,0
-5.6800e-07,-0.04
-5.6720e-07,-0.04
-5.6640e-07,-0.04
-5.6560e-07,0
-5.6480e-07,0
-5.6400e-07,0
-5.6320e-07,0.04
-5.6240e-07,0
-5.6160e-07,0
-5.6080e-07,0.12
-5.6000e-07,0
-5.5920e-07,0
-5.5840e-07,-0.04
-5.5760e-07,-0.04
-5.5680e-07,0
-5.5600e-07,-0.04
-5.5520e-07,0.12
-5.5440e-07,0
-5.5360e-07,0
-5.5280e-07,-0.04
-5.5200e-07,0
-5.5120e-07,0
-5.5040e-07,0
-5.4960e-07,-0.04
-5.4880e-07,0
-5.4800e-07,-0.04
-5.4720e-07,0
-5.4640e-07,0
-5.4560e-07,-0.04
-5.4480e-07,-0.04
-5.4400e-07,0.04
-5.4320e-07,0.04
-5.4240e-07,0.08
-5.4160e-07,-0.04
-5.4080e-07,0
-5.4000e-07,0.04
-5.3920e-07,0.08
-5.3840e-07,0.08
-5.3760e-07,0
-5.3680e-07,-0.04
-5.3600e-07,0.08
-5.3520e-07,0
-5.3440e-07,0.08
-5.3360e-07,0
-5.3280e-07,0
-5.3200e-07,0.08
-5.3120e-07,-0.04
-5.3040e-07,0.04
-5.2960e-07,0
-5.2880e-07,0
-5.2800e-07,0.08
-5.2720e-07,0.04
-5.2640e-07,0
-5.2560e-07,0.04
-5.2480e-07,-0.04
-5.2400e-07,0
-5.2320e-07,0.04
-5.2240e-07,0
-5.2160e-07,-0.04
-5.2080e-07,-0.04
-5.2000e-07,0.12
-5.1920e-07,-0.04
-5.1840e-07,-0.04
-5.1760e-07,0.12
-5.1680e-07,0
-5.1600e-07,0
-5.1520e-07,-0.04
-5.1440e-07,0
-5.1360e-07,-0.08
-5.1280e-07,0.08
-5.1200e-07,0.04
-5.1120e-07,0
-5.1040e-07,0.04
-5.0960e-07,0.04
-5.0880e-07,-0.04
-5.0800e-07,-0.04
-5.0720e-07,-0.04
-5.0640e-07,0
-5.0560e-07,-0.04
-5.0480e-07,-0.04
-5.0400e-07,-0.04
-5.0320e-07,0.04
-5.0240e-07,-0.04
-5.0160e-07,0
-5.0080e-07,-0.04
-5.0000e-07,0
-4.9920e-07,0
-4.9840e-07,0
-4.9760e-07,0.08
-4.9680e-07,0
-4.9600e-07,-0.12
-4.9520e-07,0.04
-4.9440e-07,0.04
-4.9360e-07,0.04
-4.9280e-07,0
-4.9200e-07,0.04
-4.9120e-07,0
-4.9040e-07,-0.04
-4.8960e-07,0.04
-4.8880e-07,0.08
-4.8800e-07,0
-4.8720e-07,0
-4.8640e-07,-0.04
-4.8560e-07,-0.08
-4.8480e-07,0
-4.8400e-07,-0.08
-4.8320e-07,0
-4.8240e-07,0
-4.8160e-07,-0.04
-4.8080e-07,-0.04
-4.8000e-07,-0.04
-4.7920e-07,-0.04
-4.7840e-07,0.04
-4.7760e-07,-0.04
-4.7680e-07,0
-4.7600e-07,-0.04
-4.7520e-07,-0.04
-4.7440e-07,0
-4.7360e-07,0
-4.7280e-07,0.04
-4.7200e-07,0
-4.7120e-07,0
-4.7040e-07,0
-4.6960e-07,0.08
-4.6880e-07,-0.04
-4.6800e-07,0
-4.6720e-07,0.08
-4.6640e-07,0
-4.6560e-07,0
-4.6480e-07,0
-4.6400e-07,0
-4.6320e-07,-0.04
-4.6240e-07,0
-4.6160e-07,0
-4.6080e-07,0
-4.6000e-07,0
-4.5920e-07,-0.04
-4.5840e-07,0
-4.5760e-07,-0.04
-4.5680e-07,-0.08
-4.5600e-07,0
-4.5520e-07,-0.04
-4.5440e-07,0
-4.5360e-07,0
-4.5280e-07,-0.04
-4.5200e-07,-0.04
-4.5120e-07,-0.04
-4.5040e-07,0.04
-4.4960e-07,-0.08
-4.4880e-07,0
-4.4800e-07,-0.04
-4.4720e-07,0
-4.4640e-07,0
-4.4560e-07,0
-4.4480e-07,-0.08
-4.4400e-07,-0.04
-4.4320e-07,0
-4.4240e-07,0.12
-4.4160e-07,0
-4.4080e-07,0
-4.4000e-07,0
-4.3920e-07,0
-4.3840e-07,0
-4.3760e-07,0.08
-4.3680e-07,0
-4.3600e-07,-0.04
-4.3520e-07,0
-4.3440e-07,0
-4.3360e-07,-0.04
-4.3280e-07,0
-4.3200e-07,0.08
-4.3120e-07,0
-4.3040e-07,0
-4.2960e-07,-0.04
-4.2880e-07,-0.04
-4.2800e-07,-0.04
-4.2720e-07,0
-4.2640e-07,0
-4.2560e-07,0
-4.2480e-07,0
-4.2400e-07,-0.04
-4.2320e-07,0.04
-4.2240e-07,-0.04
-4.2160e-07,0
-4.2080e-07,0
-4.2000e-07,-0.04
-4.1920e-07,-0.08
-4.1840e-07,-0.04
-4.1760e-07,0
-4.1680e-07,-0.04
-4.1600e-07,0.08
-4.1520e-07,0
-4.1440e-07,0.08
-4.1360e-07,0
-4.1280e-07,0.04
-4.1200e-07,-0.04
-4.1120e-07,0
-4.1040e-07,0.08
-4.0960e-07,-0.04
-4.0880e-07,0
-4.0800e-07,0
-4.0720e-07,0.04
-4.0640e-07,0
-4.0560e-07,-0.04
-4.0480e-07,0.08
-4.0400e-07,-0.04
-4.0320e-07,0
-4.0240e-07,-0.04
-4.0160e-07,0
-4.0080e-07,-0.04
-4.0000e-07,-0.04
-3.9920e-07,0.08
-3.9840e-07,-0.08
-3.9760e-07,-0.04
-3.9680e-07,0
-3.9600e-07,-0.04
-3.9520e-07,0.04
-3.9440e-07,0
-3.9360e-07,0
-3.9280e-07,0
-3.9200e-07,0.04
-3.9120e-07,0
-3.9040e-07,0
-3.8960e-07,-0.04
-3.8880e-07,0
-3.8800e-07,-0.04
-3.8720e-07,0
-3.8640e-07,0
-3.8560e-07,-0.04
-3.8480e-07,0
-3.8400e-07,0
-3.8320e-07,-0.04
-3.8240e-07,0.04
-3.8160e-07,0.08
-3.8080e-07,0.08
-3.8000e-07,-0.04
-3.7920e-07,-0.04
-3.7840e-07,0
-3.7760e-07,0
-3.7680e-07,-0.04
-3.7600e-07,-0.04
-3.7520e-07,0
-3.7440e-07,0
-3.7360e-07,0
-3.7280e-07,-0.04
-3.7200e-07,0
-3.7120e-07,-0.04
-3.7040e-07,0
-3.6960e-07,-0.08
-3.6880e-07,-0.04
-3.6800e-07,0
-3.6720e-07,0
-3.6640e-07,0
-3.6560e-07,0
-3.6480e-07,0
-3.6400e-07,0.08
-3.6320e-07,0
-3.6240e-07,0.04
-3.6160e-07,0.08
-3.6080e-07,0
-3.6000e-07,0
-3.5920e-07,0.04
-3.5840e-07,0
-3.5760e-07,0
-3.5680e-07,0
-3.5600e-07,0
-3.5520e-07,0
-3.5440e-07,0
-3.5360e-07,0
-3.5280e-07,0.08
-3.5200e-07,0
-3.5120e-07,0
-3.5040e-07,0
-3.4960e-07,0
-3.4880e-07,0.12
-3.4800e-07,0
-3.4720e-07,0
-3.4640e-07,0
-3.4560e-07,-0.04
-3.4480e-07,0.04
-3.4400e-07,0.04
-3.4320e-07,0
-3.4240e-07,-0.04
-3.4160e-07,0
-3.4080e-07,0
-3.4000e-07,0.08
-3.3920e-07,0
-3.3840e-07,0.08
-3.3760e-07,0.08
-3.3680e-07,0.04
-3.3600e-07,-0.04
-3.3520e-07,0
-3.3440e-07,-0.04
-3.3360e-07,-0.04
-3.3280e-07,-0.04
-3.3200e-07,0
-3.3120e-07,0
-3.3040e-07,0.04
-3.2960e-07,0.04
-3.2880e-07,0.08
-3.2800e-07,-0.08
-3.2720e-07,0
-3.2640e-07,0.04
-3.2560e-07,0.04
-3.2480e-07,-0.04
-3.2400e-07,0
-3.2320e-07,-0.04
-3.2240e-07,0
-3.2160e-07,-0.08
-3.2080e-07,0
-3.2000e-07,0
-3.1920e-07,0.08
-3.1840e-07,0.04
-3.1760e-07,0.04
-3.1680e-07,-0.04
-3.1600e-07,-0.04
-3.1520e-07,0
-3.1440e-07,0
-3.1360e-07,0
-3.1280e-07,-0.04
-3.1200e-07,0
-3.1120e-07,0
-3.1040e-07,0
-3.0960e-07,0
-3.0880e-07,-0.04
-3.0800e-07,0
-3.0720e-07,0
-3.0640e-07,0
-3.0560e-07,0
-3.0480e-07,-0.04
-3.0400e-07,0
-3.0320e-07,0
-3.0240e-07,0.04
-3.0160e-07,0.04
-3.0080e-07,0
-3.0000e-07,0
-2.9920e-07,0.04
-2.9840e-07,-0.04
-2.9760e-07,0
-2.9680e-07,-0.04
-2.9600e-07,0.04
-2.9520e-07,0
-2.9440e-07,0
-2.9360e-07,0.08
-2.9280e-07,-0.08
-2.9200e-07,0.04
-2.9120e-07,0
-2.9040e-07,-0.04
-2.8960e-07,-0.04
-2.8880e-07,-0.04
-2.8800e-07,0
-2.8720e-07,0.04
-2.8640e-07,-0.08
-2.8560e-07,-0.04
-2.8480e-07,-0.04
-2.8400e-07,0
-2.8320e-07,0
-2.8240e-07,0
-2.8160e-07,0.08
-2.8080e-07,0.04
-2.8000e-07,0.08
-2.7920e-07,0.04
-2.7840e-07,-0.04
-2.7760e-07,-0.04
-2.7680e-07,0
-2.7600e-07,0
-2.7520e-07,0
-2.7440e-07,-0.04
-2.7360e-07,-0.04
-2.7280e-07,0.08
-2.7200e-07,-0.04
-2.7120e-07,0
-2.7040e-07,0.08
-2.6960e-07,0
-2.6880e-07,0.08
-2.6800e-07,0
-2.6720e-07,0
-2.6640e-07,0
-2.6560e-07,0
-2.6480e-07,0
-2.6400e-07,0
-2.6320e-07,-0.04
-2.6240e-07,-0.04
-2.6160e-07,0
-2.6080e-07,0
-2.6000e-07,0
-2.5920e-07,-0.04
-2.5840e-07,-0.04
-2.5760e-07,-0.04
-2.5680e-07,0
-2.5600e-07,0
-2.5520e-07,0.04
-2.5440e-07,0
-2.5360e-07,0
-2.5280e-07,0.04
-2.5200e-07,0
-2.5120e-07,0.08
-2.5040e-07,0
-2.4960e-07,-0.04
-2.4880e-07,-0.04
-2.4800e-07,0.08
-2.4720e-07,-0.04
-2.4640e-07,-0.04
-2.4560e-07,0.08
-2.4480e-07,0.04
-2.4400e-07,0.04
-2.4320e-07,0.08
-2.4240e-07,0.04
-2.4160e-07,0
-2.4080e-07,0
-2.4000e-07,0
-2.3920e-07,-0.04
-2.3840e-07,0
-2.3760e-07,-0.04
-2.3680e-07,0.08
-2.3600e-07,0
-2.3520e-07,-0.04
-2.3440e-07,0.04
-2.3360e-07,0
-2.3280e-07,0
-2.3200e-07,-0.04
-2.3120e-07,0
-2.3040e-07,-0.04
