ECE375/hw4/hw4/files/lyon zac/tek0000ALL.csv

Model,DPO4034
Firmware Version,2.68

Waveform Type,ANALOG
Point Format,Y
Horizontal Units,s
Horizontal Scale,4e-07
Horizontal Delay,1.432e-06
Sample Interval,4e-10
Record Length,10000
Gating,0.0% to 100.0%
Probe Attenuation,1
Vertical Units,V
Vertical Offset,0
Vertical Scale,1
Vertical Position,0
,
,
,
Label,
TIME,CH1
-5.6800e-07,0
-5.6760e-07,0
-5.6720e-07,0
-5.6680e-07,0.04
-5.6640e-07,0.04
-5.6600e-07,-0.04
-5.6560e-07,0
-5.6520e-07,0.08
-5.6480e-07,-0.04
-5.6440e-07,0
-5.6400e-07,0
-5.6360e-07,0.08
-5.6320e-07,0
-5.6280e-07,0
-5.6240e-07,-0.04
-5.6200e-07,-0.08
-5.6160e-07,-0.04
-5.6120e-07,-0.04
-5.6080e-07,-0.04
-5.6040e-07,0
-5.6000e-07,0.04
-5.5960e-07,0
-5.5920e-07,0
-5.5880e-07,0.08
-5.5840e-07,0
-5.5800e-07,-0.04
-5.5760e-07,0
-5.5720e-07,0
-5.5680e-07,-0.04
-5.5640e-07,-0.04
-5.5600e-07,-0.04
-5.5560e-07,-0.04
-5.5520e-07,0
-5.5480e-07,0.04
-5.5440e-07,0
-5.5400e-07,0.04
-5.5360e-07,0.04
-5.5320e-07,0.04
-5.5280e-07,0
-5.5240e-07,0
-5.5200e-07,0.08
-5.5160e-07,0.08
-5.5120e-07,0.12
-5.5080e-07,0.08
-5.5040e-07,0.16
-5.5000e-07,0
-5.4960e-07,-0.04
-5.4920e-07,-0.04
-5.4880e-07,0
-5.4840e-07,0.04
-5.4800e-07,-0.04
-5.4760e-07,-0.04
-5.4720e-07,-0.04
-5.4680e-07,-0.04
-5.4640e-07,0.08
-5.4600e-07,0.08
-5.4560e-07,-0.04
-5.4520e-07,0.08
-5.4480e-07,0.08
-5.4440e-07,0
-5.4400e-07,0
-5.4360e-07,0
-5.4320e-07,0
-5.4280e-07,-0.04
-5.4240e-07,-0.04
-5.4200e-07,-0.04
-5.4160e-07,-0.04
-5.4120e-07,-0.08
-5.4080e-07,0
-5.4040e-07,-0.04
-5.4000e-07,-0.04
-5.3960e-07,-0.04
-5.3920e-07,0
-5.3880e-07,0.04
-5.3840e-07,-0.04
-5.3800e-07,0
-5.3760e-07,0
-5.3720e-07,-0.08
-5.3680e-07,0
-5.3640e-07,0
-5.3600e-07,0
-5.3560e-07,-0.04
-5.3520e-07,0.04
-5.3480e-07,0.08
-5.3440e-07,0
-5.3400e-07,-0.04
-5.3360e-07,-0.04
-5.3320e-07,-0.04
-5.3280e-07,0
-5.3240e-07,0
-5.3200e-07,0
-5.3160e-07,0
-5.3120e-07,-0.04
-5.3080e-07,0
-5.3040e-07,0.04
-5.3000e-07,0
-5.2960e-07,0
-5.2920e-07,0
-5.2880e-07,-0.04
-5.2840e-07,0
-5.2800e-07,-0.04
-5.2760e-07,0
-5.2720e-07,0.04
-5.2680e-07,-0.04
-5.2640e-07,0
-5.2600e-07,0
-5.2560e-07,0
-5.2520e-07,-0.04
-5.2480e-07,-0.04
-5.2440e-07,0
-5.2400e-07,-0.04
-5.2360e-07,0
-5.2320e-07,0
-5.2280e-07,0
-5.2240e-07,0
-5.2200e-07,0
-5.2160e-07,-0.04
-5.2120e-07,-0.04
-5.2080e-07,0.04
-5.2040e-07,0.16
-5.2000e-07,0.04
-5.1960e-07,-0.04
-5.1920e-07,-0.04
-5.1880e-07,0
-5.1840e-07,-0.04
-5.1800e-07,0
-5.1760e-07,0
-5.1720e-07,0
-5.1680e-07,-0.04
-5.1640e-07,-0.04
-5.1600e-07,-0.04
-5.1560e-07,0.08
-5.1520e-07,0.04
-5.1480e-07,-0.04
-5.1440e-07,-0.04
-5.1400e-07,0.04
-5.1360e-07,0.08
-5.1320e-07,0
-5.1280e-07,0
-5.1240e-07,0
-5.1200e-07,-0.08
-5.1160e-07,-0.04
-5.1120e-07,0
-5.1080e-07,-0.04
-5.1040e-07,-0.04
-5.1000e-07,0
-5.0960e-07,0
-5.0920e-07,0
-5.0880e-07,-0.04
-5.0840e-07,0.04
-5.0800e-07,0
-5.0760e-07,0
-5.0720e-07,-0.08
-5.0680e-07,-0.04
-5.0640e-07,0.04
-5.0600e-07,0
-5.0560e-07,0
-5.0520e-07,0
-5.0480e-07,0
-5.0440e-07,0
-5.0400e-07,0.04
-5.0360e-07,0
-5.0320e-07,-0.04
-5.0280e-07,-0.04
-5.0240e-07,0.04
-5.0200e-07,0.04
-5.0160e-07,0.04
-5.0120e-07,0.04
-5.0080e-07,0
-5.0040e-07,0.04
-5.0000e-07,0.04
-4.9960e-07,-0.04
-4.9920e-07,-0.04
-4.9880e-07,0
-4.9840e-07,0.08
-4.9800e-07,0.04
-4.9760e-07,-0.04
-4.9720e-07,-0.12
-4.9680e-07,-0.04
-4.9640e-07,0
-4.9600e-07,0.04
-4.9560e-07,0.04
-4.9520e-07,0.04
-4.9480e-07,-0.08
-4.9440e-07,-0.08
-4.9400e-07,-0.08
-4.9360e-07,0
-4.9320e-07,0.04
-4.9280e-07,-0.04
-4.9240e-07,-0.04
-4.9200e-07,0
-4.9160e-07,0
-4.9120e-07,-0.04
-4.9080e-07,0
-4.9040e-07,0
-4.9000e-07,0.04
-4.8960e-07,0.12
-4.8920e-07,0.04
-4.8880e-07,-0.08
-4.8840e-07,-0.08
-4.8800e-07,-0.04
-4.8760e-07,-0.04
-4.8720e-07,0.04
-4.8680e-07,0
-4.8640e-07,-0.04
-4.8600e-07,0
-4.8560e-07,0
-4.8520e-07,-0.04
-4.8480e-07,-0.12
-4.8440e-07,-0.04
-4.8400e-07,-0.08
-4.8360e-07,-0.04
-4.8320e-07,0
-4.8280e-07,0.04
-4.8240e-07,-0.04
-4.8200e-07,-0.04
-4.8160e-07,-0.04
-4.8120e-07,-0.04
-4.8080e-07,0
-4.8040e-07,0.04
-4.8000e-07,0
-4.7960e-07,-0.04
-4.7920e-07,0
-4.7880e-07,0.08
-4.7840e-07,0.16
-4.7800e-07,0
-4.7760e-07,-0.04
-4.7720e-07,0.04
-4.7680e-07,0
-4.7640e-07,0
-4.7600e-07,0
-4.7560e-07,0.04
-4.7520e-07,0
-4.7480e-07,-0.04
-4.7440e-07,0
-4.7400e-07,0.04
-4.7360e-07,0
-4.7320e-07,0
-4.7280e-07,0.08
-4.7240e-07,0.04
-4.7200e-07,0
-4.7160e-07,0
-4.7120e-07,0.08
-4.7080e-07,0.04
-4.7040e-07,-0.04
-4.7000e-07,-0.04
-4.6960e-07,0
-4.6920e-07,0.04
-4.6880e-07,0.08
-4.6840e-07,0
-4.6800e-07,0.08
-4.6760e-07,0.08
-4.6720e-07,0
-4.6680e-07,0
-4.6640e-07,0
-4.6600e-07,0.08
-4.6560e-07,0.08
-4.6520e-07,0.04
-4.6480e-07,0
-4.6440e-07,-0.04
-4.6400e-07,-0.04
-4.6360e-07,0
-4.6320e-07,0
-4.6280e-07,-0.04
-4.6240e-07,0.08
-4.6200e-07,0
-4.6160e-07,0.08
-4.6120e-07,0
-4.6080e-07,-0.04
-4.6040e-07,0.04
-4.6000e-07,0.08
-4.5960e-07,0
-4.5920e-07,-0.04
-4.5880e-07,-0.04
-4.5840e-07,-0.04
-4.5800e-07,0.04
-4.5760e-07,0.04
-4.5720e-07,-0.04
-4.5680e-07,-0.04
-4.5640e-07,0.08
-4.5600e-07,0
-4.5560e-07,0.04
-4.5520e-07,0.04
-4.5480e-07,0.08
-4.5440e-07,0
-4.5400e-07,0
-4.5360e-07,0
-4.5320e-07,0
-4.5280e-07,0
-4.5240e-07,-0.04
-4.5200e-07,0
-4.5160e-07,0
-4.5120e-07,0.04
-4.5080e-07,0
-4.5040e-07,0
-4.5000e-07,-0.04
-4.4960e-07,-0.04
-4.4920e-07,-0.04
-4.4880e-07,-0.04
-4.4840e-07,0
-4.4800e-07,0.04
-4.4760e-07,-0.04
-4.4720e-07,-0.04
-4.4680e-07,0
-4.4640e-07,0
-4.4600e-07,-0.04
-4.4560e-07,0
-4.4520e-07,0
-4.4480e-07,0
-4.4440e-07,-0.04
-4.4400e-07,-0.04
-4.4360e-07,0
-4.4320e-07,0
-4.4280e-07,0
-4.4240e-07,0.08
-4.4200e-07,0.08
-4.4160e-07,0.04
-4.4120e-07,-0.04
-4.4080e-07,0
-4.4040e-07,0.08
-4.4000e-07,0.12
-4.3960e-07,0
-4.3920e-07,-0.04
-4.3880e-07,-0.04
-4.3840e-07,0
-4.3800e-07,-0.04
-4.3760e-07,0
-4.3720e-07,0
-4.3680e-07,-0.04
-4.3640e-07,0.04
-4.3600e-07,0
-4.3560e-07,0.04
-4.3520e-07,-0.04
-4.3480e-07,0
-4.3440e-07,0.08
-4.3400e-07,0.04
-4.3360e-07,0.04
-4.3320e-07,0.08
-4.3280e-07,0.08
-4.3240e-07,0.04
-4.3200e-07,-0.04
-4.3160e-07,0
-4.3120e-07,-0.04
-4.3080e-07,-0.08
-4.3040e-07,-0.08
-4.3000e-07,0
-4.2960e-07,-0.04
-4.2920e-07,-0.04
-4.2880e-07,-0.08
-4.2840e-07,0
-4.2800e-07,0
-4.2760e-07,0
-4.2720e-07,0.08
-4.2680e-07,0
-4.2640e-07,0
-4.2600e-07,0
-4.2560e-07,0
-4.2520e-07,0.04
-4.2480e-07,0
-4.2440e-07,0.04
-4.2400e-07,0.08
-4.2360e-07,0.04
-4.2320e-07,0.04
-4.2280e-07,-0.04
-4.2240e-07,-0.04
-4.2200e-07,-0.04
-4.2160e-07,-0.04
-4.2120e-07,-0.04
-4.2080e-07,0
-4.2040e-07,-0.08
-4.2000e-07,-0.08
-4.1960e-07,0.08
-4.1920e-07,0.08
-4.1880e-07,0.04
-4.1840e-07,-0.04
-4.1800e-07,0.04
-4.1760e-07,0.08
-4.1720e-07,-0.04
-4.1680e-07,-0.04
-4.1640e-07,-0.04
-4.1600e-07,0
-4.1560e-07,0.04
-4.1520e-07,0.08
-4.1480e-07,0
-4.1440e-07,0.04
-4.1400e-07,0.04
-4.1360e-07,-0.04
-4.1320e-07,-0.08
-4.1280e-07,0
-4.1240e-07,-0.04
-4.1200e-07,0
-4.1160e-07,0
-4.1120e-07,-0.04
-4.1080e-07,-0.04
-4.1040e-07,-0.12
-4.1000e-07,-0.04
-4.0960e-07,0
-4.0920e-07,0
-4.0880e-07,0.12
-4.0840e-07,0
-4.0800e-07,0
-4.0760e-07,0.04
-4.0720e-07,0.08
-4.0680e-07,0.04
-4.0640e-07,-0.04
-4.0600e-07,-0.04
-4.0560e-07,-0.08
-4.0520e-07,-0.04
-4.0480e-07,0
-4.0440e-07,0.04
-4.0400e-07,0.04
-4.0360e-07,0.04
-4.0320e-07,-0.04
-4.0280e-07,0
-4.0240e-07,0
-4.0200e-07,-0.04
-4.0160e-07,0.08
-4.0120e-07,0.08
-4.0080e-07,0
-4.0040e-07,-0.04
-4.0000e-07,0.04
-3.9960e-07,0
-3.9920e-07,-0.04
-3.9880e-07,0.04
-3.9840e-07,0.04
-3.9800e-07,0
-3.9760e-07,-0.04
-3.9720e-07,-0.12
-3.9680e-07,-0.04
-3.9640e-07,-0.04
-3.9600e-07,0
-3.9560e-07,-0.08
-3.9520e-07,-0.04
-3.9480e-07,0
-3.9440e-07,0
-3.9400e-07,-0.04
-3.9360e-07,0
-3.9320e-07,0.08
-3.9280e-07,0
-3.9240e-07,-0.04
-3.9200e-07,0
-3.9160e-07,0.08
-3.9120e-07,-0.04
-3.9080e-07,0
-3.9040e-07,0.08
-3.9000e-07,0.08
-3.8960e-07,0.04
-3.8920e-07,-0.04
-3.8880e-07,-0.04
-3.8840e-07,0.08
-3.8800e-07,0.12
-3.8760e-07,0
-3.8720e-07,-0.04
-3.8680e-07,0
-3.8640e-07,0
-3.8600e-07,0
-3.8560e-07,0
-3.8520e-07,0.04
-3.8480e-07,0.08
-3.8440e-07,0.08
-3.8400e-07,0.08
-3.8360e-07,0.04
-3.8320e-07,0
-3.8280e-07,-0.04
-3.8240e-07,-0.04
-3.8200e-07,0
-3.8160e-07,-0.04
-3.8120e-07,-0.12
-3.8080e-07,0
-3.8040e-07,0
-3.8000e-07,0
-3.7960e-07,0.08
-3.7920e-07,0.08
-3.7880e-07,0
-3.7840e-07,-0.04
-3.7800e-07,-0.04
-3.7760e-07,0
-3.7720e-07,0
-3.7680e-07,-0.04
-3.7640e-07,0.04
-3.7600e-07,0
-3.7560e-07,-0.04
-3.7520e-07,-0.04
-3.7480e-07,0
-3.7440e-07,0.08
-3.7400e-07,-0.04
-3.7360e-07,0
-3.7320e-07,0.08
-3.7280e-07,0.04
-3.7240e-07,0
-3.7200e-07,0.08
-3.7160e-07,0
-3.7120e-07,-0.12
-3.7080e-07,-0.08
-3.7040e-07,0
-3.7000e-07,-0.04
-3.6960e-07,0
-3.6920e-07,0
-3.6880e-07,-0.04
-3.6840e-07,-0.04
-3.6800e-07,-0.08
-3.6760e-07,-0.04
-3.6720e-07,0
-3.6680e-07,0
-3.6640e-07,0
-3.6600e-07,-0.04
-3.6560e-07,-0.04
-3.6520e-07,-0.04
-3.6480e-07,-0.04
-3.6440e-07,0
-3.6400e-07,0
-3.6360e-07,0
-3.6320e-07,0
-3.6280e-07,-0.04
-3.6240e-07,0
-3.6200e-07,0
-3.6160e-07,0.04
-3.6120e-07,-0.04
-3.6080e-07,-0.04
-3.6040e-07,-0.08
-3.6000e-07,-0.08
-3.5960e-07,0
-3.5920e-07,0
-3.5880e-07,0
-3.5840e-07,0.04
-3.5800e-07,0
-3.5760e-07,0
-3.5720e-07,0
-3.5680e-07,0
-3.5640e-07,0
-3.5600e-07,0
-3.5560e-07,0.04
-3.5520e-07,0
-3.5480e-07,0
-3.5440e-07,-0.04
-3.5400e-07,0
-3.5360e-07,0.08
-3.5320e-07,-0.04
-3.5280e-07,-0.04
-3.5240e-07,0
-3.5200e-07,0
-3.5160e-07,0
-3.5120e-07,0
-3.5080e-07,0.04
-3.5040e-07,0
-3.5000e-07,0
-3.4960e-07,0.04
-3.4920e-07,0.04
-3.4880e-07,-0.04
-3.4840e-07,0.04
-3.4800e-07,0
-3.4760e-07,-0.04
-3.4720e-07,0
-3.4680e-07,-0.04
-3.4640e-07,0.04
-3.4600e-07,0.04
-3.4560e-07,0.04
-3.4520e-07,-0.04
-3.4480e-07,0
-3.4440e-07,0
-3.4400e-07,0.16
-3.4360e-07,0.08
-3.4320e-07,-0.04
-3.4280e-07,0
-3.4240e-07,0.08
-3.4200e-07,0.12
-3.4160e-07,0
-3.4120e-07,-0.04
-3.4080e-07,-0.04
-3.4040e-07,0.08
-3.4000e-07,0.04
-3.3960e-07,0
-3.3920e-07,0.04
-3.3880e-07,0.08
-3.3840e-07,0.04
-3.3800e-07,0
-3.3760e-07,0
-3.3720e-07,0
-3.3680e-07,0
-3.3640e-07,0
-3.3600e-07,0.04
-3.3560e-07,0.08
-3.3520e-07,0.08
-3.3480e-07,0.08
-3.3440e-07,0.12
-3.3400e-07,-0.04
-3.3360e-07,-0.08
-3.3320e-07,0.08
-3.3280e-07,0.08
-3.3240e-07,-0.04
-3.3200e-07,0
-3.3160e-07,0.04
-3.3120e-07,0
-3.3080e-07,0.08
-3.3040e-07,0.04
-3.3000e-07,0.04
-3.2960e-07,-0.04
-3.2920e-07,0
-3.2880e-07,0
-3.2840e-07,0.04
-3.2800e-07,0.08
-3.2760e-07,-0.04
-3.2720e-07,0
-3.2680e-07,0.08
-3.2640e-07,0
-3.2600e-07,0.04
-3.2560e-07,0
-3.2520e-07,0.08
-3.2480e-07,0.08
-3.2440e-07,0
-3.2400e-07,-0.04
-3.2360e-07,0
-3.2320e-07,0
-3.2280e-07,0
-3.2240e-07,-0.04
-3.2200e-07,0.04
-3.2160e-07,-0.04
-3.2120e-07,0
-3.2080e-07,0
-3.2040e-07,0
-3.2000e-07,-0.04
-3.1960e-07,0.08
-3.1920e-07,0
-3.1880e-07,0
-3.1840e-07,0
-3.1800e-07,-0.04
-3.1760e-07,-0.04
-3.1720e-07,0.04
-3.1680e-07,0.04
-3.1640e-07,0
-3.1600e-07,-0.04
-3.1560e-07,-0.04
-3.1520e-07,0
-3.1480e-07,-0.04
-3.1440e-07,0
-3.1400e-07,0.04
-3.1360e-07,0
-3.1320e-07,0
-3.1280e-07,0
-3.1240e-07,0
-3.1200e-07,-0.04
-3.1160e-07,0
-3.1120e-07,0
-3.1080e-07,-0.04
-3.1040e-07,0.04
-3.1000e-07,0
-3.0960e-07,-0.04
-3.0920e-07,-0.04
-3.0880e-07,0
-3.0840e-07,0
-3.0800e-07,0
-3.0760e-07,0
-3.0720e-07,0
-3.0680e-07,-0.04
-3.0640e-07,-0.04
-3.0600e-07,0.04
-3.0560e-07,0.08
-3.0520e-07,0
-3.0480e-07,0
-3.0440e-07,0
-3.0400e-07,0
-3.0360e-07,-0.04
-3.0320e-07,-0.04
-3.0280e-07,-0.04
-3.0240e-07,-0.04
-3.0200e-07,0
-3.0160e-07,0.04
-3.0120e-07,0
-3.0080e-07,-0.04
-3.0040e-07,0
-3.0000e-07,0.08
-2.9960e-07,0
-2.9920e-07,0
-2.9880e-07,0
-2.9840e-07,-0.04
-2.9800e-07,0
-2.9760e-07,0.16
-2.9720e-07,0.08
-2.9680e-07,0.04
-2.9640e-07,0.04
-2.9600e-07,0
-2.9560e-07,0
-2.9520e-07,0
-2.9480e-07,0
-2.9440e-07,0.04
-2.9400e-07,-0.04
-2.9360e-07,0
-2.9320e-07,0
-2.9280e-07,0.04
-2.9240e-07,0.04
-2.9200e-07,0.04
-2.9160e-07,0
-2.9120e-07,-0.04
-2.9080e-07,0
-2.9040e-07,-0.12
-2.9000e-07,0
-2.8960e-07,0.04
-2.8920e-07,0
-2.8880e-07,0
-2.8840e-07,0.08
-2.8800e-07,0
-2.8760e-07,-0.04
-2.8720e-07,-0.08
-2.8680e-07,0.04
-2.8640e-07,0.08
-2.8600e-07,0
-2.8560e-07,0
-2.8520e-07,0
-2.8480e-07,-0.08
-2.8440e-07,-0.04
-2.8400e-07,0.04
-2.8360e-07,-0.04
-2.8320e-07,-0.04
-2.8280e-07,-0.12
-2.8240e-07,-0.08
-2.8200e-07,0
-2.8160e-07,0.04
-2.8120e-07,0
-2.8080e-07,-0.04
-2.8040e-07,-0.04
-2.8000e-07,0
-2.7960e-07,0.08
-2.7920e-07,0
-2.7880e-07,-0.04
-2.7840e-07,0
-2.7800e-07,0.04
-2.7760e-07,0
-2.7720e-07,0
-2.7680e-07,0
-2.7640e-07,0.04
-2.7600e-07,0.04
-2.7560e-07,0
-2.7520e-07,-0.04
-2.7480e-07,-0.04
-2.7440e-07,-0.04
-2.7400e-07,-0.04
-2.7360e-07,-0.04
-2.7320e-07,0
-2.7280e-07,0.04
-2.7240e-07,0.08
-2.7200e-07,0
-2.7160e-07,0
-2.7120e-07,0
-2.7080e-07,0
-2.7040e-07,-0.04
-2.7000e-07,0.04
-2.6960e-07,0.04
-2.6920e-07,0
-2.6880e-07,-0.04
-2.6840e-07,-0.04
-2.6800e-07,0.08
-2.6760e-07,0.08
-2.6720e-07,0.04
-2.6680e-07,-0.04
-2.6640e-07,0.04
-2.6600e-07,0.04
-2.6560e-07,0.12
-2.6520e-07,0.12
-2.6480e-07,0
-2.6440e-07,0.08
-2.6400e-07,0
-2.6360e-07,-0.04
-2.6320e-07,0
-2.6280e-07,-0.04
-2.6240e-07,-0.04
-2.6200e-07,0.04
-2.6160e-07,0
-2.6120e-07,-0.04
-2.6080e-07,0
-2.6040e-07,0
-2.6000e-07,-0.04
-2.5960e-07,0.08
-2.5920e-07,0
-2.5880e-07,0
-2.5840e-07,0.04
-2.5800e-07,0.04
-2.5760e-07,0.04
-2.5720e-07,0.04
-2.5680e-07,0
-2.5640e-07,-0.04
-2.5600e-07,0.04
-2.5560e-07,0
-2.5520e-07,-0.04
-2.5480e-07,-0.08
-2.5440e-07,-0.04
-2.5400e-07,0
-2.5360e-07,0
-2.5320e-07,0
-2.5280e-07,0.04
-2.5240e-07,0
-2.5200e-07,0
-2.5160e-07,0.04
-2.5120e-07,-0.04
-2.5080e-07,0
-2.5040e-07,0
-2.5000e-07,0
-2.4960e-07,0
-2.4920e-07,-0.04
-2.4880e-07,-0.04
-2.4840e-07,0
-2.4800e-07,0
-2.4760e-07,0.08
-2.4720e-07,0.12
-2.4680e-07,0.08
-2.4640e-07,0.04
-2.4600e-07,0
-2.4560e-07,0
-2.4520e-07,-0.04
-2.4480e-07,0
-2.4440e-07,0.08
-2.4400e-07,0
-2.4360e-07,0
-2.4320e-07,0
-2.4280e-07,0
-2.4240e-07,0
-2.4200e-07,0
-2.4160e-07,0
-2.4120e-07,0
-2.4080e-07,0.04
-2.4040e-07,0
-2.4000e-07,0
-2.3960e-07,0
-2.3920e-07,0
-2.3880e-07,0.04
-2.3840e-07,0
-2.3800e-07,0.04
-2.3760e-07,0.04
-2.3720e-07,0.08
-2.3680e-07,0.08
-2.3640e-07,0
-2.3600e-07,0
-2.3560e-07,0
-2.3520e-07,0.08
-2.3480e-07,0.08
-2.3440e-07,0
-2.3400e-07,-0.04
-2.3360e-07,-0.04
-2.3320e-07,0.08
-2.3280e-07,0
-2.3240e-07,-0.04
-2.3200e-07,0
-2.3160e-07,0.04
-2.3120e-07,0.04
-2.3080e-07,0
-2.3040e-07,0.04
-2.3000e-07,0.04
-2.2960e-07,0.08
-2.2920e-07,0
-2.2880e-07,-0.04
-2.2840e-07,-0.04
-2.2800e-07,-0.04
-2.2760e-07,0
-2.2720e-07,-0.04
-2.2680e-07,-0.08
-2.2640e-07,-0.04
-2.2600e-07,-0.04
-2.2560e-07,0
-2.2520e-07,-0.04
-2.2480e-07,-0.04
-2.2440e-07,0
-2.2400e-07,0
-2.2360e-07,-0.08
-2.2320e-07,-0.04
-2.2280e-07,0.12
-2.2240e-07,0.08
-2.2200e-07,0
-2.2160e-07,-0.12
-2.2120e-07,-0.04
-2.2080e-07,0.04
-2.2040e-07,0
-2.2000e-07,0
-2.1960e-07,0.04
-2.1920e-07,0.08
-2.1880e-07,0
-2.1840e-07,-0.04
-2.1800e-07,-0.04
-2.1760e-07,0
-2.1720e-07,0
-2.1680e-07,0.04
-2.1640e-07,0.08
-2.1600e-07,0.12
-2.1560e-07,-0.04
-2.1520e-07,0
-2.1480e-07,0.08
-2.1440e-07,0.04
-2.1400e-07,0.04
-2.1360e-07,0.08
-2.1320e-07,0.08
-2.1280e-07,0.08
-2.1240e-07,0.12
-2.1200e-07,0.08
-2.1160e-07,0
-2.1120e-07,0
-2.1080e-07,-0.04
-2.1040e-07,-0.04
-2.1000e-07,0
-2.0960e-07,0
-2.0920e-07,-0.04
-2.0880e-07,-0.04
-2.0840e-07,-0.04
-2.0800e-07,0
-2.0760e-07,0.04
-2.0720e-07,0
-2.0680e-07,-0.04
-2.0640e-07,-0.04
-2.0600e-07,0
-2.0560e-07,0.04
-2.0520e-07,0.04
-2.0480e-07,0
-2.0440e-07,-0.08
-2.0400e-07,0
-2.0360e-07,0.04
-2.0320e-07,0.04
-2.0280e-07,0
-2.0240e-07,0.04
-2.0200e-07,0.12
-2.0160e-07,0.04
-2.0120e-07,-0.04
-2.0080e-07,-0.04
-2.0040e-07,0
-2.0000e-07,0.04
-1.9960e-07,-0.04
-1.9920e-07,-0.04
-1.9880e-07,0
-1.9840e-07,0
-1.9800e-07,-0.04
-1.9760e-07,-0.04
-1.9720e-07,-0.04
-1.9680e-07,0.04
-1.9640e-07,0.04
-1.9600e-07,0
-1.9560e-07,0
-1.9520e-07,-0.04
-1.9480e-07,-0.08
-1.9440e-07,0
-1.9400e-07,0.04
-1.9360e-07,0
-1.9320e-07,0
-1.9280e-07,0.04
-1.9240e-07,0
-1.9200e-07,0
-1.9160e-07,0.04
-1.9120e-07,0
-1.9080e-07,0
-1.9040e-07,0.04
-1.9000e-07,0
-1.8960e-07,0
-1.8920e-07,0
-1.8880e-07,0
-1.8840e-07,-0.04
-1.8800e-07,-0.08
-1.8760e-07,0
-1.8720e-07,0
-1.8680e-07,0
-1.8640e-07,0
-1.8600e-07,0
-1.8560e-07,0
-1.8520e-07,0
-1.8480e-07,0.04
-1.8440e-07,0.12
-1.8400e-07,0.12
-1.8360e-07,0.04
-1.8320e-07,-0.04
-1.8280e-07,-0.04
-1.8240e-07,0
-1.8200e-07,0
-1.8160e-07,-0.04
-1.8120e-07,-0.04
-1.8080e-07,-0.04
-1.8040e-07,0
-1.8000e-07,-0.04
-1.7960e-07,-0.04
-1.7920e-07,0
-1.7880e-07,0
-1.7840e-07,0
-1.7800e-07,0.04
-1.7760e-07,0.08
-1.7720e-07,0.08
-1.7680e-07,-0.04
-1.7640e-07,0
-1.7600e-07,-0.04
-1.7560e-07,0.04
-1.7520e-07,-0.04
-1.7480e-07,0
-1.7440e-07,0
-1.7400e-07,0
-1.7360e-07,0
-1.7320e-07,0
-1.7280e-07,-0.04
-1.7240e-07,0
-1.7200e-07,0
-1.7160e-07,0
-1.7120e-07,0
-1.7080e-07,0.08
-1.7040e-07,0.04
-1.7000e-07,0.04
-1.6960e-07,0
-1.6920e-07,-0.04
-1.6880e-07,0
-1.6840e-07,0
-1.6800e-07,0
-1.6760e-07,0
-1.6720e-07,-0.08
-1.6680e-07,0
-1.6640e-07,0.04
-1.6600e-07,0.04
-1.6560e-07,0
-1.6520e-07,0
-1.6480e-07,0
-1.6440e-07,-0.12
-1.6400e-07,-0.08
-1.6360e-07,0
-1.6320e-07,0
-1.6280e-07,0.04
-1.6240e-07,-0.04
-1.6200e-07,0
-1.6160e-07,0.08
-1.6120e-07,0.04
-1.6080e-07,0
-1.6040e-07,0.04
-1.6000e-07,0.08
-1.5960e-07,0.08
-1.5920e-07,0.04
-1.5880e-07,0
-1.5840e-07,0
-1.5800e-07,-0.04
-1.5760e-07,0.04
-1.5720e-07,0
-1.5680e-07,0
-1.5640e-07,0
-1.5600e-07,0
-1.5560e-07,0
-1.5520e-07,0
-1.5480e-07,-0.04
-1.5440e-07,0
-1.5400e-07,0
-1.5360e-07,0
-1.5320e-07,-0.04
-1.5280e-07,-0.04
-1.5240e-07,0
-1.5200e-07,-0.04
-1.5160e-07,-0.08
-1.5120e-07,0
-1.5080e-07,0
-1.5040e-07,0
-1.5000e-07,0
-1.4960e-07,0
-1.4920e-07,0.08
-1.4880e-07,0.08
-1.4840e-07,-0.04
-1.4800e-07,-0.04
-1.4760e-07,0
-1.4720e-07,0
-1.4680e-07,-0.04
-1.4640e-07,-0.04
-1.4600e-07,0.08
-1.4560e-07,0.08
-1.4520e-07,0.08
-1.4480e-07,0.04
-1.4440e-07,0
-1.4400e-07,0
-1.4360e-07,0
-1.4320e-07,0.08
-1.4280e-07,0.04
-1.4240e-07,-0.04
-1.4200e-07,-0.04
-1.4160e-07,0.04
-1.4120e-07,-0.08
-1.4080e-07,-0.08
-1.4040e-07,0
-1.4000e-07,0
-1.3960e-07,0
-1.3920e-07,0
-1.3880e-07,0.08
-1.3840e-07,0
-1.3800e-07,0
-1.3760e-07,0
-1.3720e-07,0
-1.3680e-07,-0.04
-1.3640e-07,-0.04
-1.3600e-07,-0.04
-1.3560e-07,0
-1.3520e-07,-0.04
-1.3480e-07,-0.04
-1.3440e-07,0
-1.3400e-07,-0.04
-1.3360e-07,0
-1.3320e-07,0
-1.3280e-07,-0.04
-1.3240e-07,0
-1.3200e-07,0.08
-1.3160e-07,0
-1.3120e-07,-0.04
-1.3080e-07,0
-1.3040e-07,0
-1.3000e-07,0.04
-1.2960e-07,0.04
-1.2920e-07,0
-1.2880e-07,0.04
-1.2840e-07,0
-1.2800e-07,0.04
-1.2760e-07,0
-1.2720e-07,0
-1.2680e-07,-0.04
-1.2640e-07,-0.04
-1.2600e-07,0.08
-1.2560e-07,0.08
-1.2520e-07,0.04
-1.2480e-07,0.04
-1.2440e-07,0
-1.2400e-07,0
-1.2360e-07,-0.04
-1.2320e-07,0
-1.2280e-07,-0.04
-1.2240e-07,-0.04
-1.2200e-07,-0.04
-1.2160e-07,0
-1.2120e-07,0
-1.2080e-07,0
-1.2040e-07,0.04
-1.2000e-07,0.04
-1.1960e-07,0
-1.1920e-07,0
-1.1880e-07,0
-1.1840e-07,0
-1.1800e-07,0
-1.1760e-07,-0.04
-1.1720e-07,0
-1.1680e-07,0
-1.1640e-07,0.04
-1.1600e-07,0
-1.1560e-07,-0.04
-1.1520e-07,0
-1.1480e-07,0
-1.1440e-07,-0.04
-1.1400e-07,0.04
-1.1360e-07,0.04
-1.1320e-07,0
-1.1280e-07,0
-1.1240e-07,-0.04
-1.1200e-07,0
-1.1160e-07,0.04
-1.1120e-07,0.04
-1.1080e-07,0.04
-1.1040e-07,0
-1.1000e-07,0.04
-1.0960e-07,0
-1.0920e-07,-0.04
-1.0880e-07,0
-1.0840e-07,0
-1.0800e-07,0
-1.0760e-07,-0.04
-1.0720e-07,-0.04
-1.0680e-07,0
-1.0640e-07,0.04
-1.0600e-07,0.08
-1.0560e-07,0
-1.0520e-07,0
-1.0480e-07,0
-1.0440e-07,0
-1.0400e-07,0
-1.0360e-07,-0.04
-1.0320e-07,0.04
-1.0280e-07,0.04
-1.0240e-07,0
-1.0200e-07,0.04
-1.0160e-07,0.04
-1.0120e-07,0
-1.0080e-07,0.08
-1.0040e-07,0.12
-1.0000e-07,0.08
-9.9600e-08,0.04
-9.9200e-08,0.04
-9.8800e-08,-0.04
-9.8400e-08,-0.04
-9.8000e-08,-0.04
-9.7600e-08,0
-9.7200e-08,-0.04
-9.6800e-08,-0.04
-9.6400e-08,-0.04
-9.6000e-08,0
-9.5600e-08,0
-9.5200e-08,0.04
-9.4800e-08,0.08
-9.4400e-08,0.04
-9.4000e-08,0
-9.3600e-08,0
-9.3200e-08,0.04
-9.2800e-08,0.08
-9.2400e-08,0
-9.2000e-08,-0.04
-9.1600e-08,0
-9.1200e-08,0.04
-9.0800e-08,0.04
-9.0400e-08,0.04
-9.0000e-08,0
-8.9600e-08,0
-8.9200e-08,-0.04
-8.8800e-08,0
-8.8400e-08,-0.04
-8.8000e-08,-0.04
-8.7600e-08,0.04
-8.7200e-08,0.08
-8.6800e-08,0.08
-8.6400e-08,0.08
-8.6000e-08,0
-8.5600e-08,0.04
-8.5200e-08,0.08
-8.4800e-08,-0.04
-8.4400e-08,-0.08
-8.4000e-08,0
-8.3600e-08,0.12
-8.3200e-08,0.08
-8.2800e-08,0
-8.2400e-08,0
-8.2000e-08,0
-8.1600e-08,0
-8.1200e-08,-0.04
-8.0800e-08,-0.08
-8.0400e-08,0
-8.0000e-08,0
-7.9600e-08,-0.04
-7.9200e-08,0
-7.8800e-08,-0.04
-7.8400e-08,0
-7.8000e-08,0.04
