ECE375/hw4/hw4/files/lyon zac/tek0001CH1.csv

Model,DPO4034
Firmware Version,2.68

Waveform Type,ANALOG
Point Format,Y
Horizontal Units,s
Horizontal Scale,8e-07
Horizontal Delay,1.432e-06
Sample Interval,8e-10
Record Length,10000
Gating,0.0% to 100.0%
Probe Attenuation,1
Vertical Units,V
Vertical Offset,0
Vertical Scale,1
Vertical Position,0
,
,
,
Label,
TIME,CH1
-2.5680e-06,0.04
-2.5672e-06,0.04
-2.5664e-06,-0.04
-2.5656e-06,-0.04
-2.5648e-06,-0.04
-2.5640e-06,0
-2.5632e-06,-0.08
-2.5624e-06,0
-2.5616e-06,0
-2.5608e-06,-0.04
-2.5600e-06,0
-2.5592e-06,0
-2.5584e-06,-0.04
-2.5576e-06,-0.04
-2.5568e-06,0
-2.5560e-06,0
-2.5552e-06,0
-2.5544e-06,0.04
-2.5536e-06,-0.04
-2.5528e-06,-0.04
-2.5520e-06,-0.04
-2.5512e-06,-0.04
-2.5504e-06,0
-2.5496e-06,0.04
-2.5488e-06,-0.04
-2.5480e-06,-0.04
-2.5472e-06,0.04
-2.5464e-06,-0.04
-2.5456e-06,-0.04
-2.5448e-06,-0.08
-2.5440e-06,0
-2.5432e-06,0
-2.5424e-06,-0.04
-2.5416e-06,0
-2.5408e-06,0
-2.5400e-06,-0.08
-2.5392e-06,-0.04
-2.5384e-06,-0.04
-2.5376e-06,-0.12
-2.5368e-06,0.08
-2.5360e-06,-0.04
-2.5352e-06,0
-2.5344e-06,0.08
-2.5336e-06,0
-2.5328e-06,0
-2.5320e-06,0
-2.5312e-06,-0.04
-2.5304e-06,0
-2.5296e-06,0
-2.5288e-06,-0.08
-2.5280e-06,0
-2.5272e-06,-0.04
-2.5264e-06,-0.04
-2.5256e-06,0
-2.5248e-06,-0.04
-2.5240e-06,-0.04
-2.5232e-06,0
-2.5224e-06,-0.04
-2.5216e-06,-0.04
-2.5208e-06,-0.04
-2.5200e-06,0
-2.5192e-06,0.04
-2.5184e-06,0
-2.5176e-06,-0.04
-2.5168e-06,0
-2.5160e-06,-0.04
-2.5152e-06,0
-2.5144e-06,-0.04
-2.5136e-06,0.04
-2.5128e-06,-0.04
-2.5120e-06,-0.04
-2.5112e-06,-0.04
-2.5104e-06,-0.04
-2.5096e-06,0
-2.5088e-06,0
-2.5080e-06,-0.04
-2.5072e-06,-0.04
-2.5064e-06,0
-2.5056e-06,0
-2.5048e-06,0
-2.5040e-06,0.08
-2.5032e-06,0
-2.5024e-06,-0.04
-2.5016e-06,0
-2.5008e-06,0.04
-2.5000e-06,0
-2.4992e-06,-0.04
-2.4984e-06,0
-2.4976e-06,-0.04
-2.4968e-06,-0.04
-2.4960e-06,-0.04
-2.4952e-06,-0.04
-2.4944e-06,0.04
-2.4936e-06,0
-2.4928e-06,-0.04
-2.4920e-06,-0.04
-2.4912e-06,0
-2.4904e-06,0.08
-2.4896e-06,0
-2.4888e-06,-0.04
-2.4880e-06,-0.04
-2.4872e-06,-0.04
-2.4864e-06,-0.04
-2.4856e-06,-0.04
-2.4848e-06,-0.04
-2.4840e-06,0
-2.4832e-06,0
-2.4824e-06,-0.04
-2.4816e-06,0
-2.4808e-06,-0.04
-2.4800e-06,-0.04
-2.4792e-06,-0.04
-2.4784e-06,-0.04
-2.4776e-06,0
-2.4768e-06,0
-2.4760e-06,0
-2.4752e-06,0
-2.4744e-06,0.04
-2.4736e-06,-0.04
-2.4728e-06,0.04
-2.4720e-06,0
-2.4712e-06,-0.04
-2.4704e-06,0.08
-2.4696e-06,0
-2.4688e-06,0
-2.4680e-06,0
-2.4672e-06,-0.04
-2.4664e-06,0
-2.4656e-06,-0.04
-2.4648e-06,-0.04
-2.4640e-06,0
-2.4632e-06,0.08
-2.4624e-06,0
-2.4616e-06,0.04
-2.4608e-06,0
-2.4600e-06,0
-2.4592e-06,-0.04
-2.4584e-06,-0.04
-2.4576e-06,0.08
-2.4568e-06,-0.04
-2.4560e-06,0
-2.4552e-06,0
-2.4544e-06,0.08
-2.4536e-06,0.08
-2.4528e-06,0
-2.4520e-06,0
-2.4512e-06,-0.04
-2.4504e-06,-0.04
-2.4496e-06,-0.04
-2.4488e-06,0
-2.4480e-06,-0.12
-2.4472e-06,0
-2.4464e-06,-0.04
-2.4456e-06,0
-2.4448e-06,0
-2.4440e-06,0.04
-2.4432e-06,0
-2.4424e-06,-0.16
-2.4416e-06,-0.04
-2.4408e-06,0
-2.4400e-06,-0.04
-2.4392e-06,0
-2.4384e-06,0
-2.4376e-06,-0.04
-2.4368e-06,0.12
-2.4360e-06,-0.04
-2.4352e-06,0
-2.4344e-06,0
-2.4336e-06,0
-2.4328e-06,0.04
-2.4320e-06,0
-2.4312e-06,0
-2.4304e-06,-0.04
-2.4296e-06,-0.04
-2.4288e-06,0
-2.4280e-06,-0.04
-2.4272e-06,0
-2.4264e-06,-0.04
-2.4256e-06,-0.08
-2.4248e-06,0
-2.4240e-06,-0.04
-2.4232e-06,0
-2.4224e-06,0
-2.4216e-06,0
-2.4208e-06,0.04
-2.4200e-06,-0.04
-2.4192e-06,-0.04
-2.4184e-06,-0.04
-2.4176e-06,-0.04
-2.4168e-06,-0.04
-2.4160e-06,0
-2.4152e-06,0
-2.4144e-06,-0.04
-2.4136e-06,-0.04
-2.4128e-06,0
-2.4120e-06,0
-2.4112e-06,-0.04
-2.4104e-06,0
-2.4096e-06,-0.04
-2.4088e-06,0
-2.4080e-06,0
-2.4072e-06,0
-2.4064e-06,-0.04
-2.4056e-06,-0.04
-2.4048e-06,0.04
-2.4040e-06,0.04
-2.4032e-06,0
-2.4024e-06,-0.04
-2.4016e-06,-0.04
-2.4008e-06,0
-2.4000e-06,-0.04
-2.3992e-06,-0.04
-2.3984e-06,-0.04
-2.3976e-06,0.04
-2.3968e-06,0
-2.3960e-06,0
-2.3952e-06,0
-2.3944e-06,-0.04
-2.3936e-06,0
-2.3928e-06,0
-2.3920e-06,-0.08
-2.3912e-06,0
-2.3904e-06,0
-2.3896e-06,-0.04
-2.3888e-06,0
-2.3880e-06,-0.04
-2.3872e-06,-0.04
-2.3864e-06,0
-2.3856e-06,0
-2.3848e-06,0
-2.3840e-06,-0.04
-2.3832e-06,-0.04
-2.3824e-06,0.04
-2.3816e-06,-0.04
-2.3808e-06,-0.04
-2.3800e-06,-0.04
-2.3792e-06,-0.04
-2.3784e-06,0
-2.3776e-06,0.04
-2.3768e-06,-0.12
-2.3760e-06,-0.04
-2.3752e-06,0
-2.3744e-06,0
-2.3736e-06,0.12
-2.3728e-06,0
-2.3720e-06,0
-2.3712e-06,-0.04
-2.3704e-06,-0.04
-2.3696e-06,-0.04
-2.3688e-06,0
-2.3680e-06,-0.04
-2.3672e-06,-0.04
-2.3664e-06,0
-2.3656e-06,-0.08
-2.3648e-06,0
-2.3640e-06,0
-2.3632e-06,0.12
-2.3624e-06,0
-2.3616e-06,0.04
-2.3608e-06,0.08
-2.3600e-06,-0.08
-2.3592e-06,0
-2.3584e-06,0.04
-2.3576e-06,0
-2.3568e-06,0.04
-2.3560e-06,0.04
-2.3552e-06,0.08
-2.3544e-06,0
-2.3536e-06,0
-2.3528e-06,0
-2.3520e-06,0.08
-2.3512e-06,-0.04
-2.3504e-06,0.08
-2.3496e-06,0
-2.3488e-06,0
-2.3480e-06,0
-2.3472e-06,0
-2.3464e-06,0.04
-2.3456e-06,-0.04
-2.3448e-06,0.04
-2.3440e-06,-0.04
-2.3432e-06,-0.04
-2.3424e-06,0
-2.3416e-06,-0.04
-2.3408e-06,0
-2.3400e-06,0
-2.3392e-06,-0.04
-2.3384e-06,-0.08
-2.3376e-06,-0.04
-2.3368e-06,0.04
-2.3360e-06,0.04
-2.3352e-06,-0.04
-2.3344e-06,0.04
-2.3336e-06,0
-2.3328e-06,0.08
-2.3320e-06,-0.04
-2.3312e-06,0
-2.3304e-06,0.08
-2.3296e-06,-0.04
-2.3288e-06,0
-2.3280e-06,-0.04
-2.3272e-06,0.04
-2.3264e-06,-0.04
-2.3256e-06,-0.04
-2.3248e-06,-0.04
-2.3240e-06,-0.04
-2.3232e-06,0
-2.3224e-06,-0.08
-2.3216e-06,0.04
-2.3208e-06,-0.04
-2.3200e-06,-0.04
-2.3192e-06,0
-2.3184e-06,0
-2.3176e-06,0
-2.3168e-06,0.04
-2.3160e-06,-0.04
-2.3152e-06,-0.04
-2.3144e-06,-0.04
-2.3136e-06,0
-2.3128e-06,0
-2.3120e-06,0.04
-2.3112e-06,0
-2.3104e-06,-0.04
-2.3096e-06,0.04
-2.3088e-06,0.08
-2.3080e-06,-0.04
-2.3072e-06,-0.04
-2.3064e-06,-0.04
-2.3056e-06,0
-2.3048e-06,-0.04
-2.3040e-06,0
-2.3032e-06,-0.04
-2.3024e-06,-0.04
-2.3016e-06,0
-2.3008e-06,0
-2.3000e-06,0
-2.2992e-06,-0.04
-2.2984e-06,0.04
-2.2976e-06,-0.04
-2.2968e-06,0.04
-2.2960e-06,-0.04
-2.2952e-06,0
-2.2944e-06,0
-2.2936e-06,-0.04
-2.2928e-06,-0.04
-2.2920e-06,-0.04
-2.2912e-06,0.12
-2.2904e-06,0.04
-2.2896e-06,0
-2.2888e-06,-0.04
-2.2880e-06,0
-2.2872e-06,0
-2.2864e-06,0
-2.2856e-06,-0.04
-2.2848e-06,-0.04
-2.2840e-06,-0.04
-2.2832e-06,0
-2.2824e-06,0
-2.2816e-06,0
-2.2808e-06,-0.04
-2.2800e-06,0.08
-2.2792e-06,0.04
-2.2784e-06,-0.04
-2.2776e-06,0
-2.2768e-06,-0.04
-2.2760e-06,0
-2.2752e-06,-0.04
-2.2744e-06,0
-2.2736e-06,0
-2.2728e-06,0
-2.2720e-06,0.08
-2.2712e-06,0.08
-2.2704e-06,-0.04
-2.2696e-06,0
-2.2688e-06,0.08
-2.2680e-06,0
-2.2672e-06,-0.08
-2.2664e-06,0.04
-2.2656e-06,0
-2.2648e-06,-0.04
-2.2640e-06,0
-2.2632e-06,-0.04
-2.2624e-06,0
-2.2616e-06,-0.04
-2.2608e-06,0
-2.2600e-06,-0.04
-2.2592e-06,0
-2.2584e-06,0
-2.2576e-06,-0.04
-2.2568e-06,0
-2.2560e-06,0.08
-2.2552e-06,-0.08
-2.2544e-06,0.08
-2.2536e-06,-0.04
-2.2528e-06,-0.04
-2.2520e-06,-0.04
-2.2512e-06,-0.04
-2.2504e-06,0
-2.2496e-06,-0.04
-2.2488e-06,0
-2.2480e-06,-0.04
-2.2472e-06,0
-2.2464e-06,0
-2.2456e-06,0
-2.2448e-06,-0.04
-2.2440e-06,0
-2.2432e-06,0.08
-2.2424e-06,-0.04
-2.2416e-06,0
-2.2408e-06,0
-2.2400e-06,0
-2.2392e-06,-0.04
-2.2384e-06,0
-2.2376e-06,0
-2.2368e-06,0
-2.2360e-06,0.08
-2.2352e-06,0.04
-2.2344e-06,0
-2.2336e-06,0
-2.2328e-06,0
-2.2320e-06,0.04
-2.2312e-06,-0.04
-2.2304e-06,0
-2.2296e-06,0
-2.2288e-06,0
-2.2280e-06,0
-2.2272e-06,0.04
-2.2264e-06,0
-2.2256e-06,0
-2.2248e-06,-0.04
-2.2240e-06,0
-2.2232e-06,0
-2.2224e-06,-0.04
-2.2216e-06,-0.04
-2.2208e-06,0
-2.2200e-06,0
-2.2192e-06,-0.04
-2.2184e-06,0
-2.2176e-06,0
-2.2168e-06,0
-2.2160e-06,0.04
-2.2152e-06,0
-2.2144e-06,0.04
-2.2136e-06,-0.08
-2.2128e-06,0
-2.2120e-06,0.08
-2.2112e-06,0
-2.2104e-06,0.08
-2.2096e-06,0
-2.2088e-06,-0.04
-2.2080e-06,0.04
-2.2072e-06,0
-2.2064e-06,0
-2.2056e-06,-0.12
-2.2048e-06,-0.04
-2.2040e-06,-0.04
-2.2032e-06,0
-2.2024e-06,-0.04
-2.2016e-06,-0.04
-2.2008e-06,-0.04
-2.2000e-06,-0.04
-2.1992e-06,0.08
-2.1984e-06,-0.04
-2.1976e-06,-0.04
-2.1968e-06,0
-2.1960e-06,0.08
-2.1952e-06,-0.04
-2.1944e-06,0.04
-2.1936e-06,-0.04
-2.1928e-06,0
-2.1920e-06,-0.04
-2.1912e-06,0
-2.1904e-06,-0.04
-2.1896e-06,0
-2.1888e-06,0.12
-2.1880e-06,0
-2.1872e-06,0.08
-2.1864e-06,0.04
-2.1856e-06,0
-2.1848e-06,-0.04
-2.1840e-06,-0.04
-2.1832e-06,0.04
-2.1824e-06,0
-2.1816e-06,-0.04
-2.1808e-06,0
-2.1800e-06,0.04
-2.1792e-06,0.08
-2.1784e-06,0
-2.1776e-06,0
-2.1768e-06,0
-2.1760e-06,0.04
-2.1752e-06,0
-2.1744e-06,-0.04
-2.1736e-06,0
-2.1728e-06,-0.04
-2.1720e-06,0
-2.1712e-06,-0.04
-2.1704e-06,0.08
-2.1696e-06,0
-2.1688e-06,-0.04
-2.1680e-06,0
-2.1672e-06,0.04
-2.1664e-06,0
-2.1656e-06,0
-2.1648e-06,0.12
-2.1640e-06,-0.04
-2.1632e-06,0
-2.1624e-06,-0.04
-2.1616e-06,-0.08
-2.1608e-06,0.04
-2.1600e-06,0
-2.1592e-06,0.04
-2.1584e-06,0.12
-2.1576e-06,0
-2.1568e-06,0
-2.1560e-06,0
-2.1552e-06,0.04
-2.1544e-06,0
-2.1536e-06,-0.04
-2.1528e-06,-0.04
-2.1520e-06,-0.04
-2.1512e-06,-0.04
-2.1504e-06,0
-2.1496e-06,0
-2.1488e-06,0
-2.1480e-06,0
-2.1472e-06,-0.08
-2.1464e-06,0.08
-2.1456e-06,0
-2.1448e-06,-0.08
-2.1440e-06,-0.12
-2.1432e-06,0.08
-2.1424e-06,0
-2.1416e-06,-0.04
-2.1408e-06,-0.04
-2.1400e-06,-0.04
-2.1392e-06,0.08
-2.1384e-06,-0.08
-2.1376e-06,-0.04
-2.1368e-06,-0.04
-2.1360e-06,0
-2.1352e-06,0
-2.1344e-06,0
-2.1336e-06,-0.04
-2.1328e-06,0.08
-2.1320e-06,-0.08
-2.1312e-06,-0.04
-2.1304e-06,0
-2.1296e-06,0
-2.1288e-06,0.04
-2.1280e-06,-0.12
-2.1272e-06,-0.04
-2.1264e-06,-0.04
-2.1256e-06,0
-2.1248e-06,-0.04
-2.1240e-06,0
-2.1232e-06,-0.04
-2.1224e-06,0
-2.1216e-06,-0.04
-2.1208e-06,0
-2.1200e-06,0
-2.1192e-06,0.12
-2.1184e-06,0.04
-2.1176e-06,-0.04
-2.1168e-06,-0.04
-2.1160e-06,0.04
-2.1152e-06,0
-2.1144e-06,0
-2.1136e-06,-0.04
-2.1128e-06,0
-2.1120e-06,0
-2.1112e-06,-0.04
-2.1104e-06,-0.04
-2.1096e-06,0
-2.1088e-06,-0.04
-2.1080e-06,-0.12
-2.1072e-06,0
-2.1064e-06,-0.04
-2.1056e-06,0.08
-2.1048e-06,0
-2.1040e-06,-0.04
-2.1032e-06,0
-2.1024e-06,-0.04
-2.1016e-06,-0.04
-2.1008e-06,0
-2.1000e-06,0
-2.0992e-06,0
-2.0984e-06,0
-2.0976e-06,0.08
-2.0968e-06,-0.04
-2.0960e-06,0.04
-2.0952e-06,0.04
-2.0944e-06,0
-2.0936e-06,0.08
-2.0928e-06,-0.04
-2.0920e-06,0
-2.0912e-06,0
-2.0904e-06,0.04
-2.0896e-06,0
-2.0888e-06,0
-2.0880e-06,0
-2.0872e-06,0
-2.0864e-06,-0.04
-2.0856e-06,0
-2.0848e-06,0.04
-2.0840e-06,0
-2.0832e-06,0.08
-2.0824e-06,0.04
-2.0816e-06,0
-2.0808e-06,0.12
-2.0800e-06,-0.12
-2.0792e-06,0
-2.0784e-06,-0.04
-2.0776e-06,0.04
-2.0768e-06,-0.04
-2.0760e-06,0
-2.0752e-06,-0.04
-2.0744e-06,0
-2.0736e-06,-0.04
-2.0728e-06,0.04
-2.0720e-06,-0.04
-2.0712e-06,0
-2.0704e-06,0
-2.0696e-06,-0.04
-2.0688e-06,-0.04
-2.0680e-06,0.08
-2.0672e-06,0
-2.0664e-06,-0.04
-2.0656e-06,-0.04
-2.0648e-06,-0.04
-2.0640e-06,0.08
-2.0632e-06,0.04
-2.0624e-06,0.08
-2.0616e-06,0
-2.0608e-06,0.08
-2.0600e-06,-0.04
-2.0592e-06,0
-2.0584e-06,0
-2.0576e-06,-0.04
-2.0568e-06,-0.04
-2.0560e-06,0.04
-2.0552e-06,0.04
-2.0544e-06,0
-2.0536e-06,0
-2.0528e-06,-0.04
-2.0520e-06,0
-2.0512e-06,-0.04
-2.0504e-06,0
-2.0496e-06,-0.04
-2.0488e-06,-0.08
-2.0480e-06,0.08
-2.0472e-06,-0.04
-2.0464e-06,0
-2.0456e-06,0
-2.0448e-06,0.08
-2.0440e-06,-0.04
-2.0432e-06,0
-2.0424e-06,0.04
-2.0416e-06,0.04
-2.0408e-06,0
-2.0400e-06,0
-2.0392e-06,-0.08
-2.0384e-06,-0.08
-2.0376e-06,0
-2.0368e-06,0.04
-2.0360e-06,0
-2.0352e-06,-0.04
-2.0344e-06,-0.04
-2.0336e-06,0
-2.0328e-06,0
-2.0320e-06,0
-2.0312e-06,0
-2.0304e-06,0.08
-2.0296e-06,0
-2.0288e-06,-0.04
-2.0280e-06,-0.04
-2.0272e-06,0
-2.0264e-06,-0.04
-2.0256e-06,0
-2.0248e-06,0
-2.0240e-06,0
-2.0232e-06,-0.04
-2.0224e-06,0
-2.0216e-06,-0.04
-2.0208e-06,0
-2.0200e-06,-0.04
-2.0192e-06,0
-2.0184e-06,0
-2.0176e-06,-0.04
-2.0168e-06,-0.04
-2.0160e-06,0
-2.0152e-06,0
-2.0144e-06,-0.04
-2.0136e-06,0
-2.0128e-06,-0.04
-2.0120e-06,0
-2.0112e-06,-0.04
-2.0104e-06,0
-2.0096e-06,0
-2.0088e-06,0
-2.0080e-06,0.04
-2.0072e-06,0
-2.0064e-06,-0.04
-2.0056e-06,-0.04
-2.0048e-06,0
-2.0040e-06,-0.04
-2.0032e-06,-0.04
-2.0024e-06,-0.04
-2.0016e-06,-0.04
-2.0008e-06,0
-2.0000e-06,0
-1.9992e-06,0
-1.9984e-06,-0.04
-1.9976e-06,0.04
-1.9968e-06,-0.04
-1.9960e-06,-0.04
-1.9952e-06,-0.04
-1.9944e-06,0.12
-1.9936e-06,-0.04
-1.9928e-06,0.04
-1.9920e-06,-0.12
-1.9912e-06,0
-1.9904e-06,0
-1.9896e-06,-0.04
-1.9888e-06,0
-1.9880e-06,0
-1.9872e-06,-0.04
-1.9864e-06,-0.04
-1.9856e-06,-0.08
-1.9848e-06,0
-1.9840e-06,-0.04
-1.9832e-06,0
-1.9824e-06,-0.04
-1.9816e-06,-0.04
-1.9808e-06,0
-1.9800e-06,0
-1.9792e-06,0
-1.9784e-06,0
-1.9776e-06,-0.08
-1.9768e-06,0.04
-1.9760e-06,0
-1.9752e-06,0
-1.9744e-06,0.08
-1.9736e-06,-0.04
-1.9728e-06,0
-1.9720e-06,0
-1.9712e-06,0.08
-1.9704e-06,0
-1.9696e-06,0.04
-1.9688e-06,0
-1.9680e-06,-0.04
-1.9672e-06,0.04
-1.9664e-06,0
-1.9656e-06,0.04
-1.9648e-06,0
-1.9640e-06,0
-1.9632e-06,-0.04
-1.9624e-06,-0.04
-1.9616e-06,0.04
-1.9608e-06,0
-1.9600e-06,0
-1.9592e-06,-0.08
-1.9584e-06,0
-1.9576e-06,-0.04
-1.9568e-06,-0.08
-1.9560e-06,0.04
-1.9552e-06,-0.04
-1.9544e-06,0.04
-1.9536e-06,-0.08
-1.9528e-06,-0.04
-1.9520e-06,-0.04
-1.9512e-06,0
-1.9504e-06,0.04
-1.9496e-06,0
-1.9488e-06,-0.04
-1.9480e-06,0.04
-1.9472e-06,-0.04
-1.9464e-06,0
-1.9456e-06,0.04
-1.9448e-06,0.08
-1.9440e-06,0
-1.9432e-06,-0.04
-1.9424e-06,0
-1.9416e-06,-0.08
-1.9408e-06,0
-1.9400e-06,0.04
-1.9392e-06,0.04
-1.9384e-06,0
-1.9376e-06,0
-1.9368e-06,-0.04
-1.9360e-06,0
-1.9352e-06,-0.04
-1.9344e-06,-0.08
-1.9336e-06,0
-1.9328e-06,-0.08
-1.9320e-06,0
-1.9312e-06,0.08
-1.9304e-06,-0.04
-1.9296e-06,0
-1.9288e-06,0
-1.9280e-06,0
-1.9272e-06,0.08
-1.9264e-06,0
-1.9256e-06,0.08
-1.9248e-06,-0.04
-1.9240e-06,-0.04
-1.9232e-06,0
-1.9224e-06,-0.04
-1.9216e-06,-0.12
-1.9208e-06,0
-1.9200e-06,0.08
-1.9192e-06,-0.04
-1.9184e-06,0
-1.9176e-06,0
-1.9168e-06,0
-1.9160e-06,0
-1.9152e-06,0.08
-1.9144e-06,0
-1.9136e-06,0
-1.9128e-06,0
-1.9120e-06,0.08
-1.9112e-06,-0.04
-1.9104e-06,0.04
-1.9096e-06,0
-1.9088e-06,-0.04
-1.9080e-06,-0.04
-1.9072e-06,0
-1.9064e-06,0
-1.9056e-06,0
-1.9048e-06,0
-1.9040e-06,0.08
-1.9032e-06,-0.04
-1.9024e-06,0.04
-1.9016e-06,0.04
-1.9008e-06,0
-1.9000e-06,0.04
-1.8992e-06,0
-1.8984e-06,0.08
-1.8976e-06,-0.04
-1.8968e-06,0
-1.8960e-06,0.04
-1.8952e-06,-0.04
-1.8944e-06,-0.04
-1.8936e-06,0.08
-1.8928e-06,0
-1.8920e-06,-0.04
-1.8912e-06,-0.04
-1.8904e-06,0.12
-1.8896e-06,-0.04
-1.8888e-06,0
-1.8880e-06,0
-1.8872e-06,0.08
-1.8864e-06,0
-1.8856e-06,-0.04
-1.8848e-06,0.04
-1.8840e-06,-0.04
-1.8832e-06,0
-1.8824e-06,-0.04
-1.8816e-06,0
-1.8808e-06,0
-1.8800e-06,-0.04
-1.8792e-06,0.04
-1.8784e-06,0
-1.8776e-06,0.08
-1.8768e-06,-0.08
-1.8760e-06,0
-1.8752e-06,-0.12
-1.8744e-06,0
-1.8736e-06,0.08
-1.8728e-06,-0.04
-1.8720e-06,-0.04
-1.8712e-06,0.08
-1.8704e-06,0
-1.8696e-06,-0.04
-1.8688e-06,0
-1.8680e-06,0.04
-1.8672e-06,-0.04
-1.8664e-06,-0.04
-1.8656e-06,0
-1.8648e-06,0.08
-1.8640e-06,-0.04
-1.8632e-06,0
-1.8624e-06,0.04
-1.8616e-06,-0.04
-1.8608e-06,-0.04
-1.8600e-06,-0.04
-1.8592e-06,0.04
-1.8584e-06,0.08
-1.8576e-06,0.04
-1.8568e-06,-0.04
-1.8560e-06,-0.04
-1.8552e-06,0
-1.8544e-06,-0.12
-1.8536e-06,0.04
-1.8528e-06,-0.04
-1.8520e-06,-0.04
-1.8512e-06,0.08
-1.8504e-06,0
-1.8496e-06,0
-1.8488e-06,0.04
-1.8480e-06,-0.04
-1.8472e-06,0
-1.8464e-06,0
-1.8456e-06,-0.04
-1.8448e-06,0
-1.8440e-06,0
-1.8432e-06,0.08
-1.8424e-06,-0.04
-1.8416e-06,-0.04
-1.8408e-06,-0.04
-1.8400e-06,-0.04
-1.8392e-06,0.04
-1.8384e-06,-0.04
-1.8376e-06,0
-1.8368e-06,0
-1.8360e-06,0.08
-1.8352e-06,0
-1.8344e-06,0
-1.8336e-06,-0.04
-1.8328e-06,0
-1.8320e-06,-0.04
-1.8312e-06,-0.04
-1.8304e-06,0.04
-1.8296e-06,0
-1.8288e-06,-0.04
-1.8280e-06,0.04
-1.8272e-06,0
-1.8264e-06,0
-1.8256e-06,0.08
-1.8248e-06,0
-1.8240e-06,-0.04
-1.8232e-06,-0.04
-1.8224e-06,0
-1.8216e-06,-0.08
-1.8208e-06,-0.04
-1.8200e-06,-0.04
-1.8192e-06,0
-1.8184e-06,-0.04
-1.8176e-06,0
-1.8168e-06,0
-1.8160e-06,-0.04
-1.8152e-06,0
-1.8144e-06,0
-1.8136e-06,0
-1.8128e-06,0.04
-1.8120e-06,0.04
-1.8112e-06,0.04
-1.8104e-06,0
-1.8096e-06,-0.04
-1.8088e-06,0.04
-1.8080e-06,-0.04
-1.8072e-06,0
-1.8064e-06,-0.04
-1.8056e-06,-0.04
-1.8048e-06,-0.08
-1.8040e-06,0.04
-1.8032e-06,0
-1.8024e-06,0.04
-1.8016e-06,0.04
-1.8008e-06,0
-1.8000e-06,0
-1.7992e-06,0
-1.7984e-06,0
-1.7976e-06,-0.04
-1.7968e-06,0.04
-1.7960e-06,0
-1.7952e-06,-0.04
-1.7944e-06,0
-1.7936e-06,0
-1.7928e-06,0
-1.7920e-06,0
-1.7912e-06,-0.04
-1.7904e-06,0
-1.7896e-06,-0.04
-1.7888e-06,0
-1.7880e-06,-0.04
-1.7872e-06,-0.08
-1.7864e-06,0
-1.7856e-06,-0.08
-1.7848e-06,0.08
-1.7840e-06,-0.04
-1.7832e-06,0
-1.7824e-06,-0.04
-1.7816e-06,-0.04
-1.7808e-06,-0.04
-1.7800e-06,0.04
-1.7792e-06,0.08
-1.7784e-06,0
-1.7776e-06,-0.04
-1.7768e-06,-0.04
-1.7760e-06,0.12
-1.7752e-06,-0.04
-1.7744e-06,0
-1.7736e-06,0.04
-1.7728e-06,0
-1.7720e-06,-0.04
-1.7712e-06,0
-1.7704e-06,0.08
-1.7696e-06,0
-1.7688e-06,0
-1.7680e-06,0
-1.7672e-06,0
-1.7664e-06,-0.04
-1.7656e-06,0
-1.7648e-06,-0.04
-1.7640e-06,0.04
-1.7632e-06,0
-1.7624e-06,0.04
-1.7616e-06,0
-1.7608e-06,-0.04
-1.7600e-06,0
-1.7592e-06,0
-1.7584e-06,-0.04
-1.7576e-06,0.04
-1.7568e-06,0
-1.7560e-06,-0.08
-1.7552e-06,0
-1.7544e-06,0
-1.7536e-06,0
-1.7528e-06,-0.04
-1.7520e-06,-0.04
-1.7512e-06,-0.04
-1.7504e-06,-0.08
-1.7496e-06,0
-1.7488e-06,0
-1.7480e-06,-0.04
-1.7472e-06,0
-1.7464e-06,0
-1.7456e-06,0.04
-1.7448e-06,-0.04
-1.7440e-06,0.08
-1.7432e-06,0.04
-1.7424e-06,0.12
-1.7416e-06,0
-1.7408e-06,0
-1.7400e-06,0
-1.7392e-06,0.04
-1.7384e-06,0
-1.7376e-06,-0.04
-1.7368e-06,0
-1.7360e-06,0.08
-1.7352e-06,0
-1.7344e-06,0
-1.7336e-06,0
-1.7328e-06,-0.04
-1.7320e-06,-0.08
-1.7312e-06,0.08
-1.7304e-06,0.04
-1.7296e-06,-0.04
-1.7288e-06,0
-1.7280e-06,0
-1.7272e-06,-0.04
-1.7264e-06,-0.04
-1.7256e-06,-0.04
-1.7248e-06,-0.04
-1.7240e-06,-0.04
-1.7232e-06,0.04
-1.7224e-06,0.08
-1.7216e-06,0
-1.7208e-06,0
-1.7200e-06,0
-1.7192e-06,0.04
-1.7184e-06,0.04
-1.7176e-06,0
-1.7168e-06,0.04
-1.7160e-06,0.12
-1.7152e-06,0.04
-1.7144e-06,0
-1.7136e-06,0
-1.7128e-06,0
-1.7120e-06,0
-1.7112e-06,-0.04
-1.7104e-06,0
-1.7096e-06,-0.04
-1.7088e-06,0
-1.7080e-06,0
-1.7072e-06,-0.16
-1.7064e-06,0
-1.7056e-06,-0.04
-1.7048e-06,0.08
-1.7040e-06,-0.04
-1.7032e-06,0
-1.7024e-06,0
-1.7016e-06,0.08
-1.7008e-06,0.08
-1.7000e-06,0.08
-1.6992e-06,0
-1.6984e-06,0.04
-1.6976e-06,-0.04
-1.6968e-06,0
-1.6960e-06,0.04
-1.6952e-06,0.04
-1.6944e-06,0.08
-1.6936e-06,0.04
-1.6928e-06,0.08
-1.6920e-06,0.04
-1.6912e-06,0
-1.6904e-06,-0.04
-1.6896e-06,0.04
-1.6888e-06,0.04
-1.6880e-06,-0.04
-1.6872e-06,-0.04
-1.6864e-06,-0.04
-1.6856e-06,0
-1.6848e-06,0
-1.6840e-06,0
-1.6832e-06,0
-1.6824e-06,0.08
-1.6816e-06,0
-1.6808e-06,0
-1.6800e-06,-0.08
-1.6792e-06,-0.04
-1.6784e-06,0.04
-1.6776e-06,0.04
-1.6768e-06,0
-1.6760e-06,0.08
-1.6752e-06,0
-1.6744e-06,-0.04
-1.6736e-06,0.04
-1.6728e-06,-0.08
-1.6720e-06,-0.04
-1.6712e-06,0
-1.6704e-06,0
-1.6696e-06,0.08
-1.6688e-06,0
-1.6680e-06,0
-1.6672e-06,0
-1.6664e-06,0
-1.6656e-06,-0.08
-1.6648e-06,0
-1.6640e-06,-0.04
-1.6632e-06,0
-1.6624e-06,0
-1.6616e-06,-0.04
-1.6608e-06,-0.04
-1.6600e-06,-0.04
-1.6592e-06,0
-1.6584e-06,0.08
-1.6576e-06,-0.04
-1.6568e-06,0
-1.6560e-06,0
-1.6552e-06,0.08
-1.6544e-06,0
-1.6536e-06,0
-1.6528e-06,0.04
-1.6520e-06,0
-1.6512e-06,-0.04
-1.6504e-06,0.04
-1.6496e-06,0
-1.6488e-06,0.08
-1.6480e-06,0
-1.6472e-06,-0.08
-1.6464e-06,0
-1.6456e-06,0.04
-1.6448e-06,0
-1.6440e-06,0
-1.6432e-06,0
-1.6424e-06,0.04
-1.6416e-06,0
-1.6408e-06,0.08
-1.6400e-06,-0.04
-1.6392e-06,0.08
-1.6384e-06,0
-1.6376e-06,0
-1.6368e-06,0
-1.6360e-06,0
-1.6352e-06,-0.04
-1.6344e-06,0.04
-1.6336e-06,-0.04
-1.6328e-06,0.04
-1.6320e-06,-0.04
-1.6312e-06,0
-1.6304e-06,0
-1.6296e-06,0.12
-1.6288e-06,0
-1.6280e-06,0
-1.6272e-06,0
-1.6264e-06,-0.04
-1.6256e-06,0.04
-1.6248e-06,0
-1.6240e-06,0
-1.6232e-06,-0.04
-1.6224e-06,0
-1.6216e-06,0
-1.6208e-06,0
-1.6200e-06,-0.04
-1.6192e-06,0
-1.6184e-06,-0.08
-1.6176e-06,-0.04
-1.6168e-06,-0.04
-1.6160e-06,0.04
-1.6152e-06,0
-1.6144e-06,-0.04
-1.6136e-06,0.04
-1.6128e-06,0
-1.6120e-06,0.04
-1.6112e-06,-0.08
-1.6104e-06,0.04
-1.6096e-06,-0.04
-1.6088e-06,0.04
-1.6080e-06,-0.04
-1.6072e-06,-0.04
-1.6064e-06,0.04
-1.6056e-06,0.08
-1.6048e-06,-0.04
-1.6040e-06,-0.04
-1.6032e-06,0.04
-1.6024e-06,0
-1.6016e-06,0
-1.6008e-06,0
-1.6000e-06,0
-1.5992e-06,0
-1.5984e-06,0
-1.5976e-06,0
-1.5968e-06,0.04
-1.5960e-06,-0.04
-1.5952e-06,0
-1.5944e-06,0
-1.5936e-06,0
-1.5928e-06,0
-1.5920e-06,-0.04
